---
version: 1
interactions:
- request:
    body: ""
    form: {}
    headers:
      User-Agent:
      - wbdata
    url: http://api.worldbank.org/v2/indicators?format=json&page=1&per_page=10
    method: GET
  response:
    body: '[{"page":1,"pages":1734,"per_page":"10","total":17338},[{"id":"1.0.HCount.1.90usd","name":"Poverty
      Headcount ($1.90 a day)","unit":"","source":{"id":"37","value":"LAC Equity Lab"},"sourceNote":"The
      poverty headcount index measures the proportion of the population with daily
      per capita income (in 2011 PPP) below the poverty line.","sourceOrganization":"LAC
      Equity Lab tabulations of SEDLAC (CEDLAS and the World Bank).","topics":[{"id":"11","value":"Poverty
      "}]},{"id":"1.0.HCount.2.5usd","name":"Poverty Headcount ($2.50 a day)","unit":"","source":{"id":"37","value":"LAC
      Equity Lab"},"sourceNote":"The poverty headcount index measures the proportion
      of the population with daily per capita income (in 2005 PPP) below the poverty
      line.","sourceOrganization":"LAC Equity Lab tabulations of SEDLAC (CEDLAS and
      the World Bank).","topics":[{"id":"11","value":"Poverty "}]},{"id":"1.0.HCount.Mid10to50","name":"Middle
      Class ($10-50 a day) Headcount","unit":"","source":{"id":"37","value":"LAC Equity
      Lab"},"sourceNote":"The poverty headcount index measures the proportion of the
      population with daily per capita income (in 2005 PPP) below the poverty line.","sourceOrganization":"LAC
      Equity Lab tabulations of SEDLAC (CEDLAS and the World Bank).","topics":[{"id":"11","value":"Poverty
      "}]},{"id":"1.0.HCount.Ofcl","name":"Official Moderate Poverty Rate-National","unit":"","source":{"id":"37","value":"LAC
      Equity Lab"},"sourceNote":"The poverty headcount index measures the proportion
      of the population with daily per capita income below the official poverty line
      developed by each country.","sourceOrganization":"LAC Equity Lab tabulations
      of data from National Statistical Offices.","topics":[{"id":"11","value":"Poverty
      "}]},{"id":"1.0.HCount.Poor4uds","name":"Poverty Headcount ($4 a day)","unit":"","source":{"id":"37","value":"LAC
      Equity Lab"},"sourceNote":"The poverty headcount index measures the proportion
      of the population with daily per capita income (in 2005 PPP) below the poverty
      line.","sourceOrganization":"LAC Equity Lab tabulations of SEDLAC (CEDLAS and
      the World Bank).","topics":[{"id":"11","value":"Poverty "}]},{"id":"1.0.HCount.Vul4to10","name":"Vulnerable
      ($4-10 a day) Headcount","unit":"","source":{"id":"37","value":"LAC Equity Lab"},"sourceNote":"The
      poverty headcount index measures the proportion of the population with daily
      per capita income (in 2005 PPP) below the poverty line.","sourceOrganization":"LAC
      Equity Lab tabulations of SEDLAC (CEDLAS and the World Bank).","topics":[{"id":"11","value":"Poverty
      "}]},{"id":"1.0.PGap.1.90usd","name":"Poverty Gap ($1.90 a day)","unit":"","source":{"id":"37","value":"LAC
      Equity Lab"},"sourceNote":"The poverty gap captures the mean aggregate income
      or consumption shortfall relative to the poverty line across the entire population.
      It measures the total resources needed to bring all the poor to the level of
      the poverty line (averaged over the total population). ","sourceOrganization":"LAC
      Equity Lab tabulations of SEDLAC (CEDLAS and the World Bank).","topics":[{"id":"11","value":"Poverty
      "}]},{"id":"1.0.PGap.2.5usd","name":"Poverty Gap ($2.50 a day)","unit":"","source":{"id":"37","value":"LAC
      Equity Lab"},"sourceNote":"The poverty gap captures the mean aggregate income
      or consumption shortfall relative to the poverty line across the entire population.
      It measures the total resources needed to bring all the poor to the level of
      the poverty line (averaged over the total population). ","sourceOrganization":"LAC
      Equity Lab tabulations of SEDLAC (CEDLAS and the World Bank).","topics":[{"id":"11","value":"Poverty
      "}]},{"id":"1.0.PGap.Poor4uds","name":"Poverty Gap ($4 a day)","unit":"","source":{"id":"37","value":"LAC
      Equity Lab"},"sourceNote":"The poverty gap captures the mean aggregate income
      or consumption shortfall relative to the poverty line across the entire population.
      It measures the total resources needed to bring all the poor to the level of
      the poverty line (averaged over the total population). ","sourceOrganization":"LAC
      Equity Lab tabulations of SEDLAC (CEDLAS and the World Bank).","topics":[{"id":"11","value":"Poverty
      "}]},{"id":"1.0.PSev.1.90usd","name":"Poverty Severity ($1.90 a day)","unit":"","source":{"id":"37","value":"LAC
      Equity Lab"},"sourceNote":"The poverty severity index combines information on
      both poverty and inequality among the poor by averaging the squares of the poverty
      gaps relative the poverty line","sourceOrganization":"LAC Equity Lab tabulations
      of SEDLAC (CEDLAS and the World Bank).","topics":[{"id":"11","value":"Poverty
      "}]}]]'
    headers:
      Access-Control-Allow-Headers:
      - X-Requested-With
      Access-Control-Allow-Methods:
      - GET
      Access-Control-Allow-Origin:
      - '*'
      Connection:
      - keep-alive
      Content-Length:
      - "4567"
      Content-Type:
      - application/json;charset=utf-8
      Date:
      - Sun, 05 Apr 2020 07:04:46 GMT
      Set-Cookie:
      - TS019266c8=017189f947ad34c3b94029fb82ccd79cc124cc01470b206823cf60104422c2826a678153c5c6d425f21443c974eb0f068bdf103b41;
        Path=/
      Strict-Transport-Security:
      - max-age=31536000; includeSubDomains
      X-Content-Type-Options:
      - nosniff
      X-Frame-Options:
      - deny
      X-Xss-Protection:
      - 1; mode=block
    status: 200 OK
    code: 200
    duration: ""
