---
version: 1
interactions:
- request:
    body: ""
    form: {}
    headers:
      User-Agent:
      - wbdata-go
    url: https://api.worldbank.org/v2/countries/JPN;USA/indicators/NY.GDP.MKTP.CD?footnote=y&format=json
    method: GET
  response:
    body: '[{"page":1,"pages":3,"per_page":50,"total":122,"sourceid":"2","sourcename":"World
      Development Indicators","lastupdated":"2021-05-25"},[{"indicator":{"id":"NY.GDP.MKTP.CD","value":"GDP
      (current US$)"},"country":{"id":"JP","value":"Japan"},"countryiso3code":"JPN","date":"2020","value":null,"unit":"","obs_status":"","decimal":0,"footnote":""},{"indicator":{"id":"NY.GDP.MKTP.CD","value":"GDP
      (current US$)"},"country":{"id":"JP","value":"Japan"},"countryiso3code":"JPN","date":"2019","value":5081769542379.77,"unit":"","obs_status":"","decimal":0,"footnote":""},{"indicator":{"id":"NY.GDP.MKTP.CD","value":"GDP
      (current US$)"},"country":{"id":"JP","value":"Japan"},"countryiso3code":"JPN","date":"2018","value":4954806619995.19,"unit":"","obs_status":"","decimal":0,"footnote":""},{"indicator":{"id":"NY.GDP.MKTP.CD","value":"GDP
      (current US$)"},"country":{"id":"JP","value":"Japan"},"countryiso3code":"JPN","date":"2017","value":4866864409657.68,"unit":"","obs_status":"","decimal":0,"footnote":""},{"indicator":{"id":"NY.GDP.MKTP.CD","value":"GDP
      (current US$)"},"country":{"id":"JP","value":"Japan"},"countryiso3code":"JPN","date":"2016","value":4922538141454.62,"unit":"","obs_status":"","decimal":0,"footnote":""},{"indicator":{"id":"NY.GDP.MKTP.CD","value":"GDP
      (current US$)"},"country":{"id":"JP","value":"Japan"},"countryiso3code":"JPN","date":"2015","value":4389475622588.97,"unit":"","obs_status":"","decimal":0,"footnote":""},{"indicator":{"id":"NY.GDP.MKTP.CD","value":"GDP
      (current US$)"},"country":{"id":"JP","value":"Japan"},"countryiso3code":"JPN","date":"2014","value":4850413536037.84,"unit":"","obs_status":"","decimal":0,"footnote":""},{"indicator":{"id":"NY.GDP.MKTP.CD","value":"GDP
      (current US$)"},"country":{"id":"JP","value":"Japan"},"countryiso3code":"JPN","date":"2013","value":5155717056270.83,"unit":"","obs_status":"","decimal":0,"footnote":""},{"indicator":{"id":"NY.GDP.MKTP.CD","value":"GDP
      (current US$)"},"country":{"id":"JP","value":"Japan"},"countryiso3code":"JPN","date":"2012","value":6203213121334.12,"unit":"","obs_status":"","decimal":0,"footnote":""},{"indicator":{"id":"NY.GDP.MKTP.CD","value":"GDP
      (current US$)"},"country":{"id":"JP","value":"Japan"},"countryiso3code":"JPN","date":"2011","value":6157459594823.72,"unit":"","obs_status":"","decimal":0,"footnote":""},{"indicator":{"id":"NY.GDP.MKTP.CD","value":"GDP
      (current US$)"},"country":{"id":"JP","value":"Japan"},"countryiso3code":"JPN","date":"2010","value":5700098114744.41,"unit":"","obs_status":"","decimal":0,"footnote":""},{"indicator":{"id":"NY.GDP.MKTP.CD","value":"GDP
      (current US$)"},"country":{"id":"JP","value":"Japan"},"countryiso3code":"JPN","date":"2009","value":5231382674593.7,"unit":"","obs_status":"","decimal":0,"footnote":""},{"indicator":{"id":"NY.GDP.MKTP.CD","value":"GDP
      (current US$)"},"country":{"id":"JP","value":"Japan"},"countryiso3code":"JPN","date":"2008","value":5037908465114.48,"unit":"","obs_status":"","decimal":0,"footnote":""},{"indicator":{"id":"NY.GDP.MKTP.CD","value":"GDP
      (current US$)"},"country":{"id":"JP","value":"Japan"},"countryiso3code":"JPN","date":"2007","value":4515264514430.57,"unit":"","obs_status":"","decimal":0,"footnote":""},{"indicator":{"id":"NY.GDP.MKTP.CD","value":"GDP
      (current US$)"},"country":{"id":"JP","value":"Japan"},"countryiso3code":"JPN","date":"2006","value":4530377224970.4,"unit":"","obs_status":"","decimal":0,"footnote":""},{"indicator":{"id":"NY.GDP.MKTP.CD","value":"GDP
      (current US$)"},"country":{"id":"JP","value":"Japan"},"countryiso3code":"JPN","date":"2005","value":4755410630912.14,"unit":"","obs_status":"","decimal":0,"footnote":""},{"indicator":{"id":"NY.GDP.MKTP.CD","value":"GDP
      (current US$)"},"country":{"id":"JP","value":"Japan"},"countryiso3code":"JPN","date":"2004","value":4815148854362.11,"unit":"","obs_status":"","decimal":0,"footnote":""},{"indicator":{"id":"NY.GDP.MKTP.CD","value":"GDP
      (current US$)"},"country":{"id":"JP","value":"Japan"},"countryiso3code":"JPN","date":"2003","value":4445658071221.86,"unit":"","obs_status":"","decimal":0,"footnote":""},{"indicator":{"id":"NY.GDP.MKTP.CD","value":"GDP
      (current US$)"},"country":{"id":"JP","value":"Japan"},"countryiso3code":"JPN","date":"2002","value":4115116279069.77,"unit":"","obs_status":"","decimal":0,"footnote":""},{"indicator":{"id":"NY.GDP.MKTP.CD","value":"GDP
      (current US$)"},"country":{"id":"JP","value":"Japan"},"countryiso3code":"JPN","date":"2001","value":4303544259842.72,"unit":"","obs_status":"","decimal":0,"footnote":""},{"indicator":{"id":"NY.GDP.MKTP.CD","value":"GDP
      (current US$)"},"country":{"id":"JP","value":"Japan"},"countryiso3code":"JPN","date":"2000","value":4887519660744.86,"unit":"","obs_status":"","decimal":0,"footnote":""},{"indicator":{"id":"NY.GDP.MKTP.CD","value":"GDP
      (current US$)"},"country":{"id":"JP","value":"Japan"},"countryiso3code":"JPN","date":"1999","value":4562078822335.45,"unit":"","obs_status":"","decimal":0,"footnote":""},{"indicator":{"id":"NY.GDP.MKTP.CD","value":"GDP
      (current US$)"},"country":{"id":"JP","value":"Japan"},"countryiso3code":"JPN","date":"1998","value":4032509760872.94,"unit":"","obs_status":"","decimal":0,"footnote":""},{"indicator":{"id":"NY.GDP.MKTP.CD","value":"GDP
      (current US$)"},"country":{"id":"JP","value":"Japan"},"countryiso3code":"JPN","date":"1997","value":4414732843544.43,"unit":"","obs_status":"","decimal":0,"footnote":""},{"indicator":{"id":"NY.GDP.MKTP.CD","value":"GDP
      (current US$)"},"country":{"id":"JP","value":"Japan"},"countryiso3code":"JPN","date":"1996","value":4833712542207.1,"unit":"","obs_status":"","decimal":0,"footnote":""},{"indicator":{"id":"NY.GDP.MKTP.CD","value":"GDP
      (current US$)"},"country":{"id":"JP","value":"Japan"},"countryiso3code":"JPN","date":"1995","value":5449116304981.1,"unit":"","obs_status":"","decimal":0,"footnote":""},{"indicator":{"id":"NY.GDP.MKTP.CD","value":"GDP
      (current US$)"},"country":{"id":"JP","value":"Japan"},"countryiso3code":"JPN","date":"1994","value":4907039384469.68,"unit":"","obs_status":"","decimal":0,"footnote":""},{"indicator":{"id":"NY.GDP.MKTP.CD","value":"GDP
      (current US$)"},"country":{"id":"JP","value":"Japan"},"countryiso3code":"JPN","date":"1993","value":4454143876947.21,"unit":"","obs_status":"","decimal":0,"footnote":""},{"indicator":{"id":"NY.GDP.MKTP.CD","value":"GDP
      (current US$)"},"country":{"id":"JP","value":"Japan"},"countryiso3code":"JPN","date":"1992","value":3908809463463.86,"unit":"","obs_status":"","decimal":0,"footnote":""},{"indicator":{"id":"NY.GDP.MKTP.CD","value":"GDP
      (current US$)"},"country":{"id":"JP","value":"Japan"},"countryiso3code":"JPN","date":"1991","value":3584420077100.84,"unit":"","obs_status":"","decimal":0,"footnote":""},{"indicator":{"id":"NY.GDP.MKTP.CD","value":"GDP
      (current US$)"},"country":{"id":"JP","value":"Japan"},"countryiso3code":"JPN","date":"1990","value":3132817652848.04,"unit":"","obs_status":"","decimal":0,"footnote":""},{"indicator":{"id":"NY.GDP.MKTP.CD","value":"GDP
      (current US$)"},"country":{"id":"JP","value":"Japan"},"countryiso3code":"JPN","date":"1989","value":3054914166263.18,"unit":"","obs_status":"","decimal":0,"footnote":""},{"indicator":{"id":"NY.GDP.MKTP.CD","value":"GDP
      (current US$)"},"country":{"id":"JP","value":"Japan"},"countryiso3code":"JPN","date":"1988","value":3071683013178.91,"unit":"","obs_status":"","decimal":0,"footnote":""},{"indicator":{"id":"NY.GDP.MKTP.CD","value":"GDP
      (current US$)"},"country":{"id":"JP","value":"Japan"},"countryiso3code":"JPN","date":"1987","value":2532808573157.03,"unit":"","obs_status":"","decimal":0,"footnote":""},{"indicator":{"id":"NY.GDP.MKTP.CD","value":"GDP
      (current US$)"},"country":{"id":"JP","value":"Japan"},"countryiso3code":"JPN","date":"1986","value":2078953333673.55,"unit":"","obs_status":"","decimal":0,"footnote":""},{"indicator":{"id":"NY.GDP.MKTP.CD","value":"GDP
      (current US$)"},"country":{"id":"JP","value":"Japan"},"countryiso3code":"JPN","date":"1985","value":1398892744820.69,"unit":"","obs_status":"","decimal":0,"footnote":""},{"indicator":{"id":"NY.GDP.MKTP.CD","value":"GDP
      (current US$)"},"country":{"id":"JP","value":"Japan"},"countryiso3code":"JPN","date":"1984","value":1318381627003.76,"unit":"","obs_status":"","decimal":0,"footnote":""},{"indicator":{"id":"NY.GDP.MKTP.CD","value":"GDP
      (current US$)"},"country":{"id":"JP","value":"Japan"},"countryiso3code":"JPN","date":"1983","value":1243323592058.83,"unit":"","obs_status":"","decimal":0,"footnote":""},{"indicator":{"id":"NY.GDP.MKTP.CD","value":"GDP
      (current US$)"},"country":{"id":"JP","value":"Japan"},"countryiso3code":"JPN","date":"1982","value":1134518001884.56,"unit":"","obs_status":"","decimal":0,"footnote":""},{"indicator":{"id":"NY.GDP.MKTP.CD","value":"GDP
      (current US$)"},"country":{"id":"JP","value":"Japan"},"countryiso3code":"JPN","date":"1981","value":1218988935129.81,"unit":"","obs_status":"","decimal":0,"footnote":""},{"indicator":{"id":"NY.GDP.MKTP.CD","value":"GDP
      (current US$)"},"country":{"id":"JP","value":"Japan"},"countryiso3code":"JPN","date":"1980","value":1105385973763.87,"unit":"","obs_status":"","decimal":0,"footnote":""},{"indicator":{"id":"NY.GDP.MKTP.CD","value":"GDP
      (current US$)"},"country":{"id":"JP","value":"Japan"},"countryiso3code":"JPN","date":"1979","value":1055012119526.33,"unit":"","obs_status":"","decimal":0,"footnote":""},{"indicator":{"id":"NY.GDP.MKTP.CD","value":"GDP
      (current US$)"},"country":{"id":"JP","value":"Japan"},"countryiso3code":"JPN","date":"1978","value":1013612173518.84,"unit":"","obs_status":"","decimal":0,"footnote":""},{"indicator":{"id":"NY.GDP.MKTP.CD","value":"GDP
      (current US$)"},"country":{"id":"JP","value":"Japan"},"countryiso3code":"JPN","date":"1977","value":721411786536.814,"unit":"","obs_status":"","decimal":0,"footnote":""},{"indicator":{"id":"NY.GDP.MKTP.CD","value":"GDP
      (current US$)"},"country":{"id":"JP","value":"Japan"},"countryiso3code":"JPN","date":"1976","value":586161858999.671,"unit":"","obs_status":"","decimal":0,"footnote":""},{"indicator":{"id":"NY.GDP.MKTP.CD","value":"GDP
      (current US$)"},"country":{"id":"JP","value":"Japan"},"countryiso3code":"JPN","date":"1975","value":521541905673.251,"unit":"","obs_status":"","decimal":0,"footnote":""},{"indicator":{"id":"NY.GDP.MKTP.CD","value":"GDP
      (current US$)"},"country":{"id":"JP","value":"Japan"},"countryiso3code":"JPN","date":"1974","value":479625998613.406,"unit":"","obs_status":"","decimal":0,"footnote":""},{"indicator":{"id":"NY.GDP.MKTP.CD","value":"GDP
      (current US$)"},"country":{"id":"JP","value":"Japan"},"countryiso3code":"JPN","date":"1973","value":432082670450.719,"unit":"","obs_status":"","decimal":0,"footnote":""},{"indicator":{"id":"NY.GDP.MKTP.CD","value":"GDP
      (current US$)"},"country":{"id":"JP","value":"Japan"},"countryiso3code":"JPN","date":"1972","value":318031297492.352,"unit":"","obs_status":"","decimal":0,"footnote":""},{"indicator":{"id":"NY.GDP.MKTP.CD","value":"GDP
      (current US$)"},"country":{"id":"JP","value":"Japan"},"countryiso3code":"JPN","date":"1971","value":240151807460.241,"unit":"","obs_status":"","decimal":0,"footnote":""}]]'
    headers:
      Access-Control-Allow-Headers:
      - X-Requested-With
      Access-Control-Allow-Methods:
      - GET
      Access-Control-Allow-Origin:
      - '*'
      Cache-Control:
      - public, must-revalidate, max-age=2592000
      Content-Length:
      - "11070"
      Content-Type:
      - application/json;charset=utf-8
      Date:
      - Sun, 13 Jun 2021 02:49:08 GMT
      Expires:
      - Tue, 13 Jul 2021 02:49:08 GMT
      Last-Modified:
      - Sun, 13 Jun 2021 02:49:08 GMT
      Request-Context:
      - appId=cid-v1:da002513-bd8b-4441-9f30-737944134422
      Set-Cookie:
      - api_https.cookieCORS=76a6c6567ab12cea5dac4942d8df71cc; Path=/; SameSite=None;
        Secure
      - api_https.cookie=76a6c6567ab12cea5dac4942d8df71cc; Path=/
      - TS01fa65e4=01359ee9765695404e7d2c1a2db5f607524f283ddf1ecb159e331db486c44e8b28fdb82eb9bf2bbdbba5ca7a4cd98eac36c6d24c23;
        Path=/
      - TS019865bf=01689d383644197866ab1d7b8c884b5d51669aab896558a71b2d1d7d3751fc92854520f0b69bd61ef7c9f6f7491b3fcd831fb0cc81ca15e14ace9de086c3a869a912e56944;
        Path=/
    status: 200 OK
    code: 200
    duration: ""
- request:
    body: ""
    form: {}
    headers:
      User-Agent:
      - wbdata-go
    url: https://api.worldbank.org/v2/countries/JPN;USA/indicators/NY.GDP.MKTP.CD?date=2018%3A2019&footnote=y&format=json&page=1&per_page=2
    method: GET
  response:
    body: '[{"page":1,"pages":2,"per_page":2,"total":4,"sourceid":"2","sourcename":"World
      Development Indicators","lastupdated":"2021-05-25"},[{"indicator":{"id":"NY.GDP.MKTP.CD","value":"GDP
      (current US$)"},"country":{"id":"JP","value":"Japan"},"countryiso3code":"JPN","date":"2019","value":5081769542379.77,"unit":"","obs_status":"","decimal":0,"footnote":""},{"indicator":{"id":"NY.GDP.MKTP.CD","value":"GDP
      (current US$)"},"country":{"id":"JP","value":"Japan"},"countryiso3code":"JPN","date":"2018","value":4954806619995.19,"unit":"","obs_status":"","decimal":0,"footnote":""}]]'
    headers:
      Access-Control-Allow-Headers:
      - X-Requested-With
      Access-Control-Allow-Methods:
      - GET
      Access-Control-Allow-Origin:
      - '*'
      Cache-Control:
      - public, must-revalidate, max-age=2592000
      Content-Length:
      - "571"
      Content-Type:
      - application/json;charset=utf-8
      Date:
      - Sun, 13 Jun 2021 02:49:09 GMT
      Expires:
      - Tue, 13 Jul 2021 02:49:09 GMT
      Last-Modified:
      - Sun, 13 Jun 2021 02:49:09 GMT
      Request-Context:
      - appId=cid-v1:da002513-bd8b-4441-9f30-737944134422
      Set-Cookie:
      - api_https.cookieCORS=286e43d9dbb589273e07f096cd441f82; Path=/; SameSite=None;
        Secure
      - api_https.cookie=286e43d9dbb589273e07f096cd441f82; Path=/
      - TS019266c8=017189f9470f014961e3a18d2da9f4bc84dfdd26918867e7f43849902852c69a71863a492cadac5cb33f851dd20d50b519ebc72e58;
        Path=/
      - TS019865bf=0114ae29260613782871524cf7541c3ddf4b96479166a5c53b30293ed6d727aad0bde59805f27934eb9a047f7a3c2c5f81674db6be8f56e8e38d117d5b1354fc4760adb3c2;
        Path=/
    status: 200 OK
    code: 200
    duration: ""
- request:
    body: ""
    form: {}
    headers:
      User-Agent:
      - wbdata-go
    url: https://api.worldbank.org/v2/countries/ABCDEFG;HIJKLM/indicators/NY.GDP.MKTP.CD?footnote=y&format=json
    method: GET
  response:
    body: '[{"message":[{"id":"120","key":"Invalid value","value":"The provided parameter
      value is not valid"}]}]'
    headers:
      Access-Control-Allow-Headers:
      - X-Requested-With
      Access-Control-Allow-Methods:
      - GET
      Access-Control-Allow-Origin:
      - '*'
      Cache-Control:
      - public, must-revalidate, max-age=2592000
      Content-Length:
      - "102"
      Content-Type:
      - application/json;charset=utf-8
      Date:
      - Sun, 13 Jun 2021 02:49:09 GMT
      Expires:
      - Tue, 13 Jul 2021 02:49:09 GMT
      Last-Modified:
      - Sun, 13 Jun 2021 02:49:09 GMT
      Request-Context:
      - appId=cid-v1:da002513-bd8b-4441-9f30-737944134422
      Set-Cookie:
      - api_https.cookieCORS=76a6c6567ab12cea5dac4942d8df71cc; Path=/; SameSite=None;
        Secure
      - api_https.cookie=76a6c6567ab12cea5dac4942d8df71cc; Path=/
      - TS01fa65e4=01359ee9762a72223fd966c6e84b74bd45c8905f88fcc6e154c070ccb45a8966cd6d86acf0e34c65fe58079410a0ba688e2d150e37;
        Path=/
      - TS019865bf=01689d383688f8a2d5154068d6a71257d9058340791fa0f9b466e22a61a6648018f02f994e24f7d161f9e984e971d7ade21e96de008bef4b0952792b6e26d39407e60967e6;
        Path=/
    status: 200 OK
    code: 200
    duration: ""
- request:
    body: ""
    form: {}
    headers:
      User-Agent:
      - wbdata-go
    url: https://api.worldbank.org/v2/countries/JPN;USA/indicators/INVALID.INDICATOR.ID?footnote=y&format=json
    method: GET
  response:
    body: '[{"message":[{"id":"120","key":"Invalid value","value":"The provided parameter
      value is not valid"}]}]'
    headers:
      Access-Control-Allow-Headers:
      - X-Requested-With
      Access-Control-Allow-Methods:
      - GET
      Access-Control-Allow-Origin:
      - '*'
      Cache-Control:
      - public, must-revalidate, max-age=2592000
      Content-Length:
      - "102"
      Content-Type:
      - application/json;charset=utf-8
      Date:
      - Sun, 13 Jun 2021 02:49:09 GMT
      Expires:
      - Tue, 13 Jul 2021 02:49:09 GMT
      Last-Modified:
      - Sun, 13 Jun 2021 02:49:09 GMT
      Request-Context:
      - appId=cid-v1:da002513-bd8b-4441-9f30-737944134422
      Set-Cookie:
      - api_https.cookieCORS=286e43d9dbb589273e07f096cd441f82; Path=/; SameSite=None;
        Secure
      - api_https.cookie=286e43d9dbb589273e07f096cd441f82; Path=/
      - TS019266c8=017189f947ff2ceb8de58c09b27935c3dc870f557f101212f348058b1823fd5683a9495ef403d2e33d8384ed674cd75db4b2db3e0d;
        Path=/
      - TS019865bf=0114ae292635524214f9aad5951be823a8224655c773c5ac21140c914a4948f7ed78cf1582a7d3ed80ce53e29908df78b864fd536d3e5d611d94821fa6959f648b362a7ba3;
        Path=/
    status: 200 OK
    code: 200
    duration: ""
