---
version: 1
interactions:
- request:
    body: ""
    form: {}
    headers:
      User-Agent:
      - wbdata-go
    url: https://api.worldbank.org/v2/countries/all/indicators/NY.GDP.MKTP.CD;SP.POP.TOTL?footnote=y&format=json&source=2
    method: GET
  response:
    body: '[{"page":1,"pages":645,"per_page":50,"total":32208,"sourceid":null,"lastupdated":"2020-12-16"},[{"indicator":{"id":"NY.GDP.MKTP.CD","value":"GDP
      (current US$)"},"country":{"id":"1A","value":"Arab World"},"countryiso3code":"ARB","date":"2020","value":null,"scale":"","unit":"","obs_status":"","decimal":0,"footnote":""},{"indicator":{"id":"NY.GDP.MKTP.CD","value":"GDP
      (current US$)"},"country":{"id":"1A","value":"Arab World"},"countryiso3code":"ARB","date":"2019","value":2817414584665.11,"unit":"","obs_status":"","decimal":0,"footnote":""},{"indicator":{"id":"NY.GDP.MKTP.CD","value":"GDP
      (current US$)"},"country":{"id":"1A","value":"Arab World"},"countryiso3code":"ARB","date":"2018","value":2771384097904.53,"unit":"","obs_status":"","decimal":0,"footnote":""},{"indicator":{"id":"NY.GDP.MKTP.CD","value":"GDP
      (current US$)"},"country":{"id":"1A","value":"Arab World"},"countryiso3code":"ARB","date":"2017","value":2516121177762.82,"unit":"","obs_status":"","decimal":0,"footnote":""},{"indicator":{"id":"NY.GDP.MKTP.CD","value":"GDP
      (current US$)"},"country":{"id":"1A","value":"Arab World"},"countryiso3code":"ARB","date":"2016","value":2469440154484.43,"unit":"","obs_status":"","decimal":0,"footnote":""},{"indicator":{"id":"NY.GDP.MKTP.CD","value":"GDP
      (current US$)"},"country":{"id":"1A","value":"Arab World"},"countryiso3code":"ARB","date":"2015","value":2534723688142.23,"unit":"","obs_status":"","decimal":0,"footnote":""},{"indicator":{"id":"NY.GDP.MKTP.CD","value":"GDP
      (current US$)"},"country":{"id":"1A","value":"Arab World"},"countryiso3code":"ARB","date":"2014","value":2894391168409.53,"unit":"","obs_status":"","decimal":0,"footnote":""},{"indicator":{"id":"NY.GDP.MKTP.CD","value":"GDP
      (current US$)"},"country":{"id":"1A","value":"Arab World"},"countryiso3code":"ARB","date":"2013","value":2856372458851.04,"unit":"","obs_status":"","decimal":0,"footnote":""},{"indicator":{"id":"NY.GDP.MKTP.CD","value":"GDP
      (current US$)"},"country":{"id":"1A","value":"Arab World"},"countryiso3code":"ARB","date":"2012","value":2773499064014.84,"unit":"","obs_status":"","decimal":0,"footnote":""},{"indicator":{"id":"NY.GDP.MKTP.CD","value":"GDP
      (current US$)"},"country":{"id":"1A","value":"Arab World"},"countryiso3code":"ARB","date":"2011","value":2494028778449.34,"unit":"","obs_status":"","decimal":0,"footnote":""},{"indicator":{"id":"NY.GDP.MKTP.CD","value":"GDP
      (current US$)"},"country":{"id":"1A","value":"Arab World"},"countryiso3code":"ARB","date":"2010","value":2103331412247.86,"unit":"","obs_status":"","decimal":0,"footnote":""},{"indicator":{"id":"NY.GDP.MKTP.CD","value":"GDP
      (current US$)"},"country":{"id":"1A","value":"Arab World"},"countryiso3code":"ARB","date":"2009","value":1795740921393.58,"unit":"","obs_status":"","decimal":0,"footnote":""},{"indicator":{"id":"NY.GDP.MKTP.CD","value":"GDP
      (current US$)"},"country":{"id":"1A","value":"Arab World"},"countryiso3code":"ARB","date":"2008","value":2080969850135.39,"unit":"","obs_status":"","decimal":0,"footnote":""},{"indicator":{"id":"NY.GDP.MKTP.CD","value":"GDP
      (current US$)"},"country":{"id":"1A","value":"Arab World"},"countryiso3code":"ARB","date":"2007","value":1639307043044.79,"unit":"","obs_status":"","decimal":0,"footnote":""},{"indicator":{"id":"NY.GDP.MKTP.CD","value":"GDP
      (current US$)"},"country":{"id":"1A","value":"Arab World"},"countryiso3code":"ARB","date":"2006","value":1406002045914.84,"unit":"","obs_status":"","decimal":0,"footnote":""},{"indicator":{"id":"NY.GDP.MKTP.CD","value":"GDP
      (current US$)"},"country":{"id":"1A","value":"Arab World"},"countryiso3code":"ARB","date":"2005","value":1186135399898.53,"unit":"","obs_status":"","decimal":0,"footnote":""},{"indicator":{"id":"NY.GDP.MKTP.CD","value":"GDP
      (current US$)"},"country":{"id":"1A","value":"Arab World"},"countryiso3code":"ARB","date":"2004","value":965100949397.812,"unit":"","obs_status":"","decimal":0,"footnote":""},{"indicator":{"id":"NY.GDP.MKTP.CD","value":"GDP
      (current US$)"},"country":{"id":"1A","value":"Arab World"},"countryiso3code":"ARB","date":"2003","value":821089931822.719,"unit":"","obs_status":"","decimal":0,"footnote":""},{"indicator":{"id":"NY.GDP.MKTP.CD","value":"GDP
      (current US$)"},"country":{"id":"1A","value":"Arab World"},"countryiso3code":"ARB","date":"2002","value":726832740066.549,"unit":"","obs_status":"","decimal":0,"footnote":""},{"indicator":{"id":"NY.GDP.MKTP.CD","value":"GDP
      (current US$)"},"country":{"id":"1A","value":"Arab World"},"countryiso3code":"ARB","date":"2001","value":722917010350.548,"unit":"","obs_status":"","decimal":0,"footnote":""},{"indicator":{"id":"NY.GDP.MKTP.CD","value":"GDP
      (current US$)"},"country":{"id":"1A","value":"Arab World"},"countryiso3code":"ARB","date":"2000","value":735685319268.802,"unit":"","obs_status":"","decimal":0,"footnote":""},{"indicator":{"id":"NY.GDP.MKTP.CD","value":"GDP
      (current US$)"},"country":{"id":"1A","value":"Arab World"},"countryiso3code":"ARB","date":"1999","value":644527010683.065,"unit":"","obs_status":"","decimal":0,"footnote":""},{"indicator":{"id":"NY.GDP.MKTP.CD","value":"GDP
      (current US$)"},"country":{"id":"1A","value":"Arab World"},"countryiso3code":"ARB","date":"1998","value":592264356627.349,"unit":"","obs_status":"","decimal":0,"footnote":""},{"indicator":{"id":"NY.GDP.MKTP.CD","value":"GDP
      (current US$)"},"country":{"id":"1A","value":"Arab World"},"countryiso3code":"ARB","date":"1997","value":614123231689.678,"unit":"","obs_status":"","decimal":0,"footnote":""},{"indicator":{"id":"NY.GDP.MKTP.CD","value":"GDP
      (current US$)"},"country":{"id":"1A","value":"Arab World"},"countryiso3code":"ARB","date":"1996","value":579109082402.504,"unit":"","obs_status":"","decimal":0,"footnote":""},{"indicator":{"id":"NY.GDP.MKTP.CD","value":"GDP
      (current US$)"},"country":{"id":"1A","value":"Arab World"},"countryiso3code":"ARB","date":"1995","value":524626754650.83,"unit":"","obs_status":"","decimal":0,"footnote":""},{"indicator":{"id":"NY.GDP.MKTP.CD","value":"GDP
      (current US$)"},"country":{"id":"1A","value":"Arab World"},"countryiso3code":"ARB","date":"1994","value":488310840410.44,"unit":"","obs_status":"","decimal":0,"footnote":""},{"indicator":{"id":"NY.GDP.MKTP.CD","value":"GDP
      (current US$)"},"country":{"id":"1A","value":"Arab World"},"countryiso3code":"ARB","date":"1993","value":477750218753.597,"unit":"","obs_status":"","decimal":0,"footnote":""},{"indicator":{"id":"NY.GDP.MKTP.CD","value":"GDP
      (current US$)"},"country":{"id":"1A","value":"Arab World"},"countryiso3code":"ARB","date":"1992","value":472395612979.048,"unit":"","obs_status":"","decimal":0,"footnote":""},{"indicator":{"id":"NY.GDP.MKTP.CD","value":"GDP
      (current US$)"},"country":{"id":"1A","value":"Arab World"},"countryiso3code":"ARB","date":"1991","value":441363731387.288,"unit":"","obs_status":"","decimal":0,"footnote":""},{"indicator":{"id":"NY.GDP.MKTP.CD","value":"GDP
      (current US$)"},"country":{"id":"1A","value":"Arab World"},"countryiso3code":"ARB","date":"1990","value":447403057842.308,"unit":"","obs_status":"","decimal":0,"footnote":""},{"indicator":{"id":"NY.GDP.MKTP.CD","value":"GDP
      (current US$)"},"country":{"id":"1A","value":"Arab World"},"countryiso3code":"ARB","date":"1989","value":323313155352.566,"unit":"","obs_status":"","decimal":0,"footnote":""},{"indicator":{"id":"NY.GDP.MKTP.CD","value":"GDP
      (current US$)"},"country":{"id":"1A","value":"Arab World"},"countryiso3code":"ARB","date":"1988","value":308329777739.899,"unit":"","obs_status":"","decimal":0,"footnote":""},{"indicator":{"id":"NY.GDP.MKTP.CD","value":"GDP
      (current US$)"},"country":{"id":"1A","value":"Arab World"},"countryiso3code":"ARB","date":"1987","value":313464339247.535,"unit":"","obs_status":"","decimal":0,"footnote":""},{"indicator":{"id":"NY.GDP.MKTP.CD","value":"GDP
      (current US$)"},"country":{"id":"1A","value":"Arab World"},"countryiso3code":"ARB","date":"1986","value":294002304210.702,"unit":"","obs_status":"","decimal":0,"footnote":""},{"indicator":{"id":"NY.GDP.MKTP.CD","value":"GDP
      (current US$)"},"country":{"id":"1A","value":"Arab World"},"countryiso3code":"ARB","date":"1985","value":307935286171.298,"unit":"","obs_status":"","decimal":0,"footnote":""},{"indicator":{"id":"NY.GDP.MKTP.CD","value":"GDP
      (current US$)"},"country":{"id":"1A","value":"Arab World"},"countryiso3code":"ARB","date":"1984","value":311102902529.672,"unit":"","obs_status":"","decimal":0,"footnote":""},{"indicator":{"id":"NY.GDP.MKTP.CD","value":"GDP
      (current US$)"},"country":{"id":"1A","value":"Arab World"},"countryiso3code":"ARB","date":"1983","value":306718525880.767,"unit":"","obs_status":"","decimal":0,"footnote":""},{"indicator":{"id":"NY.GDP.MKTP.CD","value":"GDP
      (current US$)"},"country":{"id":"1A","value":"Arab World"},"countryiso3code":"ARB","date":"1982","value":326467614158.131,"unit":"","obs_status":"","decimal":0,"footnote":""},{"indicator":{"id":"NY.GDP.MKTP.CD","value":"GDP
      (current US$)"},"country":{"id":"1A","value":"Arab World"},"countryiso3code":"ARB","date":"1981","value":348013579325.699,"unit":"","obs_status":"","decimal":0,"footnote":""},{"indicator":{"id":"NY.GDP.MKTP.CD","value":"GDP
      (current US$)"},"country":{"id":"1A","value":"Arab World"},"countryiso3code":"ARB","date":"1980","value":337548607895.817,"unit":"","obs_status":"","decimal":0,"footnote":""},{"indicator":{"id":"NY.GDP.MKTP.CD","value":"GDP
      (current US$)"},"country":{"id":"1A","value":"Arab World"},"countryiso3code":"ARB","date":"1979","value":248970610830.706,"unit":"","obs_status":"","decimal":0,"footnote":""},{"indicator":{"id":"NY.GDP.MKTP.CD","value":"GDP
      (current US$)"},"country":{"id":"1A","value":"Arab World"},"countryiso3code":"ARB","date":"1978","value":183969539762.573,"unit":"","obs_status":"","decimal":0,"footnote":""},{"indicator":{"id":"NY.GDP.MKTP.CD","value":"GDP
      (current US$)"},"country":{"id":"1A","value":"Arab World"},"countryiso3code":"ARB","date":"1977","value":167530174445.324,"unit":"","obs_status":"","decimal":0,"footnote":""},{"indicator":{"id":"NY.GDP.MKTP.CD","value":"GDP
      (current US$)"},"country":{"id":"1A","value":"Arab World"},"countryiso3code":"ARB","date":"1976","value":145484738304.229,"unit":"","obs_status":"","decimal":0,"footnote":""},{"indicator":{"id":"NY.GDP.MKTP.CD","value":"GDP
      (current US$)"},"country":{"id":"1A","value":"Arab World"},"countryiso3code":"ARB","date":"1975","value":117103149355.725,"unit":"","obs_status":"","decimal":0,"footnote":""},{"indicator":{"id":"NY.GDP.MKTP.CD","value":"GDP
      (current US$)"},"country":{"id":"1A","value":"Arab World"},"countryiso3code":"ARB","date":"1974","value":105711125366.347,"unit":"","obs_status":"","decimal":0,"footnote":""},{"indicator":{"id":"NY.GDP.MKTP.CD","value":"GDP
      (current US$)"},"country":{"id":"1A","value":"Arab World"},"countryiso3code":"ARB","date":"1973","value":55922081751.8977,"unit":"","obs_status":"","decimal":0,"footnote":""},{"indicator":{"id":"NY.GDP.MKTP.CD","value":"GDP
      (current US$)"},"country":{"id":"1A","value":"Arab World"},"countryiso3code":"ARB","date":"1972","value":44182128971.3952,"unit":"","obs_status":"","decimal":0,"footnote":""},{"indicator":{"id":"NY.GDP.MKTP.CD","value":"GDP
      (current US$)"},"country":{"id":"1A","value":"Arab World"},"countryiso3code":"ARB","date":"1971","value":37045140366.8421,"unit":"","obs_status":"","decimal":0,"footnote":""}]]'
    headers:
      Access-Control-Allow-Headers:
      - X-Requested-With
      Access-Control-Allow-Methods:
      - GET
      Access-Control-Allow-Origin:
      - '*'
      Cache-Control:
      - public, must-revalidate, max-age=2590966
      Content-Length:
      - "11294"
      Content-Type:
      - application/json;charset=utf-8
      Date:
      - Tue, 26 Jan 2021 14:53:41 GMT
      Expires:
      - Thu, 25 Feb 2021 14:36:27 GMT
      Last-Modified:
      - Tue, 26 Jan 2021 14:36:27 GMT
      Request-Context:
      - appId=cid-v1:da002513-bd8b-4441-9f30-737944134422
      Set-Cookie:
      - api_https.cookieCORS=96906c52f5aa89ac2fd6ca82f58d4294; Path=/; SameSite=None;
        Secure
      - api_https.cookie=96906c52f5aa89ac2fd6ca82f58d4294; Path=/
      - TS019266c8=017189f94760cafb9e200f333bc2bd34b4474939ce36dd9e3eda4c52f9caca4d516f78ec604c8e62e766757216fa22ff948ba8812c;
        Path=/
      - TS019865bf=016ca92173d519cc7fe5e7d7d2d55901cbea0f59262f3ddfbea0c7f5779c9ca41b02f764aebb2ac19ade2e32a009a6f49ffd5991a1c9db6cb74f2381af692745eb37c1bb18;
        Path=/
    status: 200 OK
    code: 200
    duration: ""
- request:
    body: ""
    form: {}
    headers:
      User-Agent:
      - wbdata-go
    url: https://api.worldbank.org/v2/countries/all/indicators/NY.GDP.MKTP.CD;SP.POP.TOTL?date=2018%3A2019&footnote=y&format=json&page=1&per_page=2&source=2
    method: GET
  response:
    body: '[{"page":1,"pages":528,"per_page":2,"total":1056,"sourceid":null,"lastupdated":"2020-12-16"},[{"indicator":{"id":"NY.GDP.MKTP.CD","value":"GDP
      (current US$)"},"country":{"id":"1A","value":"Arab World"},"countryiso3code":"ARB","date":"2019","value":2817414584665.11,"unit":"","obs_status":"","decimal":0,"footnote":""},{"indicator":{"id":"NY.GDP.MKTP.CD","value":"GDP
      (current US$)"},"country":{"id":"1A","value":"Arab World"},"countryiso3code":"ARB","date":"2018","value":2771384097904.53,"unit":"","obs_status":"","decimal":0,"footnote":""}]]'
    headers:
      Access-Control-Allow-Headers:
      - X-Requested-With
      Access-Control-Allow-Methods:
      - GET
      Access-Control-Allow-Origin:
      - '*'
      Cache-Control:
      - public, must-revalidate, max-age=2590967
      Content-Length:
      - "543"
      Content-Type:
      - application/json;charset=utf-8
      Date:
      - Tue, 26 Jan 2021 14:53:41 GMT
      Expires:
      - Thu, 25 Feb 2021 14:36:28 GMT
      Last-Modified:
      - Tue, 26 Jan 2021 14:36:28 GMT
      Request-Context:
      - appId=cid-v1:da002513-bd8b-4441-9f30-737944134422
      Set-Cookie:
      - api_https.cookieCORS=53177bb75221daa2374b8eb09e8f707d; Path=/; SameSite=None;
        Secure
      - api_https.cookie=53177bb75221daa2374b8eb09e8f707d; Path=/
      - TS019266c8=017189f9479d9306b1696d7d4939c599b5292a4ddae2f838085d2b01ef19254c7dc14f15fe875c5e68e44313b31eb94150120bd7b5;
        Path=/
      - TS019865bf=01236463217adf1186989e30c76dd2a634bdf1496765f3b5cacd29da0ef455988e62cc3484c1564ac72de47779d38d1be1864ad2ab3e15c7ce3f4646f29926e7c3391db8a8;
        Path=/
    status: 200 OK
    code: 200
    duration: ""
- request:
    body: ""
    form: {}
    headers:
      User-Agent:
      - wbdata-go
    url: https://api.worldbank.org/v2/countries/all/indicators/INVALID.INDICATOR.ID;SP.POP.TOTL?footnote=y&format=json&source=2
    method: GET
  response:
    body: '[{"message":[{"id":"120","key":"Invalid value","value":"The provided parameter
      value is not valid"},{"id":"120","key":"Invalid value","value":"The provided
      parameter value is not valid"},{"id":"120","key":"Invalid value","value":"The
      provided parameter value is not valid"}]}]'
    headers:
      Access-Control-Allow-Headers:
      - X-Requested-With
      Access-Control-Allow-Methods:
      - GET
      Access-Control-Allow-Origin:
      - '*'
      Cache-Control:
      - public, must-revalidate, max-age=2590968
      Content-Length:
      - "276"
      Content-Type:
      - application/json;charset=utf-8
      Date:
      - Tue, 26 Jan 2021 14:53:41 GMT
      Expires:
      - Thu, 25 Feb 2021 14:36:29 GMT
      Last-Modified:
      - Tue, 26 Jan 2021 14:36:29 GMT
      Request-Context:
      - appId=cid-v1:da002513-bd8b-4441-9f30-737944134422
      Set-Cookie:
      - api_https.cookieCORS=96906c52f5aa89ac2fd6ca82f58d4294; Path=/; SameSite=None;
        Secure
      - api_https.cookie=96906c52f5aa89ac2fd6ca82f58d4294; Path=/
      - TS01fa65e4=01359ee976ab98083fe23ea902dd066d46b8d45500f2e035b2d64a1b7834456f0f10d8bbe16dbd2dd998e2ab0e3c01198dcadb7f8a;
        Path=/
      - TS019865bf=016ca921737e3380a1211f6185413cc0df816be89d0ee491ab3e2c732ec7723be5e6cb0c08d6cc0353608470e51f97ab9608d678fc875a3b768c7b1c54048a2b83a2ff7423;
        Path=/
    status: 200 OK
    code: 200
    duration: ""
- request:
    body: ""
    form: {}
    headers:
      User-Agent:
      - wbdata-go
    url: https://api.worldbank.org/v2/countries/all/indicators/INVALID.INDICATOR.ID;SP.POP.TOTL?footnote=y&format=json&source=invalid_source_id
    method: GET
  response:
    body: "\uFEFF\x3C\x3F\x78\x6D\x6C\x20\x76\x65\x72\x73\x69\x6F\x6E\x3D\"\x31\x2E\x30\"\x20\x65\x6E\x63\x6F\x64\x69\x6E\x67\x3D\"\x75\x74\x66\x2D\x38\"\x3F\x3E\r\n\x3C\x21\x44\x4F\x43\x54\x59\x50\x45\x20\x68\x74\x6D\x6C\x20\x50\x55\x42\x4C\x49\x43\x20\"\x2D\x2F\x2F\x57\x33\x43\x2F\x2F\x44\x54\x44\x20\x58\x48\x54\x4D\x4C\x20\x31\x2E\x30\x20\x54\x72\x61\x6E\x73\x69\x74\x69\x6F\x6E\x61\x6C\x2F\x2F\x45\x4E\"\x20\"\x68\x74\x74\x70\x3A\x2F\x2F\x77\x77\x77\x2E\x77\x33\x2E\x6F\x72\x67\x2F\x54\x52\x2F\x78\x68\x74\x6D\x6C\x31\x2F\x44\x54\x44\x2F\x78\x68\x74\x6D\x6C\x31\x2D\x74\x72\x61\x6E\x73\x69\x74\x69\x6F\x6E\x61\x6C\x2E\x64\x74\x64\"\x3E\r\n\x3C\x68\x74\x6D\x6C\x20\x78\x6D\x6C\x6E\x73\x3D\"\x68\x74\x74\x70\x3A\x2F\x2F\x77\x77\x77\x2E\x77\x33\x2E\x6F\x72\x67\x2F\x31\x39\x39\x39\x2F\x78\x68\x74\x6D\x6C\"\x3E\r\n\x20\x20\x3C\x68\x65\x61\x64\x3E\r\n\x20\x20\x20\x20\x3C\x74\x69\x74\x6C\x65\x3E\x52\x65\x71\x75\x65\x73\x74\x20\x45\x72\x72\x6F\x72\x3C\x2F\x74\x69\x74\x6C\x65\x3E\r\n\x20\x20\x20\x20\x3C\x73\x74\x79\x6C\x65\x3E\x42\x4F\x44\x59\x20\x7B\x20\x63\x6F\x6C\x6F\x72\x3A\x20\x23\x30\x30\x30\x30\x30\x30\x3B\x20\x62\x61\x63\x6B\x67\x72\x6F\x75\x6E\x64\x2D\x63\x6F\x6C\x6F\x72\x3A\x20\x77\x68\x69\x74\x65\x3B\x20\x66\x6F\x6E\x74\x2D\x66\x61\x6D\x69\x6C\x79\x3A\x20\x56\x65\x72\x64\x61\x6E\x61\x3B\x20\x6D\x61\x72\x67\x69\x6E\x2D\x6C\x65\x66\x74\x3A\x20\x30\x70\x78\x3B\x20\x6D\x61\x72\x67\x69\x6E\x2D\x74\x6F\x70\x3A\x20\x30\x70\x78\x3B\x20\x7D\x20\x23\x63\x6F\x6E\x74\x65\x6E\x74\x20\x7B\x20\x6D\x61\x72\x67\x69\x6E\x2D\x6C\x65\x66\x74\x3A\x20\x33\x30\x70\x78\x3B\x20\x66\x6F\x6E\x74\x2D\x73\x69\x7A\x65\x3A\x20\x2E\x37\x30\x65\x6D\x3B\x20\x70\x61\x64\x64\x69\x6E\x67\x2D\x62\x6F\x74\x74\x6F\x6D\x3A\x20\x32\x65\x6D\x3B\x20\x7D\x20\x41\x3A\x6C\x69\x6E\x6B\x20\x7B\x20\x63\x6F\x6C\x6F\x72\x3A\x20\x23\x33\x33\x36\x36\x39\x39\x3B\x20\x66\x6F\x6E\x74\x2D\x77\x65\x69\x67\x68\x74\x3A\x20\x62\x6F\x6C\x64\x3B\x20\x74\x65\x78\x74\x2D\x64\x65\x63\x6F\x72\x61\x74\x69\x6F\x6E\x3A\x20\x75\x6E\x64\x65\x72\x6C\x69\x6E\x65\x3B\x20\x7D\x20\x41\x3A\x76\x69\x73\x69\x74\x65\x64\x20\x7B\x20\x63\x6F\x6C\x6F\x72\x3A\x20\x23\x36\x36\x39\x39\x63\x63\x3B\x20\x66\x6F\x6E\x74\x2D\x77\x65\x69\x67\x68\x74\x3A\x20\x62\x6F\x6C\x64\x3B\x20\x74\x65\x78\x74\x2D\x64\x65\x63\x6F\x72\x61\x74\x69\x6F\x6E\x3A\x20\x75\x6E\x64\x65\x72\x6C\x69\x6E\x65\x3B\x20\x7D\x20\x41\x3A\x61\x63\x74\x69\x76\x65\x20\x7B\x20\x63\x6F\x6C\x6F\x72\x3A\x20\x23\x33\x33\x36\x36\x39\x39\x3B\x20\x66\x6F\x6E\x74\x2D\x77\x65\x69\x67\x68\x74\x3A\x20\x62\x6F\x6C\x64\x3B\x20\x74\x65\x78\x74\x2D\x64\x65\x63\x6F\x72\x61\x74\x69\x6F\x6E\x3A\x20\x75\x6E\x64\x65\x72\x6C\x69\x6E\x65\x3B\x20\x7D\x20\x2E\x68\x65\x61\x64\x69\x6E\x67\x31\x20\x7B\x20\x62\x61\x63\x6B\x67\x72\x6F\x75\x6E\x64\x2D\x63\x6F\x6C\x6F\x72\x3A\x20\x23\x30\x30\x33\x33\x36\x36\x3B\x20\x62\x6F\x72\x64\x65\x72\x2D\x62\x6F\x74\x74\x6F\x6D\x3A\x20\x23\x33\x33\x36\x36\x39\x39\x20\x36\x70\x78\x20\x73\x6F\x6C\x69\x64\x3B\x20\x63\x6F\x6C\x6F\x72\x3A\x20\x23\x66\x66\x66\x66\x66\x66\x3B\x20\x66\x6F\x6E\x74\x2D\x66\x61\x6D\x69\x6C\x79\x3A\x20\x54\x61\x68\x6F\x6D\x61\x3B\x20\x66\x6F\x6E\x74\x2D\x73\x69\x7A\x65\x3A\x20\x32\x36\x70\x78\x3B\x20\x66\x6F\x6E\x74\x2D\x77\x65\x69\x67\x68\x74\x3A\x20\x6E\x6F\x72\x6D\x61\x6C\x3B\x6D\x61\x72\x67\x69\x6E\x3A\x20\x30\x65\x6D\x20\x30\x65\x6D\x20\x31\x30\x70\x78\x20\x2D\x32\x30\x70\x78\x3B\x20\x70\x61\x64\x64\x69\x6E\x67\x2D\x62\x6F\x74\x74\x6F\x6D\x3A\x20\x38\x70\x78\x3B\x20\x70\x61\x64\x64\x69\x6E\x67\x2D\x6C\x65\x66\x74\x3A\x20\x33\x30\x70\x78\x3B\x70\x61\x64\x64\x69\x6E\x67\x2D\x74\x6F\x70\x3A\x20\x31\x36\x70\x78\x3B\x7D\x20\x70\x72\x65\x20\x7B\x20\x66\x6F\x6E\x74\x2D\x73\x69\x7A\x65\x3A\x73\x6D\x61\x6C\x6C\x3B\x20\x62\x61\x63\x6B\x67\x72\x6F\x75\x6E\x64\x2D\x63\x6F\x6C\x6F\x72\x3A\x20\x23\x65\x35\x65\x35\x63\x63\x3B\x20\x70\x61\x64\x64\x69\x6E\x67\x3A\x20\x35\x70\x78\x3B\x20\x66\x6F\x6E\x74\x2D\x66\x61\x6D\x69\x6C\x79\x3A\x20\x43\x6F\x75\x72\x69\x65\x72\x20\x4E\x65\x77\x3B\x20\x6D\x61\x72\x67\x69\x6E\x2D\x74\x6F\x70\x3A\x20\x30\x70\x78\x3B\x20\x62\x6F\x72\x64\x65\x72\x3A\x20\x31\x70\x78\x20\x23\x66\x30\x66\x30\x65\x30\x20\x73\x6F\x6C\x69\x64\x3B\x20\x77\x68\x69\x74\x65\x2D\x73\x70\x61\x63\x65\x3A\x20\x70\x72\x65\x2D\x77\x72\x61\x70\x3B\x20\x77\x68\x69\x74\x65\x2D\x73\x70\x61\x63\x65\x3A\x20\x2D\x70\x72\x65\x2D\x77\x72\x61\x70\x3B\x20\x77\x6F\x72\x64\x2D\x77\x72\x61\x70\x3A\x20\x62\x72\x65\x61\x6B\x2D\x77\x6F\x72\x64\x3B\x20\x7D\x20\x74\x61\x62\x6C\x65\x20\x7B\x20\x62\x6F\x72\x64\x65\x72\x2D\x63\x6F\x6C\x6C\x61\x70\x73\x65\x3A\x20\x63\x6F\x6C\x6C\x61\x70\x73\x65\x3B\x20\x62\x6F\x72\x64\x65\x72\x2D\x73\x70\x61\x63\x69\x6E\x67\x3A\x20\x30\x70\x78\x3B\x20\x66\x6F\x6E\x74\x2D\x66\x61\x6D\x69\x6C\x79\x3A\x20\x56\x65\x72\x64\x61\x6E\x61\x3B\x7D\x20\x74\x61\x62\x6C\x65\x20\x74\x68\x20\x7B\x20\x62\x6F\x72\x64\x65\x72\x2D\x72\x69\x67\x68\x74\x3A\x20\x32\x70\x78\x20\x77\x68\x69\x74\x65\x20\x73\x6F\x6C\x69\x64\x3B\x20\x62\x6F\x72\x64\x65\x72\x2D\x62\x6F\x74\x74\x6F\x6D\x3A\x20\x32\x70\x78\x20\x77\x68\x69\x74\x65\x20\x73\x6F\x6C\x69\x64\x3B\x20\x66\x6F\x6E\x74\x2D\x77\x65\x69\x67\x68\x74\x3A\x20\x62\x6F\x6C\x64\x3B\x20\x62\x61\x63\x6B\x67\x72\x6F\x75\x6E\x64\x2D\x63\x6F\x6C\x6F\x72\x3A\x20\x23\x63\x65\x63\x66\x39\x63\x3B\x7D\x20\x74\x61\x62\x6C\x65\x20\x74\x64\x20\x7B\x20\x62\x6F\x72\x64\x65\x72\x2D\x72\x69\x67\x68\x74\x3A\x20\x32\x70\x78\x20\x77\x68\x69\x74\x65\x20\x73\x6F\x6C\x69\x64\x3B\x20\x62\x6F\x72\x64\x65\x72\x2D\x62\x6F\x74\x74\x6F\x6D\x3A\x20\x32\x70\x78\x20\x77\x68\x69\x74\x65\x20\x73\x6F\x6C\x69\x64\x3B\x20\x62\x61\x63\x6B\x67\x72\x6F\x75\x6E\x64\x2D\x63\x6F\x6C\x6F\x72\x3A\x20\x23\x65\x35\x65\x35\x63\x63\x3B\x7D\x3C\x2F\x73\x74\x79\x6C\x65\x3E\r\n\x20\x20\x3C\x2F\x68\x65\x61\x64\x3E\r\n\x20\x20\x3C\x62\x6F\x64\x79\x3E\r\n\x20\x20\x20\x20\x3C\x64\x69\x76\x20\x69\x64\x3D\"\x63\x6F\x6E\x74\x65\x6E\x74\"\x3E\r\n\x20\x20\x20\x20\x20\x20\x3C\x70\x20\x63\x6C\x61\x73\x73\x3D\"\x68\x65\x61\x64\x69\x6E\x67\x31\"\x3E\x52\x65\x71\x75\x65\x73\x74\x20\x45\x72\x72\x6F\x72\x3C\x2F\x70\x3E\r\n\x20\x20\x20\x20\x20\x20\x3C\x70\x3E\x54\x68\x65\x20\x73\x65\x72\x76\x65\x72\x20\x65\x6E\x63\x6F\x75\x6E\x74\x65\x72\x65\x64\x20\x61\x6E\x20\x65\x72\x72\x6F\x72\x20\x70\x72\x6F\x63\x65\x73\x73\x69\x6E\x67\x20\x74\x68\x65\x20\x72\x65\x71\x75\x65\x73\x74\x2E\x20\x53\x65\x65\x20\x73\x65\x72\x76\x65\x72\x20\x6C\x6F\x67\x73\x20\x66\x6F\x72\x20\x6D\x6F\x72\x65\x20\x64\x65\x74\x61\x69\x6C\x73\x2E\x3C\x2F\x70\x3E\r\n\x20\x20\x20\x20\x3C\x2F\x64\x69\x76\x3E\r\n\x20\x20\x3C\x2F\x62\x6F\x64\x79\x3E\r\n\x3C\x2F\x68\x74\x6D\x6C\x3E"
    headers:
      Content-Length:
      - "1647"
      Content-Type:
      - text/html
      Date:
      - Tue, 26 Jan 2021 14:53:42 GMT
      Request-Context:
      - appId=cid-v1:da002513-bd8b-4441-9f30-737944134422
      Set-Cookie:
      - api_https.cookieCORS=53177bb75221daa2374b8eb09e8f707d; Path=/; SameSite=None;
        Secure
      - api_https.cookie=53177bb75221daa2374b8eb09e8f707d; Path=/
      - TS019266c8=017189f947d0c4af5e9377a68f53789bf58c6adc967f1a87a418d7d14a10ab69f435612c774c52c597777d92e50997aee1dd3fa7c0;
        Path=/
      - TS019865bf=012364632182fe738a8a57f54077f41826c1ce9b4d8b1e00eb3bc42077218ec5bc7eac49046c473beb6b3d90a362c1ee0529f8730b9c2957a11e9f6687643edeb808efd213;
        Path=/
    status: 400 Bad Request
    code: 400
    duration: ""
