---
version: 1
interactions:
- request:
    body: ""
    form: {}
    headers:
      User-Agent:
      - wbdata-go
    url: https://api.worldbank.org/v2/countries/all/indicators/NY.GDP.MKTP.CD?footnote=y&format=json
    method: GET
  response:
    body: '[{"page":1,"pages":323,"per_page":50,"total":16104,"sourceid":"2","lastupdated":"2020-12-16"},[{"indicator":{"id":"NY.GDP.MKTP.CD","value":"GDP
      (current US$)"},"country":{"id":"1A","value":"Arab World"},"countryiso3code":"ARB","date":"2020","value":null,"unit":"","obs_status":"","decimal":0,"footnote":""},{"indicator":{"id":"NY.GDP.MKTP.CD","value":"GDP
      (current US$)"},"country":{"id":"1A","value":"Arab World"},"countryiso3code":"ARB","date":"2019","value":2817414584665.11,"unit":"","obs_status":"","decimal":0,"footnote":""},{"indicator":{"id":"NY.GDP.MKTP.CD","value":"GDP
      (current US$)"},"country":{"id":"1A","value":"Arab World"},"countryiso3code":"ARB","date":"2018","value":2771384097904.53,"unit":"","obs_status":"","decimal":0,"footnote":""},{"indicator":{"id":"NY.GDP.MKTP.CD","value":"GDP
      (current US$)"},"country":{"id":"1A","value":"Arab World"},"countryiso3code":"ARB","date":"2017","value":2516121177762.82,"unit":"","obs_status":"","decimal":0,"footnote":""},{"indicator":{"id":"NY.GDP.MKTP.CD","value":"GDP
      (current US$)"},"country":{"id":"1A","value":"Arab World"},"countryiso3code":"ARB","date":"2016","value":2469440154484.43,"unit":"","obs_status":"","decimal":0,"footnote":""},{"indicator":{"id":"NY.GDP.MKTP.CD","value":"GDP
      (current US$)"},"country":{"id":"1A","value":"Arab World"},"countryiso3code":"ARB","date":"2015","value":2534723688142.23,"unit":"","obs_status":"","decimal":0,"footnote":""},{"indicator":{"id":"NY.GDP.MKTP.CD","value":"GDP
      (current US$)"},"country":{"id":"1A","value":"Arab World"},"countryiso3code":"ARB","date":"2014","value":2894391168409.53,"unit":"","obs_status":"","decimal":0,"footnote":""},{"indicator":{"id":"NY.GDP.MKTP.CD","value":"GDP
      (current US$)"},"country":{"id":"1A","value":"Arab World"},"countryiso3code":"ARB","date":"2013","value":2856372458851.04,"unit":"","obs_status":"","decimal":0,"footnote":""},{"indicator":{"id":"NY.GDP.MKTP.CD","value":"GDP
      (current US$)"},"country":{"id":"1A","value":"Arab World"},"countryiso3code":"ARB","date":"2012","value":2773499064014.84,"unit":"","obs_status":"","decimal":0,"footnote":""},{"indicator":{"id":"NY.GDP.MKTP.CD","value":"GDP
      (current US$)"},"country":{"id":"1A","value":"Arab World"},"countryiso3code":"ARB","date":"2011","value":2494028778449.34,"unit":"","obs_status":"","decimal":0,"footnote":""},{"indicator":{"id":"NY.GDP.MKTP.CD","value":"GDP
      (current US$)"},"country":{"id":"1A","value":"Arab World"},"countryiso3code":"ARB","date":"2010","value":2103331412247.86,"unit":"","obs_status":"","decimal":0,"footnote":""},{"indicator":{"id":"NY.GDP.MKTP.CD","value":"GDP
      (current US$)"},"country":{"id":"1A","value":"Arab World"},"countryiso3code":"ARB","date":"2009","value":1795740921393.58,"unit":"","obs_status":"","decimal":0,"footnote":""},{"indicator":{"id":"NY.GDP.MKTP.CD","value":"GDP
      (current US$)"},"country":{"id":"1A","value":"Arab World"},"countryiso3code":"ARB","date":"2008","value":2080969850135.39,"unit":"","obs_status":"","decimal":0,"footnote":""},{"indicator":{"id":"NY.GDP.MKTP.CD","value":"GDP
      (current US$)"},"country":{"id":"1A","value":"Arab World"},"countryiso3code":"ARB","date":"2007","value":1639307043044.79,"unit":"","obs_status":"","decimal":0,"footnote":""},{"indicator":{"id":"NY.GDP.MKTP.CD","value":"GDP
      (current US$)"},"country":{"id":"1A","value":"Arab World"},"countryiso3code":"ARB","date":"2006","value":1406002045914.84,"unit":"","obs_status":"","decimal":0,"footnote":""},{"indicator":{"id":"NY.GDP.MKTP.CD","value":"GDP
      (current US$)"},"country":{"id":"1A","value":"Arab World"},"countryiso3code":"ARB","date":"2005","value":1186135399898.53,"unit":"","obs_status":"","decimal":0,"footnote":""},{"indicator":{"id":"NY.GDP.MKTP.CD","value":"GDP
      (current US$)"},"country":{"id":"1A","value":"Arab World"},"countryiso3code":"ARB","date":"2004","value":965100949397.812,"unit":"","obs_status":"","decimal":0,"footnote":""},{"indicator":{"id":"NY.GDP.MKTP.CD","value":"GDP
      (current US$)"},"country":{"id":"1A","value":"Arab World"},"countryiso3code":"ARB","date":"2003","value":821089931822.719,"unit":"","obs_status":"","decimal":0,"footnote":""},{"indicator":{"id":"NY.GDP.MKTP.CD","value":"GDP
      (current US$)"},"country":{"id":"1A","value":"Arab World"},"countryiso3code":"ARB","date":"2002","value":726832740066.549,"unit":"","obs_status":"","decimal":0,"footnote":""},{"indicator":{"id":"NY.GDP.MKTP.CD","value":"GDP
      (current US$)"},"country":{"id":"1A","value":"Arab World"},"countryiso3code":"ARB","date":"2001","value":722917010350.548,"unit":"","obs_status":"","decimal":0,"footnote":""},{"indicator":{"id":"NY.GDP.MKTP.CD","value":"GDP
      (current US$)"},"country":{"id":"1A","value":"Arab World"},"countryiso3code":"ARB","date":"2000","value":735685319268.802,"unit":"","obs_status":"","decimal":0,"footnote":""},{"indicator":{"id":"NY.GDP.MKTP.CD","value":"GDP
      (current US$)"},"country":{"id":"1A","value":"Arab World"},"countryiso3code":"ARB","date":"1999","value":644527010683.065,"unit":"","obs_status":"","decimal":0,"footnote":""},{"indicator":{"id":"NY.GDP.MKTP.CD","value":"GDP
      (current US$)"},"country":{"id":"1A","value":"Arab World"},"countryiso3code":"ARB","date":"1998","value":592264356627.349,"unit":"","obs_status":"","decimal":0,"footnote":""},{"indicator":{"id":"NY.GDP.MKTP.CD","value":"GDP
      (current US$)"},"country":{"id":"1A","value":"Arab World"},"countryiso3code":"ARB","date":"1997","value":614123231689.678,"unit":"","obs_status":"","decimal":0,"footnote":""},{"indicator":{"id":"NY.GDP.MKTP.CD","value":"GDP
      (current US$)"},"country":{"id":"1A","value":"Arab World"},"countryiso3code":"ARB","date":"1996","value":579109082402.504,"unit":"","obs_status":"","decimal":0,"footnote":""},{"indicator":{"id":"NY.GDP.MKTP.CD","value":"GDP
      (current US$)"},"country":{"id":"1A","value":"Arab World"},"countryiso3code":"ARB","date":"1995","value":524626754650.83,"unit":"","obs_status":"","decimal":0,"footnote":""},{"indicator":{"id":"NY.GDP.MKTP.CD","value":"GDP
      (current US$)"},"country":{"id":"1A","value":"Arab World"},"countryiso3code":"ARB","date":"1994","value":488310840410.44,"unit":"","obs_status":"","decimal":0,"footnote":""},{"indicator":{"id":"NY.GDP.MKTP.CD","value":"GDP
      (current US$)"},"country":{"id":"1A","value":"Arab World"},"countryiso3code":"ARB","date":"1993","value":477750218753.597,"unit":"","obs_status":"","decimal":0,"footnote":""},{"indicator":{"id":"NY.GDP.MKTP.CD","value":"GDP
      (current US$)"},"country":{"id":"1A","value":"Arab World"},"countryiso3code":"ARB","date":"1992","value":472395612979.048,"unit":"","obs_status":"","decimal":0,"footnote":""},{"indicator":{"id":"NY.GDP.MKTP.CD","value":"GDP
      (current US$)"},"country":{"id":"1A","value":"Arab World"},"countryiso3code":"ARB","date":"1991","value":441363731387.288,"unit":"","obs_status":"","decimal":0,"footnote":""},{"indicator":{"id":"NY.GDP.MKTP.CD","value":"GDP
      (current US$)"},"country":{"id":"1A","value":"Arab World"},"countryiso3code":"ARB","date":"1990","value":447403057842.308,"unit":"","obs_status":"","decimal":0,"footnote":""},{"indicator":{"id":"NY.GDP.MKTP.CD","value":"GDP
      (current US$)"},"country":{"id":"1A","value":"Arab World"},"countryiso3code":"ARB","date":"1989","value":323313155352.566,"unit":"","obs_status":"","decimal":0,"footnote":""},{"indicator":{"id":"NY.GDP.MKTP.CD","value":"GDP
      (current US$)"},"country":{"id":"1A","value":"Arab World"},"countryiso3code":"ARB","date":"1988","value":308329777739.899,"unit":"","obs_status":"","decimal":0,"footnote":""},{"indicator":{"id":"NY.GDP.MKTP.CD","value":"GDP
      (current US$)"},"country":{"id":"1A","value":"Arab World"},"countryiso3code":"ARB","date":"1987","value":313464339247.535,"unit":"","obs_status":"","decimal":0,"footnote":""},{"indicator":{"id":"NY.GDP.MKTP.CD","value":"GDP
      (current US$)"},"country":{"id":"1A","value":"Arab World"},"countryiso3code":"ARB","date":"1986","value":294002304210.702,"unit":"","obs_status":"","decimal":0,"footnote":""},{"indicator":{"id":"NY.GDP.MKTP.CD","value":"GDP
      (current US$)"},"country":{"id":"1A","value":"Arab World"},"countryiso3code":"ARB","date":"1985","value":307935286171.298,"unit":"","obs_status":"","decimal":0,"footnote":""},{"indicator":{"id":"NY.GDP.MKTP.CD","value":"GDP
      (current US$)"},"country":{"id":"1A","value":"Arab World"},"countryiso3code":"ARB","date":"1984","value":311102902529.672,"unit":"","obs_status":"","decimal":0,"footnote":""},{"indicator":{"id":"NY.GDP.MKTP.CD","value":"GDP
      (current US$)"},"country":{"id":"1A","value":"Arab World"},"countryiso3code":"ARB","date":"1983","value":306718525880.767,"unit":"","obs_status":"","decimal":0,"footnote":""},{"indicator":{"id":"NY.GDP.MKTP.CD","value":"GDP
      (current US$)"},"country":{"id":"1A","value":"Arab World"},"countryiso3code":"ARB","date":"1982","value":326467614158.131,"unit":"","obs_status":"","decimal":0,"footnote":""},{"indicator":{"id":"NY.GDP.MKTP.CD","value":"GDP
      (current US$)"},"country":{"id":"1A","value":"Arab World"},"countryiso3code":"ARB","date":"1981","value":348013579325.699,"unit":"","obs_status":"","decimal":0,"footnote":""},{"indicator":{"id":"NY.GDP.MKTP.CD","value":"GDP
      (current US$)"},"country":{"id":"1A","value":"Arab World"},"countryiso3code":"ARB","date":"1980","value":337548607895.817,"unit":"","obs_status":"","decimal":0,"footnote":""},{"indicator":{"id":"NY.GDP.MKTP.CD","value":"GDP
      (current US$)"},"country":{"id":"1A","value":"Arab World"},"countryiso3code":"ARB","date":"1979","value":248970610830.706,"unit":"","obs_status":"","decimal":0,"footnote":""},{"indicator":{"id":"NY.GDP.MKTP.CD","value":"GDP
      (current US$)"},"country":{"id":"1A","value":"Arab World"},"countryiso3code":"ARB","date":"1978","value":183969539762.573,"unit":"","obs_status":"","decimal":0,"footnote":""},{"indicator":{"id":"NY.GDP.MKTP.CD","value":"GDP
      (current US$)"},"country":{"id":"1A","value":"Arab World"},"countryiso3code":"ARB","date":"1977","value":167530174445.324,"unit":"","obs_status":"","decimal":0,"footnote":""},{"indicator":{"id":"NY.GDP.MKTP.CD","value":"GDP
      (current US$)"},"country":{"id":"1A","value":"Arab World"},"countryiso3code":"ARB","date":"1976","value":145484738304.229,"unit":"","obs_status":"","decimal":0,"footnote":""},{"indicator":{"id":"NY.GDP.MKTP.CD","value":"GDP
      (current US$)"},"country":{"id":"1A","value":"Arab World"},"countryiso3code":"ARB","date":"1975","value":117103149355.725,"unit":"","obs_status":"","decimal":0,"footnote":""},{"indicator":{"id":"NY.GDP.MKTP.CD","value":"GDP
      (current US$)"},"country":{"id":"1A","value":"Arab World"},"countryiso3code":"ARB","date":"1974","value":105711125366.347,"unit":"","obs_status":"","decimal":0,"footnote":""},{"indicator":{"id":"NY.GDP.MKTP.CD","value":"GDP
      (current US$)"},"country":{"id":"1A","value":"Arab World"},"countryiso3code":"ARB","date":"1973","value":55922081751.8977,"unit":"","obs_status":"","decimal":0,"footnote":""},{"indicator":{"id":"NY.GDP.MKTP.CD","value":"GDP
      (current US$)"},"country":{"id":"1A","value":"Arab World"},"countryiso3code":"ARB","date":"1972","value":44182128971.3952,"unit":"","obs_status":"","decimal":0,"footnote":""},{"indicator":{"id":"NY.GDP.MKTP.CD","value":"GDP
      (current US$)"},"country":{"id":"1A","value":"Arab World"},"countryiso3code":"ARB","date":"1971","value":37045140366.8421,"unit":"","obs_status":"","decimal":0,"footnote":""}]]'
    headers:
      Access-Control-Allow-Headers:
      - X-Requested-With
      Access-Control-Allow-Methods:
      - GET
      Access-Control-Allow-Origin:
      - '*'
      Cache-Control:
      - public, must-revalidate, max-age=2590043
      Content-Length:
      - "11282"
      Content-Type:
      - application/json;charset=utf-8
      Date:
      - Tue, 26 Jan 2021 06:28:00 GMT
      Expires:
      - Thu, 25 Feb 2021 05:55:23 GMT
      Last-Modified:
      - Tue, 26 Jan 2021 05:55:23 GMT
      Request-Context:
      - appId=cid-v1:da002513-bd8b-4441-9f30-737944134422
      Set-Cookie:
      - api_https.cookieCORS=96906c52f5aa89ac2fd6ca82f58d4294; Path=/; SameSite=None;
        Secure
      - api_https.cookie=96906c52f5aa89ac2fd6ca82f58d4294; Path=/
      - TS01fa65e4=01359ee976dbf6fe3f566bc4ac3143f074c2cc0a57addb429ec6b30bfecdd4feed203d618914deb3a62ab8d9db0021a29ee5ada241;
        Path=/
      - TS019865bf=016ca92173510e268e96ea8ecaf5507df6dd1b692f8920984da67a4b5b6d400fb995af2a97a5697d8d265fe16e5242ae659f4c25337aee711378cf287f16c2d36165d4df27;
        Path=/
    status: 200 OK
    code: 200
    duration: ""
- request:
    body: ""
    form: {}
    headers:
      User-Agent:
      - wbdata-go
    url: https://api.worldbank.org/v2/countries/all/indicators/NY.GDP.MKTP.CD?date=2018%3A2019&footnote=y&format=json&page=1&per_page=2
    method: GET
  response:
    body: '[{"page":1,"pages":264,"per_page":2,"total":528,"sourceid":"2","lastupdated":"2020-12-16"},[{"indicator":{"id":"NY.GDP.MKTP.CD","value":"GDP
      (current US$)"},"country":{"id":"1A","value":"Arab World"},"countryiso3code":"ARB","date":"2019","value":2817414584665.11,"unit":"","obs_status":"","decimal":0,"footnote":""},{"indicator":{"id":"NY.GDP.MKTP.CD","value":"GDP
      (current US$)"},"country":{"id":"1A","value":"Arab World"},"countryiso3code":"ARB","date":"2018","value":2771384097904.53,"unit":"","obs_status":"","decimal":0,"footnote":""}]]'
    headers:
      Access-Control-Allow-Headers:
      - X-Requested-With
      Access-Control-Allow-Methods:
      - GET
      Access-Control-Allow-Origin:
      - '*'
      Cache-Control:
      - public, must-revalidate, max-age=2590043
      Content-Length:
      - "541"
      Content-Type:
      - application/json;charset=utf-8
      Date:
      - Tue, 26 Jan 2021 06:28:01 GMT
      Expires:
      - Thu, 25 Feb 2021 05:55:24 GMT
      Last-Modified:
      - Tue, 26 Jan 2021 05:55:24 GMT
      Request-Context:
      - appId=cid-v1:da002513-bd8b-4441-9f30-737944134422
      Set-Cookie:
      - api_https.cookieCORS=53177bb75221daa2374b8eb09e8f707d; Path=/; SameSite=None;
        Secure
      - api_https.cookie=53177bb75221daa2374b8eb09e8f707d; Path=/
      - TS01fa65e4=01359ee9767ab41f44b7c0ed7952c0d979e62509ae4a6fc2a07e3ff021cf04dccb2fb6d9188ed603f0dc24e1bb44ceba8ff7841d6e;
        Path=/
      - TS019865bf=01236463217de8a5adcab4b22395eab618928abc2e59e6ca7c5556a2ead33831bb71d8b8ca522ea0932d95bf75499af33a12fd8cd3da41f21b0e212cb6869af86c967012b2;
        Path=/
    status: 200 OK
    code: 200
    duration: ""
- request:
    body: ""
    form: {}
    headers:
      User-Agent:
      - wbdata-go
    url: https://api.worldbank.org/v2/countries/all/indicators/INVALID.INDICATOR.ID?footnote=y&format=json
    method: GET
  response:
    body: '[{"message":[{"id":"120","key":"Invalid value","value":"The provided parameter
      value is not valid"}]}]'
    headers:
      Access-Control-Allow-Headers:
      - X-Requested-With
      Access-Control-Allow-Methods:
      - GET
      Access-Control-Allow-Origin:
      - '*'
      Cache-Control:
      - public, must-revalidate, max-age=2590043
      Content-Length:
      - "102"
      Content-Type:
      - application/json;charset=utf-8
      Date:
      - Tue, 26 Jan 2021 06:28:01 GMT
      Expires:
      - Thu, 25 Feb 2021 05:55:24 GMT
      Last-Modified:
      - Tue, 26 Jan 2021 05:55:24 GMT
      Request-Context:
      - appId=cid-v1:da002513-bd8b-4441-9f30-737944134422
      Set-Cookie:
      - api_https.cookieCORS=96906c52f5aa89ac2fd6ca82f58d4294; Path=/; SameSite=None;
        Secure
      - api_https.cookie=96906c52f5aa89ac2fd6ca82f58d4294; Path=/
      - TS01fa65e4=01359ee97672e6b292f96951ca95c674ddc4197d56812817b9dbdce81786d1c264ac07d1e63bc6573d5111cc9c572dbcc238d6c37b;
        Path=/
      - TS019865bf=016ca92173a394b924f765d3485b038b64ddcdae4294eed85d9d32d069bd0b89c123e9e7f5dffc6e2a8cafa9f86e2b64477318d4f44a5ca4332492c88eabbe81f594e17960;
        Path=/
    status: 200 OK
    code: 200
    duration: ""
