---
version: 1
interactions:
- request:
    body: ""
    form: {}
    headers:
      User-Agent:
      - wbdata-go
    url: https://api.worldbank.org/v2/indicators?format=json&page=1&per_page=2
    method: GET
  response:
    body: '[{"page":1,"pages":9479,"per_page":"2","total":18958},[{"id":"1.0.HCount.1.90usd","name":"Poverty
      Headcount ($1.90 a day)","unit":"","source":{"id":"37","value":"LAC Equity Lab"},"sourceNote":"The
      poverty headcount index measures the proportion of the population with daily
      per capita income (in 2011 PPP) below the poverty line.","sourceOrganization":"LAC
      Equity Lab tabulations of SEDLAC (CEDLAS and the World Bank).","topics":[{"id":"11","value":"Poverty
      "}]},{"id":"1.0.HCount.2.5usd","name":"Poverty Headcount ($2.50 a day)","unit":"","source":{"id":"37","value":"LAC
      Equity Lab"},"sourceNote":"The poverty headcount index measures the proportion
      of the population with daily per capita income (in 2005 PPP) below the poverty
      line.","sourceOrganization":"LAC Equity Lab tabulations of SEDLAC (CEDLAS and
      the World Bank).","topics":[{"id":"11","value":"Poverty "}]}]]'
    headers:
      Access-Control-Allow-Headers:
      - X-Requested-With
      Access-Control-Allow-Methods:
      - GET
      Access-Control-Allow-Origin:
      - '*'
      Cache-Control:
      - public, must-revalidate, max-age=2592000
      Content-Length:
      - "871"
      Content-Type:
      - application/json;charset=utf-8
      Date:
      - Sun, 13 Jun 2021 02:49:01 GMT
      Expires:
      - Tue, 13 Jul 2021 02:49:01 GMT
      Last-Modified:
      - Sun, 13 Jun 2021 02:49:01 GMT
      Request-Context:
      - appId=cid-v1:da002513-bd8b-4441-9f30-737944134422
      Set-Cookie:
      - api_https.cookieCORS=76a6c6567ab12cea5dac4942d8df71cc; Path=/; SameSite=None;
        Secure
      - api_https.cookie=76a6c6567ab12cea5dac4942d8df71cc; Path=/
      - TS01fa65e4=01359ee976d5432ede63c9f94b498abe063f2fd0c81e492172bc865b8f1106324d56604f04604334c7981d3f5dbfe60f0a69582e0d;
        Path=/
      - TS019865bf=01689d38366186814bfc7a0378fd0275f59e9e99c74506efe65c889105277a5f509f8988a37a6d7f79675de95eb29a2c1a0a1414cb21d0aa7f178aaf332b2b48c7a86712de;
        Path=/
    status: 200 OK
    code: 200
    duration: ""
