---
version: 1
interactions:
- request:
    body: ""
    form: {}
    headers:
      User-Agent:
      - wbdata-go
    url: http://api.worldbank.org/v2/countries?format=json&page=1&per_page=2
    method: GET
  response:
    body: '[{"page":1,"pages":152,"per_page":"2","total":304},[{"id":"ABW","iso2Code":"AW","name":"Aruba","region":{"id":"LCN","iso2code":"ZJ","value":"Latin
      America & Caribbean "},"adminregion":{"id":"","iso2code":"","value":""},"incomeLevel":{"id":"HIC","iso2code":"XD","value":"High
      income"},"lendingType":{"id":"LNX","iso2code":"XX","value":"Not classified"},"capitalCity":"Oranjestad","longitude":"-70.0167","latitude":"12.5167"},{"id":"AFG","iso2Code":"AF","name":"Afghanistan","region":{"id":"SAS","iso2code":"8S","value":"South
      Asia"},"adminregion":{"id":"SAS","iso2code":"8S","value":"South Asia"},"incomeLevel":{"id":"LIC","iso2code":"XM","value":"Low
      income"},"lendingType":{"id":"IDX","iso2code":"XI","value":"IDA"},"capitalCity":"Kabul","longitude":"69.1761","latitude":"34.5228"}]]'
    headers:
      Access-Control-Allow-Headers:
      - X-Requested-With
      Access-Control-Allow-Methods:
      - GET
      Access-Control-Allow-Origin:
      - '*'
      Connection:
      - keep-alive
      Content-Length:
      - "784"
      Content-Type:
      - application/json;charset=utf-8
      Date:
      - Sat, 06 Jun 2020 08:39:54 GMT
      Set-Cookie:
      - TS01fa65e4=01359ee976a9f029ebc07b994348ee518fca16288c8c353d9f3068c05a1225a9dafeda26222d8c5ac9ec0ea9b4b49f5e25bf54a007;
        Path=/
      Strict-Transport-Security:
      - max-age=31536000; includeSubDomains
      X-Content-Type-Options:
      - nosniff
      X-Frame-Options:
      - deny
      X-Xss-Protection:
      - 1; mode=block
    status: 200 OK
    code: 200
    duration: ""
