---
version: 1
interactions:
- request:
    body: ""
    form: {}
    headers:
      User-Agent:
      - wbdata
    url: http://api.worldbank.org/v2/countries?format=json&page=1&per_page=10
    method: GET
  response:
    body: '[{"page":1,"pages":31,"per_page":"10","total":304},[{"id":"ABW","iso2Code":"AW","name":"Aruba","region":{"id":"LCN","iso2code":"ZJ","value":"Latin
      America & Caribbean "},"adminregion":{"id":"","iso2code":"","value":""},"incomeLevel":{"id":"HIC","iso2code":"XD","value":"High
      income"},"lendingType":{"id":"LNX","iso2code":"XX","value":"Not classified"},"capitalCity":"Oranjestad","longitude":"-70.0167","latitude":"12.5167"},{"id":"AFG","iso2Code":"AF","name":"Afghanistan","region":{"id":"SAS","iso2code":"8S","value":"South
      Asia"},"adminregion":{"id":"SAS","iso2code":"8S","value":"South Asia"},"incomeLevel":{"id":"LIC","iso2code":"XM","value":"Low
      income"},"lendingType":{"id":"IDX","iso2code":"XI","value":"IDA"},"capitalCity":"Kabul","longitude":"69.1761","latitude":"34.5228"},{"id":"AFR","iso2Code":"A9","name":"Africa","region":{"id":"NA","iso2code":"NA","value":"Aggregates"},"adminregion":{"id":"","iso2code":"","value":""},"incomeLevel":{"id":"NA","iso2code":"NA","value":"Aggregates"},"lendingType":{"id":"","iso2code":"","value":"Aggregates"},"capitalCity":"","longitude":"","latitude":""},{"id":"AGO","iso2Code":"AO","name":"Angola","region":{"id":"SSF","iso2code":"ZG","value":"Sub-Saharan
      Africa "},"adminregion":{"id":"SSA","iso2code":"ZF","value":"Sub-Saharan Africa
      (excluding high income)"},"incomeLevel":{"id":"LMC","iso2code":"XN","value":"Lower
      middle income"},"lendingType":{"id":"IBD","iso2code":"XF","value":"IBRD"},"capitalCity":"Luanda","longitude":"13.242","latitude":"-8.81155"},{"id":"ALB","iso2Code":"AL","name":"Albania","region":{"id":"ECS","iso2code":"Z7","value":"Europe
      & Central Asia"},"adminregion":{"id":"ECA","iso2code":"7E","value":"Europe &
      Central Asia (excluding high income)"},"incomeLevel":{"id":"UMC","iso2code":"XT","value":"Upper
      middle income"},"lendingType":{"id":"IBD","iso2code":"XF","value":"IBRD"},"capitalCity":"Tirane","longitude":"19.8172","latitude":"41.3317"},{"id":"AND","iso2Code":"AD","name":"Andorra","region":{"id":"ECS","iso2code":"Z7","value":"Europe
      & Central Asia"},"adminregion":{"id":"","iso2code":"","value":""},"incomeLevel":{"id":"HIC","iso2code":"XD","value":"High
      income"},"lendingType":{"id":"LNX","iso2code":"XX","value":"Not classified"},"capitalCity":"Andorra
      la Vella","longitude":"1.5218","latitude":"42.5075"},{"id":"ANR","iso2Code":"L5","name":"Andean
      Region","region":{"id":"NA","iso2code":"NA","value":"Aggregates"},"adminregion":{"id":"","iso2code":"","value":""},"incomeLevel":{"id":"NA","iso2code":"NA","value":"Aggregates"},"lendingType":{"id":"","iso2code":"","value":"Aggregates"},"capitalCity":"","longitude":"","latitude":""},{"id":"ARB","iso2Code":"1A","name":"Arab
      World","region":{"id":"NA","iso2code":"NA","value":"Aggregates"},"adminregion":{"id":"","iso2code":"","value":""},"incomeLevel":{"id":"NA","iso2code":"NA","value":"Aggregates"},"lendingType":{"id":"","iso2code":"","value":"Aggregates"},"capitalCity":"","longitude":"","latitude":""},{"id":"ARE","iso2Code":"AE","name":"United
      Arab Emirates","region":{"id":"MEA","iso2code":"ZQ","value":"Middle East & North
      Africa"},"adminregion":{"id":"","iso2code":"","value":""},"incomeLevel":{"id":"HIC","iso2code":"XD","value":"High
      income"},"lendingType":{"id":"LNX","iso2code":"XX","value":"Not classified"},"capitalCity":"Abu
      Dhabi","longitude":"54.3705","latitude":"24.4764"},{"id":"ARG","iso2Code":"AR","name":"Argentina","region":{"id":"LCN","iso2code":"ZJ","value":"Latin
      America & Caribbean "},"adminregion":{"id":"LAC","iso2code":"XJ","value":"Latin
      America & Caribbean (excluding high income)"},"incomeLevel":{"id":"UMC","iso2code":"XT","value":"Upper
      middle income"},"lendingType":{"id":"IBD","iso2code":"XF","value":"IBRD"},"capitalCity":"Buenos
      Aires","longitude":"-58.4173","latitude":"-34.6118"}]]'
    headers:
      Access-Control-Allow-Headers:
      - X-Requested-With
      Access-Control-Allow-Methods:
      - GET
      Access-Control-Allow-Origin:
      - '*'
      Connection:
      - keep-alive
      Content-Length:
      - "3762"
      Content-Type:
      - application/json;charset=utf-8
      Date:
      - Sun, 05 Apr 2020 10:18:30 GMT
      Set-Cookie:
      - TS019266c8=017189f947aab2b491d188bcc5c1bb76804ed7b604df9d2b6798163b64d046d7ddf3d40a2b0f2fa5fa4ee896aba909947f0f349acb;
        Path=/
      Strict-Transport-Security:
      - max-age=31536000; includeSubDomains
      X-Content-Type-Options:
      - nosniff
      X-Frame-Options:
      - deny
      X-Xss-Protection:
      - 1; mode=block
    status: 200 OK
    code: 200
    duration: ""
