---
version: 1
interactions:
- request:
    body: ""
    form: {}
    headers:
      User-Agent:
      - wbdata-go
    url: http://api.worldbank.org/v2/topics?format=json&page=1&per_page=2
    method: GET
  response:
    body: '[{"page":1,"pages":11,"per_page":"2","total":21},[{"id":"1","value":"Agriculture
      & Rural Development","sourceNote":"For the 70 percent of the world''s poor who
      live in rural areas, agriculture is the main source of income and employment.
      But depletion and degradation of land and water pose serious challenges to producing
      enough food and other agricultural products to sustain livelihoods here and
      meet the needs of urban populations. Data presented here include measures of
      agricultural inputs, outputs, and productivity compiled by the UN''s Food and
      Agriculture Organization."},{"id":"2","value":"Aid Effectiveness","sourceNote":"Aid
      effectiveness is the impact that aid has in reducing poverty and inequality,
      increasing growth, building capacity, and accelerating achievement of the Millennium
      Development Goals set by the international community. Indicators here cover
      aid received as well as progress in reducing poverty and improving education,
      health, and other measures of human welfare."}]]'
    headers:
      Access-Control-Allow-Headers:
      - X-Requested-With
      Access-Control-Allow-Methods:
      - GET
      Access-Control-Allow-Origin:
      - '*'
      Connection:
      - keep-alive
      Content-Length:
      - "1000"
      Content-Type:
      - application/json;charset=utf-8
      Date:
      - Tue, 28 Apr 2020 18:34:17 GMT
      Set-Cookie:
      - TS019266c8=017189f94798690939018832bfbf0c2a283d38a0a87e8306962b2cd5be1a34aa79376261585b48cd8b30feac763363e31a9b3898ae;
        Path=/
      Strict-Transport-Security:
      - max-age=31536000; includeSubDomains
      X-Content-Type-Options:
      - nosniff
      X-Frame-Options:
      - deny
      X-Xss-Protection:
      - 1; mode=block
    status: 200 OK
    code: 200
    duration: ""
