---
version: 1
interactions:
- request:
    body: ""
    form: {}
    headers:
      User-Agent:
      - wbdata-go
    url: https://api.worldbank.org/v2/countries/JPN;USA/indicators/NY.GDP.MKTP.CD;SP.POP.TOTL?footnote=y&format=json&source=2
    method: GET
  response:
    body: '[{"page":1,"pages":5,"per_page":50,"total":244,"sourceid":null,"sourcename":null,"lastupdated":"2021-05-25"},[{"indicator":{"id":"NY.GDP.MKTP.CD","value":"GDP
      (current US$)"},"country":{"id":"JP","value":"Japan"},"countryiso3code":"JPN","date":"2020","value":null,"scale":"","unit":"","obs_status":"","decimal":0,"footnote":""},{"indicator":{"id":"NY.GDP.MKTP.CD","value":"GDP
      (current US$)"},"country":{"id":"JP","value":"Japan"},"countryiso3code":"JPN","date":"2019","value":5081769542379.77,"unit":"","obs_status":"","decimal":0,"footnote":""},{"indicator":{"id":"NY.GDP.MKTP.CD","value":"GDP
      (current US$)"},"country":{"id":"JP","value":"Japan"},"countryiso3code":"JPN","date":"2018","value":4954806619995.19,"unit":"","obs_status":"","decimal":0,"footnote":""},{"indicator":{"id":"NY.GDP.MKTP.CD","value":"GDP
      (current US$)"},"country":{"id":"JP","value":"Japan"},"countryiso3code":"JPN","date":"2017","value":4866864409657.68,"unit":"","obs_status":"","decimal":0,"footnote":""},{"indicator":{"id":"NY.GDP.MKTP.CD","value":"GDP
      (current US$)"},"country":{"id":"JP","value":"Japan"},"countryiso3code":"JPN","date":"2016","value":4922538141454.62,"unit":"","obs_status":"","decimal":0,"footnote":""},{"indicator":{"id":"NY.GDP.MKTP.CD","value":"GDP
      (current US$)"},"country":{"id":"JP","value":"Japan"},"countryiso3code":"JPN","date":"2015","value":4389475622588.97,"unit":"","obs_status":"","decimal":0,"footnote":""},{"indicator":{"id":"NY.GDP.MKTP.CD","value":"GDP
      (current US$)"},"country":{"id":"JP","value":"Japan"},"countryiso3code":"JPN","date":"2014","value":4850413536037.84,"unit":"","obs_status":"","decimal":0,"footnote":""},{"indicator":{"id":"NY.GDP.MKTP.CD","value":"GDP
      (current US$)"},"country":{"id":"JP","value":"Japan"},"countryiso3code":"JPN","date":"2013","value":5155717056270.83,"unit":"","obs_status":"","decimal":0,"footnote":""},{"indicator":{"id":"NY.GDP.MKTP.CD","value":"GDP
      (current US$)"},"country":{"id":"JP","value":"Japan"},"countryiso3code":"JPN","date":"2012","value":6203213121334.12,"unit":"","obs_status":"","decimal":0,"footnote":""},{"indicator":{"id":"NY.GDP.MKTP.CD","value":"GDP
      (current US$)"},"country":{"id":"JP","value":"Japan"},"countryiso3code":"JPN","date":"2011","value":6157459594823.72,"unit":"","obs_status":"","decimal":0,"footnote":""},{"indicator":{"id":"NY.GDP.MKTP.CD","value":"GDP
      (current US$)"},"country":{"id":"JP","value":"Japan"},"countryiso3code":"JPN","date":"2010","value":5700098114744.41,"unit":"","obs_status":"","decimal":0,"footnote":""},{"indicator":{"id":"NY.GDP.MKTP.CD","value":"GDP
      (current US$)"},"country":{"id":"JP","value":"Japan"},"countryiso3code":"JPN","date":"2009","value":5231382674593.7,"unit":"","obs_status":"","decimal":0,"footnote":""},{"indicator":{"id":"NY.GDP.MKTP.CD","value":"GDP
      (current US$)"},"country":{"id":"JP","value":"Japan"},"countryiso3code":"JPN","date":"2008","value":5037908465114.48,"unit":"","obs_status":"","decimal":0,"footnote":""},{"indicator":{"id":"NY.GDP.MKTP.CD","value":"GDP
      (current US$)"},"country":{"id":"JP","value":"Japan"},"countryiso3code":"JPN","date":"2007","value":4515264514430.57,"unit":"","obs_status":"","decimal":0,"footnote":""},{"indicator":{"id":"NY.GDP.MKTP.CD","value":"GDP
      (current US$)"},"country":{"id":"JP","value":"Japan"},"countryiso3code":"JPN","date":"2006","value":4530377224970.4,"unit":"","obs_status":"","decimal":0,"footnote":""},{"indicator":{"id":"NY.GDP.MKTP.CD","value":"GDP
      (current US$)"},"country":{"id":"JP","value":"Japan"},"countryiso3code":"JPN","date":"2005","value":4755410630912.14,"unit":"","obs_status":"","decimal":0,"footnote":""},{"indicator":{"id":"NY.GDP.MKTP.CD","value":"GDP
      (current US$)"},"country":{"id":"JP","value":"Japan"},"countryiso3code":"JPN","date":"2004","value":4815148854362.11,"unit":"","obs_status":"","decimal":0,"footnote":""},{"indicator":{"id":"NY.GDP.MKTP.CD","value":"GDP
      (current US$)"},"country":{"id":"JP","value":"Japan"},"countryiso3code":"JPN","date":"2003","value":4445658071221.86,"unit":"","obs_status":"","decimal":0,"footnote":""},{"indicator":{"id":"NY.GDP.MKTP.CD","value":"GDP
      (current US$)"},"country":{"id":"JP","value":"Japan"},"countryiso3code":"JPN","date":"2002","value":4115116279069.77,"unit":"","obs_status":"","decimal":0,"footnote":""},{"indicator":{"id":"NY.GDP.MKTP.CD","value":"GDP
      (current US$)"},"country":{"id":"JP","value":"Japan"},"countryiso3code":"JPN","date":"2001","value":4303544259842.72,"unit":"","obs_status":"","decimal":0,"footnote":""},{"indicator":{"id":"NY.GDP.MKTP.CD","value":"GDP
      (current US$)"},"country":{"id":"JP","value":"Japan"},"countryiso3code":"JPN","date":"2000","value":4887519660744.86,"unit":"","obs_status":"","decimal":0,"footnote":""},{"indicator":{"id":"NY.GDP.MKTP.CD","value":"GDP
      (current US$)"},"country":{"id":"JP","value":"Japan"},"countryiso3code":"JPN","date":"1999","value":4562078822335.45,"unit":"","obs_status":"","decimal":0,"footnote":""},{"indicator":{"id":"NY.GDP.MKTP.CD","value":"GDP
      (current US$)"},"country":{"id":"JP","value":"Japan"},"countryiso3code":"JPN","date":"1998","value":4032509760872.94,"unit":"","obs_status":"","decimal":0,"footnote":""},{"indicator":{"id":"NY.GDP.MKTP.CD","value":"GDP
      (current US$)"},"country":{"id":"JP","value":"Japan"},"countryiso3code":"JPN","date":"1997","value":4414732843544.43,"unit":"","obs_status":"","decimal":0,"footnote":""},{"indicator":{"id":"NY.GDP.MKTP.CD","value":"GDP
      (current US$)"},"country":{"id":"JP","value":"Japan"},"countryiso3code":"JPN","date":"1996","value":4833712542207.1,"unit":"","obs_status":"","decimal":0,"footnote":""},{"indicator":{"id":"NY.GDP.MKTP.CD","value":"GDP
      (current US$)"},"country":{"id":"JP","value":"Japan"},"countryiso3code":"JPN","date":"1995","value":5449116304981.1,"unit":"","obs_status":"","decimal":0,"footnote":""},{"indicator":{"id":"NY.GDP.MKTP.CD","value":"GDP
      (current US$)"},"country":{"id":"JP","value":"Japan"},"countryiso3code":"JPN","date":"1994","value":4907039384469.68,"unit":"","obs_status":"","decimal":0,"footnote":""},{"indicator":{"id":"NY.GDP.MKTP.CD","value":"GDP
      (current US$)"},"country":{"id":"JP","value":"Japan"},"countryiso3code":"JPN","date":"1993","value":4454143876947.21,"unit":"","obs_status":"","decimal":0,"footnote":""},{"indicator":{"id":"NY.GDP.MKTP.CD","value":"GDP
      (current US$)"},"country":{"id":"JP","value":"Japan"},"countryiso3code":"JPN","date":"1992","value":3908809463463.86,"unit":"","obs_status":"","decimal":0,"footnote":""},{"indicator":{"id":"NY.GDP.MKTP.CD","value":"GDP
      (current US$)"},"country":{"id":"JP","value":"Japan"},"countryiso3code":"JPN","date":"1991","value":3584420077100.84,"unit":"","obs_status":"","decimal":0,"footnote":""},{"indicator":{"id":"NY.GDP.MKTP.CD","value":"GDP
      (current US$)"},"country":{"id":"JP","value":"Japan"},"countryiso3code":"JPN","date":"1990","value":3132817652848.04,"unit":"","obs_status":"","decimal":0,"footnote":""},{"indicator":{"id":"NY.GDP.MKTP.CD","value":"GDP
      (current US$)"},"country":{"id":"JP","value":"Japan"},"countryiso3code":"JPN","date":"1989","value":3054914166263.18,"unit":"","obs_status":"","decimal":0,"footnote":""},{"indicator":{"id":"NY.GDP.MKTP.CD","value":"GDP
      (current US$)"},"country":{"id":"JP","value":"Japan"},"countryiso3code":"JPN","date":"1988","value":3071683013178.91,"unit":"","obs_status":"","decimal":0,"footnote":""},{"indicator":{"id":"NY.GDP.MKTP.CD","value":"GDP
      (current US$)"},"country":{"id":"JP","value":"Japan"},"countryiso3code":"JPN","date":"1987","value":2532808573157.03,"unit":"","obs_status":"","decimal":0,"footnote":""},{"indicator":{"id":"NY.GDP.MKTP.CD","value":"GDP
      (current US$)"},"country":{"id":"JP","value":"Japan"},"countryiso3code":"JPN","date":"1986","value":2078953333673.55,"unit":"","obs_status":"","decimal":0,"footnote":""},{"indicator":{"id":"NY.GDP.MKTP.CD","value":"GDP
      (current US$)"},"country":{"id":"JP","value":"Japan"},"countryiso3code":"JPN","date":"1985","value":1398892744820.69,"unit":"","obs_status":"","decimal":0,"footnote":""},{"indicator":{"id":"NY.GDP.MKTP.CD","value":"GDP
      (current US$)"},"country":{"id":"JP","value":"Japan"},"countryiso3code":"JPN","date":"1984","value":1318381627003.76,"unit":"","obs_status":"","decimal":0,"footnote":""},{"indicator":{"id":"NY.GDP.MKTP.CD","value":"GDP
      (current US$)"},"country":{"id":"JP","value":"Japan"},"countryiso3code":"JPN","date":"1983","value":1243323592058.83,"unit":"","obs_status":"","decimal":0,"footnote":""},{"indicator":{"id":"NY.GDP.MKTP.CD","value":"GDP
      (current US$)"},"country":{"id":"JP","value":"Japan"},"countryiso3code":"JPN","date":"1982","value":1134518001884.56,"unit":"","obs_status":"","decimal":0,"footnote":""},{"indicator":{"id":"NY.GDP.MKTP.CD","value":"GDP
      (current US$)"},"country":{"id":"JP","value":"Japan"},"countryiso3code":"JPN","date":"1981","value":1218988935129.81,"unit":"","obs_status":"","decimal":0,"footnote":""},{"indicator":{"id":"NY.GDP.MKTP.CD","value":"GDP
      (current US$)"},"country":{"id":"JP","value":"Japan"},"countryiso3code":"JPN","date":"1980","value":1105385973763.87,"unit":"","obs_status":"","decimal":0,"footnote":""},{"indicator":{"id":"NY.GDP.MKTP.CD","value":"GDP
      (current US$)"},"country":{"id":"JP","value":"Japan"},"countryiso3code":"JPN","date":"1979","value":1055012119526.33,"unit":"","obs_status":"","decimal":0,"footnote":""},{"indicator":{"id":"NY.GDP.MKTP.CD","value":"GDP
      (current US$)"},"country":{"id":"JP","value":"Japan"},"countryiso3code":"JPN","date":"1978","value":1013612173518.84,"unit":"","obs_status":"","decimal":0,"footnote":""},{"indicator":{"id":"NY.GDP.MKTP.CD","value":"GDP
      (current US$)"},"country":{"id":"JP","value":"Japan"},"countryiso3code":"JPN","date":"1977","value":721411786536.814,"unit":"","obs_status":"","decimal":0,"footnote":""},{"indicator":{"id":"NY.GDP.MKTP.CD","value":"GDP
      (current US$)"},"country":{"id":"JP","value":"Japan"},"countryiso3code":"JPN","date":"1976","value":586161858999.671,"unit":"","obs_status":"","decimal":0,"footnote":""},{"indicator":{"id":"NY.GDP.MKTP.CD","value":"GDP
      (current US$)"},"country":{"id":"JP","value":"Japan"},"countryiso3code":"JPN","date":"1975","value":521541905673.251,"unit":"","obs_status":"","decimal":0,"footnote":""},{"indicator":{"id":"NY.GDP.MKTP.CD","value":"GDP
      (current US$)"},"country":{"id":"JP","value":"Japan"},"countryiso3code":"JPN","date":"1974","value":479625998613.406,"unit":"","obs_status":"","decimal":0,"footnote":""},{"indicator":{"id":"NY.GDP.MKTP.CD","value":"GDP
      (current US$)"},"country":{"id":"JP","value":"Japan"},"countryiso3code":"JPN","date":"1973","value":432082670450.719,"unit":"","obs_status":"","decimal":0,"footnote":""},{"indicator":{"id":"NY.GDP.MKTP.CD","value":"GDP
      (current US$)"},"country":{"id":"JP","value":"Japan"},"countryiso3code":"JPN","date":"1972","value":318031297492.352,"unit":"","obs_status":"","decimal":0,"footnote":""},{"indicator":{"id":"NY.GDP.MKTP.CD","value":"GDP
      (current US$)"},"country":{"id":"JP","value":"Japan"},"countryiso3code":"JPN","date":"1971","value":240151807460.241,"unit":"","obs_status":"","decimal":0,"footnote":""}]]'
    headers:
      Access-Control-Allow-Headers:
      - X-Requested-With
      Access-Control-Allow-Methods:
      - GET
      Access-Control-Allow-Origin:
      - '*'
      Cache-Control:
      - public, must-revalidate, max-age=2592000
      Content-Length:
      - "11056"
      Content-Type:
      - application/json;charset=utf-8
      Date:
      - Sun, 13 Jun 2021 02:49:17 GMT
      Expires:
      - Tue, 13 Jul 2021 02:49:17 GMT
      Last-Modified:
      - Sun, 13 Jun 2021 02:49:17 GMT
      Request-Context:
      - appId=cid-v1:da002513-bd8b-4441-9f30-737944134422
      Set-Cookie:
      - api_https.cookieCORS=286e43d9dbb589273e07f096cd441f82; Path=/; SameSite=None;
        Secure
      - api_https.cookie=286e43d9dbb589273e07f096cd441f82; Path=/
      - TS019266c8=017189f947807aed9436811d051dd61d722f7115573d395c0f8dbceb53643b9df8b7b83fa578db5087cdca785b13af90fafc938b3f;
        Path=/
      - TS019865bf=0114ae2926e7a76b2dec3d62348498287a5d674788409ccc73955c7bf9b2c5463235ffe56511f1446358393b92ad5d855e07080906a8dbddb8d5bf30f4f8f53759b1d99a80;
        Path=/
    status: 200 OK
    code: 200
    duration: ""
- request:
    body: ""
    form: {}
    headers:
      User-Agent:
      - wbdata-go
    url: https://api.worldbank.org/v2/countries/JPN;USA/indicators/NY.GDP.MKTP.CD;SP.POP.TOTL?date=2018%3A2019&footnote=y&format=json&page=1&per_page=2&source=2
    method: GET
  response:
    body: '[{"page":1,"pages":4,"per_page":2,"total":8,"sourceid":null,"sourcename":null,"lastupdated":"2021-05-25"},[{"indicator":{"id":"NY.GDP.MKTP.CD","value":"GDP
      (current US$)"},"country":{"id":"JP","value":"Japan"},"countryiso3code":"JPN","date":"2019","value":5081769542379.77,"unit":"","obs_status":"","decimal":0,"footnote":""},{"indicator":{"id":"NY.GDP.MKTP.CD","value":"GDP
      (current US$)"},"country":{"id":"JP","value":"Japan"},"countryiso3code":"JPN","date":"2018","value":4954806619995.19,"unit":"","obs_status":"","decimal":0,"footnote":""}]]'
    headers:
      Access-Control-Allow-Headers:
      - X-Requested-With
      Access-Control-Allow-Methods:
      - GET
      Access-Control-Allow-Origin:
      - '*'
      Cache-Control:
      - public, must-revalidate, max-age=2592000
      Content-Length:
      - "546"
      Content-Type:
      - application/json;charset=utf-8
      Date:
      - Sun, 13 Jun 2021 02:49:18 GMT
      Expires:
      - Tue, 13 Jul 2021 02:49:18 GMT
      Last-Modified:
      - Sun, 13 Jun 2021 02:49:18 GMT
      Request-Context:
      - appId=cid-v1:da002513-bd8b-4441-9f30-737944134422
      Set-Cookie:
      - api_https.cookieCORS=76a6c6567ab12cea5dac4942d8df71cc; Path=/; SameSite=None;
        Secure
      - api_https.cookie=76a6c6567ab12cea5dac4942d8df71cc; Path=/
      - TS01fa65e4=01359ee976a3e84a13dbee43f9ce28756f26b42d18b4468abe3af28c11c50582d02df3f774623ee561689b272fc609da343810f8fd;
        Path=/
      - TS019865bf=01689d38362cebddfe38a2fa0fd9aac17b3e0b22faace846a56385fecb612a54f4501943512c655a3774e50b4b34559832b8cc27a81dabdcbb83fa1af3be94dc99d97a0a6a;
        Path=/
    status: 200 OK
    code: 200
    duration: ""
- request:
    body: ""
    form: {}
    headers:
      User-Agent:
      - wbdata-go
    url: https://api.worldbank.org/v2/countries/ABCDEFG;HIJKLM/indicators/NY.GDP.MKTP.CD;SP.POP.TOTL?footnote=y&format=json&source=2
    method: GET
  response:
    body: '[{"message":[{"id":"120","key":"Invalid value","value":"The provided parameter
      value is not valid"}]}]'
    headers:
      Access-Control-Allow-Headers:
      - X-Requested-With
      Access-Control-Allow-Methods:
      - GET
      Access-Control-Allow-Origin:
      - '*'
      Cache-Control:
      - public, must-revalidate, max-age=2592000
      Content-Length:
      - "102"
      Content-Type:
      - application/json;charset=utf-8
      Date:
      - Sun, 13 Jun 2021 02:49:18 GMT
      Expires:
      - Tue, 13 Jul 2021 02:49:18 GMT
      Last-Modified:
      - Sun, 13 Jun 2021 02:49:18 GMT
      Request-Context:
      - appId=cid-v1:da002513-bd8b-4441-9f30-737944134422
      Set-Cookie:
      - api_https.cookieCORS=286e43d9dbb589273e07f096cd441f82; Path=/; SameSite=None;
        Secure
      - api_https.cookie=286e43d9dbb589273e07f096cd441f82; Path=/
      - TS019266c8=017189f94774b37c8c0de8e02ba8894f87c648a09f5abb8046a3a424ca289a555d72e9690096516f19ca6cb13c03af3c5de87647f9;
        Path=/
      - TS019865bf=0114ae29267e14d65ad693ecabd59cf71b73ed6057a2a0f72e48639117367269cec69596d49e960641c55e5fdc8b11c7578984d0c85ba120ddb3da9497ff2e85f660e5c608;
        Path=/
    status: 200 OK
    code: 200
    duration: ""
- request:
    body: ""
    form: {}
    headers:
      User-Agent:
      - wbdata-go
    url: https://api.worldbank.org/v2/countries/JPN;USA/indicators/INVALID.INDICATOR.ID;SP.POP.TOTL?footnote=y&format=json&source=2
    method: GET
  response:
    body: '[{"message":[{"id":"120","key":"Invalid value","value":"The provided parameter
      value is not valid"},{"id":"120","key":"Invalid value","value":"The provided
      parameter value is not valid"},{"id":"120","key":"Invalid value","value":"The
      provided parameter value is not valid"}]}]'
    headers:
      Access-Control-Allow-Headers:
      - X-Requested-With
      Access-Control-Allow-Methods:
      - GET
      Access-Control-Allow-Origin:
      - '*'
      Cache-Control:
      - public, must-revalidate, max-age=2592000
      Content-Length:
      - "276"
      Content-Type:
      - application/json;charset=utf-8
      Date:
      - Sun, 13 Jun 2021 02:49:18 GMT
      Expires:
      - Tue, 13 Jul 2021 02:49:18 GMT
      Last-Modified:
      - Sun, 13 Jun 2021 02:49:18 GMT
      Request-Context:
      - appId=cid-v1:da002513-bd8b-4441-9f30-737944134422
      Set-Cookie:
      - api_https.cookieCORS=76a6c6567ab12cea5dac4942d8df71cc; Path=/; SameSite=None;
        Secure
      - api_https.cookie=76a6c6567ab12cea5dac4942d8df71cc; Path=/
      - TS01fa65e4=01359ee97631c14e8caa4a90814c06739e6ed1cb3be1a93ec2c478ee2695e4c439d6a8d609fb0f698770f89650d370ac57170d1f84;
        Path=/
      - TS019865bf=01689d3836906e51b47c3bcc8a282a4efa58ed2ba4863f630dc60a1b7ec29610143736f49dcccef0064a334fa7bf00266855cccf8dc0d84a7df2f1382c384efcfad4a05995;
        Path=/
    status: 200 OK
    code: 200
    duration: ""
- request:
    body: ""
    form: {}
    headers:
      User-Agent:
      - wbdata-go
    url: https://api.worldbank.org/v2/countries/JPN;USA/indicators/NY.GDP.MKTP.CD;SP.POP.TOTL?footnote=y&format=json&source=invalid_source_id
    method: GET
  response:
    body: "\uFEFF\x3C\x3F\x78\x6D\x6C\x20\x76\x65\x72\x73\x69\x6F\x6E\x3D\"\x31\x2E\x30\"\x20\x65\x6E\x63\x6F\x64\x69\x6E\x67\x3D\"\x75\x74\x66\x2D\x38\"\x3F\x3E\r\n\x3C\x21\x44\x4F\x43\x54\x59\x50\x45\x20\x68\x74\x6D\x6C\x20\x50\x55\x42\x4C\x49\x43\x20\"\x2D\x2F\x2F\x57\x33\x43\x2F\x2F\x44\x54\x44\x20\x58\x48\x54\x4D\x4C\x20\x31\x2E\x30\x20\x54\x72\x61\x6E\x73\x69\x74\x69\x6F\x6E\x61\x6C\x2F\x2F\x45\x4E\"\x20\"\x68\x74\x74\x70\x3A\x2F\x2F\x77\x77\x77\x2E\x77\x33\x2E\x6F\x72\x67\x2F\x54\x52\x2F\x78\x68\x74\x6D\x6C\x31\x2F\x44\x54\x44\x2F\x78\x68\x74\x6D\x6C\x31\x2D\x74\x72\x61\x6E\x73\x69\x74\x69\x6F\x6E\x61\x6C\x2E\x64\x74\x64\"\x3E\r\n\x3C\x68\x74\x6D\x6C\x20\x78\x6D\x6C\x6E\x73\x3D\"\x68\x74\x74\x70\x3A\x2F\x2F\x77\x77\x77\x2E\x77\x33\x2E\x6F\x72\x67\x2F\x31\x39\x39\x39\x2F\x78\x68\x74\x6D\x6C\"\x3E\r\n\x20\x20\x3C\x68\x65\x61\x64\x3E\r\n\x20\x20\x20\x20\x3C\x74\x69\x74\x6C\x65\x3E\x52\x65\x71\x75\x65\x73\x74\x20\x45\x72\x72\x6F\x72\x3C\x2F\x74\x69\x74\x6C\x65\x3E\r\n\x20\x20\x20\x20\x3C\x73\x74\x79\x6C\x65\x3E\x42\x4F\x44\x59\x20\x7B\x20\x63\x6F\x6C\x6F\x72\x3A\x20\x23\x30\x30\x30\x30\x30\x30\x3B\x20\x62\x61\x63\x6B\x67\x72\x6F\x75\x6E\x64\x2D\x63\x6F\x6C\x6F\x72\x3A\x20\x77\x68\x69\x74\x65\x3B\x20\x66\x6F\x6E\x74\x2D\x66\x61\x6D\x69\x6C\x79\x3A\x20\x56\x65\x72\x64\x61\x6E\x61\x3B\x20\x6D\x61\x72\x67\x69\x6E\x2D\x6C\x65\x66\x74\x3A\x20\x30\x70\x78\x3B\x20\x6D\x61\x72\x67\x69\x6E\x2D\x74\x6F\x70\x3A\x20\x30\x70\x78\x3B\x20\x7D\x20\x23\x63\x6F\x6E\x74\x65\x6E\x74\x20\x7B\x20\x6D\x61\x72\x67\x69\x6E\x2D\x6C\x65\x66\x74\x3A\x20\x33\x30\x70\x78\x3B\x20\x66\x6F\x6E\x74\x2D\x73\x69\x7A\x65\x3A\x20\x2E\x37\x30\x65\x6D\x3B\x20\x70\x61\x64\x64\x69\x6E\x67\x2D\x62\x6F\x74\x74\x6F\x6D\x3A\x20\x32\x65\x6D\x3B\x20\x7D\x20\x41\x3A\x6C\x69\x6E\x6B\x20\x7B\x20\x63\x6F\x6C\x6F\x72\x3A\x20\x23\x33\x33\x36\x36\x39\x39\x3B\x20\x66\x6F\x6E\x74\x2D\x77\x65\x69\x67\x68\x74\x3A\x20\x62\x6F\x6C\x64\x3B\x20\x74\x65\x78\x74\x2D\x64\x65\x63\x6F\x72\x61\x74\x69\x6F\x6E\x3A\x20\x75\x6E\x64\x65\x72\x6C\x69\x6E\x65\x3B\x20\x7D\x20\x41\x3A\x76\x69\x73\x69\x74\x65\x64\x20\x7B\x20\x63\x6F\x6C\x6F\x72\x3A\x20\x23\x36\x36\x39\x39\x63\x63\x3B\x20\x66\x6F\x6E\x74\x2D\x77\x65\x69\x67\x68\x74\x3A\x20\x62\x6F\x6C\x64\x3B\x20\x74\x65\x78\x74\x2D\x64\x65\x63\x6F\x72\x61\x74\x69\x6F\x6E\x3A\x20\x75\x6E\x64\x65\x72\x6C\x69\x6E\x65\x3B\x20\x7D\x20\x41\x3A\x61\x63\x74\x69\x76\x65\x20\x7B\x20\x63\x6F\x6C\x6F\x72\x3A\x20\x23\x33\x33\x36\x36\x39\x39\x3B\x20\x66\x6F\x6E\x74\x2D\x77\x65\x69\x67\x68\x74\x3A\x20\x62\x6F\x6C\x64\x3B\x20\x74\x65\x78\x74\x2D\x64\x65\x63\x6F\x72\x61\x74\x69\x6F\x6E\x3A\x20\x75\x6E\x64\x65\x72\x6C\x69\x6E\x65\x3B\x20\x7D\x20\x2E\x68\x65\x61\x64\x69\x6E\x67\x31\x20\x7B\x20\x62\x61\x63\x6B\x67\x72\x6F\x75\x6E\x64\x2D\x63\x6F\x6C\x6F\x72\x3A\x20\x23\x30\x30\x33\x33\x36\x36\x3B\x20\x62\x6F\x72\x64\x65\x72\x2D\x62\x6F\x74\x74\x6F\x6D\x3A\x20\x23\x33\x33\x36\x36\x39\x39\x20\x36\x70\x78\x20\x73\x6F\x6C\x69\x64\x3B\x20\x63\x6F\x6C\x6F\x72\x3A\x20\x23\x66\x66\x66\x66\x66\x66\x3B\x20\x66\x6F\x6E\x74\x2D\x66\x61\x6D\x69\x6C\x79\x3A\x20\x54\x61\x68\x6F\x6D\x61\x3B\x20\x66\x6F\x6E\x74\x2D\x73\x69\x7A\x65\x3A\x20\x32\x36\x70\x78\x3B\x20\x66\x6F\x6E\x74\x2D\x77\x65\x69\x67\x68\x74\x3A\x20\x6E\x6F\x72\x6D\x61\x6C\x3B\x6D\x61\x72\x67\x69\x6E\x3A\x20\x30\x65\x6D\x20\x30\x65\x6D\x20\x31\x30\x70\x78\x20\x2D\x32\x30\x70\x78\x3B\x20\x70\x61\x64\x64\x69\x6E\x67\x2D\x62\x6F\x74\x74\x6F\x6D\x3A\x20\x38\x70\x78\x3B\x20\x70\x61\x64\x64\x69\x6E\x67\x2D\x6C\x65\x66\x74\x3A\x20\x33\x30\x70\x78\x3B\x70\x61\x64\x64\x69\x6E\x67\x2D\x74\x6F\x70\x3A\x20\x31\x36\x70\x78\x3B\x7D\x20\x70\x72\x65\x20\x7B\x20\x66\x6F\x6E\x74\x2D\x73\x69\x7A\x65\x3A\x73\x6D\x61\x6C\x6C\x3B\x20\x62\x61\x63\x6B\x67\x72\x6F\x75\x6E\x64\x2D\x63\x6F\x6C\x6F\x72\x3A\x20\x23\x65\x35\x65\x35\x63\x63\x3B\x20\x70\x61\x64\x64\x69\x6E\x67\x3A\x20\x35\x70\x78\x3B\x20\x66\x6F\x6E\x74\x2D\x66\x61\x6D\x69\x6C\x79\x3A\x20\x43\x6F\x75\x72\x69\x65\x72\x20\x4E\x65\x77\x3B\x20\x6D\x61\x72\x67\x69\x6E\x2D\x74\x6F\x70\x3A\x20\x30\x70\x78\x3B\x20\x62\x6F\x72\x64\x65\x72\x3A\x20\x31\x70\x78\x20\x23\x66\x30\x66\x30\x65\x30\x20\x73\x6F\x6C\x69\x64\x3B\x20\x77\x68\x69\x74\x65\x2D\x73\x70\x61\x63\x65\x3A\x20\x70\x72\x65\x2D\x77\x72\x61\x70\x3B\x20\x77\x68\x69\x74\x65\x2D\x73\x70\x61\x63\x65\x3A\x20\x2D\x70\x72\x65\x2D\x77\x72\x61\x70\x3B\x20\x77\x6F\x72\x64\x2D\x77\x72\x61\x70\x3A\x20\x62\x72\x65\x61\x6B\x2D\x77\x6F\x72\x64\x3B\x20\x7D\x20\x74\x61\x62\x6C\x65\x20\x7B\x20\x62\x6F\x72\x64\x65\x72\x2D\x63\x6F\x6C\x6C\x61\x70\x73\x65\x3A\x20\x63\x6F\x6C\x6C\x61\x70\x73\x65\x3B\x20\x62\x6F\x72\x64\x65\x72\x2D\x73\x70\x61\x63\x69\x6E\x67\x3A\x20\x30\x70\x78\x3B\x20\x66\x6F\x6E\x74\x2D\x66\x61\x6D\x69\x6C\x79\x3A\x20\x56\x65\x72\x64\x61\x6E\x61\x3B\x7D\x20\x74\x61\x62\x6C\x65\x20\x74\x68\x20\x7B\x20\x62\x6F\x72\x64\x65\x72\x2D\x72\x69\x67\x68\x74\x3A\x20\x32\x70\x78\x20\x77\x68\x69\x74\x65\x20\x73\x6F\x6C\x69\x64\x3B\x20\x62\x6F\x72\x64\x65\x72\x2D\x62\x6F\x74\x74\x6F\x6D\x3A\x20\x32\x70\x78\x20\x77\x68\x69\x74\x65\x20\x73\x6F\x6C\x69\x64\x3B\x20\x66\x6F\x6E\x74\x2D\x77\x65\x69\x67\x68\x74\x3A\x20\x62\x6F\x6C\x64\x3B\x20\x62\x61\x63\x6B\x67\x72\x6F\x75\x6E\x64\x2D\x63\x6F\x6C\x6F\x72\x3A\x20\x23\x63\x65\x63\x66\x39\x63\x3B\x7D\x20\x74\x61\x62\x6C\x65\x20\x74\x64\x20\x7B\x20\x62\x6F\x72\x64\x65\x72\x2D\x72\x69\x67\x68\x74\x3A\x20\x32\x70\x78\x20\x77\x68\x69\x74\x65\x20\x73\x6F\x6C\x69\x64\x3B\x20\x62\x6F\x72\x64\x65\x72\x2D\x62\x6F\x74\x74\x6F\x6D\x3A\x20\x32\x70\x78\x20\x77\x68\x69\x74\x65\x20\x73\x6F\x6C\x69\x64\x3B\x20\x62\x61\x63\x6B\x67\x72\x6F\x75\x6E\x64\x2D\x63\x6F\x6C\x6F\x72\x3A\x20\x23\x65\x35\x65\x35\x63\x63\x3B\x7D\x3C\x2F\x73\x74\x79\x6C\x65\x3E\r\n\x20\x20\x3C\x2F\x68\x65\x61\x64\x3E\r\n\x20\x20\x3C\x62\x6F\x64\x79\x3E\r\n\x20\x20\x20\x20\x3C\x64\x69\x76\x20\x69\x64\x3D\"\x63\x6F\x6E\x74\x65\x6E\x74\"\x3E\r\n\x20\x20\x20\x20\x20\x20\x3C\x70\x20\x63\x6C\x61\x73\x73\x3D\"\x68\x65\x61\x64\x69\x6E\x67\x31\"\x3E\x52\x65\x71\x75\x65\x73\x74\x20\x45\x72\x72\x6F\x72\x3C\x2F\x70\x3E\r\n\x20\x20\x20\x20\x20\x20\x3C\x70\x3E\x54\x68\x65\x20\x73\x65\x72\x76\x65\x72\x20\x65\x6E\x63\x6F\x75\x6E\x74\x65\x72\x65\x64\x20\x61\x6E\x20\x65\x72\x72\x6F\x72\x20\x70\x72\x6F\x63\x65\x73\x73\x69\x6E\x67\x20\x74\x68\x65\x20\x72\x65\x71\x75\x65\x73\x74\x2E\x20\x53\x65\x65\x20\x73\x65\x72\x76\x65\x72\x20\x6C\x6F\x67\x73\x20\x66\x6F\x72\x20\x6D\x6F\x72\x65\x20\x64\x65\x74\x61\x69\x6C\x73\x2E\x3C\x2F\x70\x3E\r\n\x20\x20\x20\x20\x3C\x2F\x64\x69\x76\x3E\r\n\x20\x20\x3C\x2F\x62\x6F\x64\x79\x3E\r\n\x3C\x2F\x68\x74\x6D\x6C\x3E"
    headers:
      Content-Length:
      - "1647"
      Content-Type:
      - text/html
      Date:
      - Sun, 13 Jun 2021 02:49:18 GMT
      Request-Context:
      - appId=cid-v1:da002513-bd8b-4441-9f30-737944134422
      Set-Cookie:
      - api_https.cookieCORS=286e43d9dbb589273e07f096cd441f82; Path=/; SameSite=None;
        Secure
      - api_https.cookie=286e43d9dbb589273e07f096cd441f82; Path=/
      - TS019266c8=017189f9474764c7b8efa5bded2467f1f3df46d9ddd1c9cea9e062ca96280db5f438f966c533705d4a94ddb360c7bd23f7aa0d71b5;
        Path=/
      - TS019865bf=0114ae29261d39e608196c9de1bc6f838a966200efc9d5e310df50199976e23206b72d1d4f815c095c508474565223a6423a2f4e349ff35e2cae97e1b8890dd8e68f876ac5;
        Path=/
    status: 400 Bad Request
    code: 400
    duration: ""
