---
version: 1
interactions:
- request:
    body: ""
    form: {}
    headers:
      User-Agent:
      - wbdata-go
    url: https://api.worldbank.org/v2/countries/JPN;USA/indicators/NY.GDP.MKTP.CD;SP.POP.TOTL?format=json&source=2
    method: GET
  response:
    body: '[{"page":1,"pages":5,"per_page":50,"total":244,"sourceid":null,"sourcename":null,"lastupdated":"2021-05-25"},[{"indicator":{"id":"NY.GDP.MKTP.CD","value":"GDP
      (current US$)"},"country":{"id":"JP","value":"Japan"},"countryiso3code":"JPN","date":"2020","value":null,"scale":"","unit":"","obs_status":"","decimal":0},{"indicator":{"id":"NY.GDP.MKTP.CD","value":"GDP
      (current US$)"},"country":{"id":"JP","value":"Japan"},"countryiso3code":"JPN","date":"2019","value":5081769542379.77,"unit":"","obs_status":"","decimal":0},{"indicator":{"id":"NY.GDP.MKTP.CD","value":"GDP
      (current US$)"},"country":{"id":"JP","value":"Japan"},"countryiso3code":"JPN","date":"2018","value":4954806619995.19,"unit":"","obs_status":"","decimal":0},{"indicator":{"id":"NY.GDP.MKTP.CD","value":"GDP
      (current US$)"},"country":{"id":"JP","value":"Japan"},"countryiso3code":"JPN","date":"2017","value":4866864409657.68,"unit":"","obs_status":"","decimal":0},{"indicator":{"id":"NY.GDP.MKTP.CD","value":"GDP
      (current US$)"},"country":{"id":"JP","value":"Japan"},"countryiso3code":"JPN","date":"2016","value":4922538141454.62,"unit":"","obs_status":"","decimal":0},{"indicator":{"id":"NY.GDP.MKTP.CD","value":"GDP
      (current US$)"},"country":{"id":"JP","value":"Japan"},"countryiso3code":"JPN","date":"2015","value":4389475622588.97,"unit":"","obs_status":"","decimal":0},{"indicator":{"id":"NY.GDP.MKTP.CD","value":"GDP
      (current US$)"},"country":{"id":"JP","value":"Japan"},"countryiso3code":"JPN","date":"2014","value":4850413536037.84,"unit":"","obs_status":"","decimal":0},{"indicator":{"id":"NY.GDP.MKTP.CD","value":"GDP
      (current US$)"},"country":{"id":"JP","value":"Japan"},"countryiso3code":"JPN","date":"2013","value":5155717056270.83,"unit":"","obs_status":"","decimal":0},{"indicator":{"id":"NY.GDP.MKTP.CD","value":"GDP
      (current US$)"},"country":{"id":"JP","value":"Japan"},"countryiso3code":"JPN","date":"2012","value":6203213121334.12,"unit":"","obs_status":"","decimal":0},{"indicator":{"id":"NY.GDP.MKTP.CD","value":"GDP
      (current US$)"},"country":{"id":"JP","value":"Japan"},"countryiso3code":"JPN","date":"2011","value":6157459594823.72,"unit":"","obs_status":"","decimal":0},{"indicator":{"id":"NY.GDP.MKTP.CD","value":"GDP
      (current US$)"},"country":{"id":"JP","value":"Japan"},"countryiso3code":"JPN","date":"2010","value":5700098114744.41,"unit":"","obs_status":"","decimal":0},{"indicator":{"id":"NY.GDP.MKTP.CD","value":"GDP
      (current US$)"},"country":{"id":"JP","value":"Japan"},"countryiso3code":"JPN","date":"2009","value":5231382674593.7,"unit":"","obs_status":"","decimal":0},{"indicator":{"id":"NY.GDP.MKTP.CD","value":"GDP
      (current US$)"},"country":{"id":"JP","value":"Japan"},"countryiso3code":"JPN","date":"2008","value":5037908465114.48,"unit":"","obs_status":"","decimal":0},{"indicator":{"id":"NY.GDP.MKTP.CD","value":"GDP
      (current US$)"},"country":{"id":"JP","value":"Japan"},"countryiso3code":"JPN","date":"2007","value":4515264514430.57,"unit":"","obs_status":"","decimal":0},{"indicator":{"id":"NY.GDP.MKTP.CD","value":"GDP
      (current US$)"},"country":{"id":"JP","value":"Japan"},"countryiso3code":"JPN","date":"2006","value":4530377224970.4,"unit":"","obs_status":"","decimal":0},{"indicator":{"id":"NY.GDP.MKTP.CD","value":"GDP
      (current US$)"},"country":{"id":"JP","value":"Japan"},"countryiso3code":"JPN","date":"2005","value":4755410630912.14,"unit":"","obs_status":"","decimal":0},{"indicator":{"id":"NY.GDP.MKTP.CD","value":"GDP
      (current US$)"},"country":{"id":"JP","value":"Japan"},"countryiso3code":"JPN","date":"2004","value":4815148854362.11,"unit":"","obs_status":"","decimal":0},{"indicator":{"id":"NY.GDP.MKTP.CD","value":"GDP
      (current US$)"},"country":{"id":"JP","value":"Japan"},"countryiso3code":"JPN","date":"2003","value":4445658071221.86,"unit":"","obs_status":"","decimal":0},{"indicator":{"id":"NY.GDP.MKTP.CD","value":"GDP
      (current US$)"},"country":{"id":"JP","value":"Japan"},"countryiso3code":"JPN","date":"2002","value":4115116279069.77,"unit":"","obs_status":"","decimal":0},{"indicator":{"id":"NY.GDP.MKTP.CD","value":"GDP
      (current US$)"},"country":{"id":"JP","value":"Japan"},"countryiso3code":"JPN","date":"2001","value":4303544259842.72,"unit":"","obs_status":"","decimal":0},{"indicator":{"id":"NY.GDP.MKTP.CD","value":"GDP
      (current US$)"},"country":{"id":"JP","value":"Japan"},"countryiso3code":"JPN","date":"2000","value":4887519660744.86,"unit":"","obs_status":"","decimal":0},{"indicator":{"id":"NY.GDP.MKTP.CD","value":"GDP
      (current US$)"},"country":{"id":"JP","value":"Japan"},"countryiso3code":"JPN","date":"1999","value":4562078822335.45,"unit":"","obs_status":"","decimal":0},{"indicator":{"id":"NY.GDP.MKTP.CD","value":"GDP
      (current US$)"},"country":{"id":"JP","value":"Japan"},"countryiso3code":"JPN","date":"1998","value":4032509760872.94,"unit":"","obs_status":"","decimal":0},{"indicator":{"id":"NY.GDP.MKTP.CD","value":"GDP
      (current US$)"},"country":{"id":"JP","value":"Japan"},"countryiso3code":"JPN","date":"1997","value":4414732843544.43,"unit":"","obs_status":"","decimal":0},{"indicator":{"id":"NY.GDP.MKTP.CD","value":"GDP
      (current US$)"},"country":{"id":"JP","value":"Japan"},"countryiso3code":"JPN","date":"1996","value":4833712542207.1,"unit":"","obs_status":"","decimal":0},{"indicator":{"id":"NY.GDP.MKTP.CD","value":"GDP
      (current US$)"},"country":{"id":"JP","value":"Japan"},"countryiso3code":"JPN","date":"1995","value":5449116304981.1,"unit":"","obs_status":"","decimal":0},{"indicator":{"id":"NY.GDP.MKTP.CD","value":"GDP
      (current US$)"},"country":{"id":"JP","value":"Japan"},"countryiso3code":"JPN","date":"1994","value":4907039384469.68,"unit":"","obs_status":"","decimal":0},{"indicator":{"id":"NY.GDP.MKTP.CD","value":"GDP
      (current US$)"},"country":{"id":"JP","value":"Japan"},"countryiso3code":"JPN","date":"1993","value":4454143876947.21,"unit":"","obs_status":"","decimal":0},{"indicator":{"id":"NY.GDP.MKTP.CD","value":"GDP
      (current US$)"},"country":{"id":"JP","value":"Japan"},"countryiso3code":"JPN","date":"1992","value":3908809463463.86,"unit":"","obs_status":"","decimal":0},{"indicator":{"id":"NY.GDP.MKTP.CD","value":"GDP
      (current US$)"},"country":{"id":"JP","value":"Japan"},"countryiso3code":"JPN","date":"1991","value":3584420077100.84,"unit":"","obs_status":"","decimal":0},{"indicator":{"id":"NY.GDP.MKTP.CD","value":"GDP
      (current US$)"},"country":{"id":"JP","value":"Japan"},"countryiso3code":"JPN","date":"1990","value":3132817652848.04,"unit":"","obs_status":"","decimal":0},{"indicator":{"id":"NY.GDP.MKTP.CD","value":"GDP
      (current US$)"},"country":{"id":"JP","value":"Japan"},"countryiso3code":"JPN","date":"1989","value":3054914166263.18,"unit":"","obs_status":"","decimal":0},{"indicator":{"id":"NY.GDP.MKTP.CD","value":"GDP
      (current US$)"},"country":{"id":"JP","value":"Japan"},"countryiso3code":"JPN","date":"1988","value":3071683013178.91,"unit":"","obs_status":"","decimal":0},{"indicator":{"id":"NY.GDP.MKTP.CD","value":"GDP
      (current US$)"},"country":{"id":"JP","value":"Japan"},"countryiso3code":"JPN","date":"1987","value":2532808573157.03,"unit":"","obs_status":"","decimal":0},{"indicator":{"id":"NY.GDP.MKTP.CD","value":"GDP
      (current US$)"},"country":{"id":"JP","value":"Japan"},"countryiso3code":"JPN","date":"1986","value":2078953333673.55,"unit":"","obs_status":"","decimal":0},{"indicator":{"id":"NY.GDP.MKTP.CD","value":"GDP
      (current US$)"},"country":{"id":"JP","value":"Japan"},"countryiso3code":"JPN","date":"1985","value":1398892744820.69,"unit":"","obs_status":"","decimal":0},{"indicator":{"id":"NY.GDP.MKTP.CD","value":"GDP
      (current US$)"},"country":{"id":"JP","value":"Japan"},"countryiso3code":"JPN","date":"1984","value":1318381627003.76,"unit":"","obs_status":"","decimal":0},{"indicator":{"id":"NY.GDP.MKTP.CD","value":"GDP
      (current US$)"},"country":{"id":"JP","value":"Japan"},"countryiso3code":"JPN","date":"1983","value":1243323592058.83,"unit":"","obs_status":"","decimal":0},{"indicator":{"id":"NY.GDP.MKTP.CD","value":"GDP
      (current US$)"},"country":{"id":"JP","value":"Japan"},"countryiso3code":"JPN","date":"1982","value":1134518001884.56,"unit":"","obs_status":"","decimal":0},{"indicator":{"id":"NY.GDP.MKTP.CD","value":"GDP
      (current US$)"},"country":{"id":"JP","value":"Japan"},"countryiso3code":"JPN","date":"1981","value":1218988935129.81,"unit":"","obs_status":"","decimal":0},{"indicator":{"id":"NY.GDP.MKTP.CD","value":"GDP
      (current US$)"},"country":{"id":"JP","value":"Japan"},"countryiso3code":"JPN","date":"1980","value":1105385973763.87,"unit":"","obs_status":"","decimal":0},{"indicator":{"id":"NY.GDP.MKTP.CD","value":"GDP
      (current US$)"},"country":{"id":"JP","value":"Japan"},"countryiso3code":"JPN","date":"1979","value":1055012119526.33,"unit":"","obs_status":"","decimal":0},{"indicator":{"id":"NY.GDP.MKTP.CD","value":"GDP
      (current US$)"},"country":{"id":"JP","value":"Japan"},"countryiso3code":"JPN","date":"1978","value":1013612173518.84,"unit":"","obs_status":"","decimal":0},{"indicator":{"id":"NY.GDP.MKTP.CD","value":"GDP
      (current US$)"},"country":{"id":"JP","value":"Japan"},"countryiso3code":"JPN","date":"1977","value":721411786536.814,"unit":"","obs_status":"","decimal":0},{"indicator":{"id":"NY.GDP.MKTP.CD","value":"GDP
      (current US$)"},"country":{"id":"JP","value":"Japan"},"countryiso3code":"JPN","date":"1976","value":586161858999.671,"unit":"","obs_status":"","decimal":0},{"indicator":{"id":"NY.GDP.MKTP.CD","value":"GDP
      (current US$)"},"country":{"id":"JP","value":"Japan"},"countryiso3code":"JPN","date":"1975","value":521541905673.251,"unit":"","obs_status":"","decimal":0},{"indicator":{"id":"NY.GDP.MKTP.CD","value":"GDP
      (current US$)"},"country":{"id":"JP","value":"Japan"},"countryiso3code":"JPN","date":"1974","value":479625998613.406,"unit":"","obs_status":"","decimal":0},{"indicator":{"id":"NY.GDP.MKTP.CD","value":"GDP
      (current US$)"},"country":{"id":"JP","value":"Japan"},"countryiso3code":"JPN","date":"1973","value":432082670450.719,"unit":"","obs_status":"","decimal":0},{"indicator":{"id":"NY.GDP.MKTP.CD","value":"GDP
      (current US$)"},"country":{"id":"JP","value":"Japan"},"countryiso3code":"JPN","date":"1972","value":318031297492.352,"unit":"","obs_status":"","decimal":0},{"indicator":{"id":"NY.GDP.MKTP.CD","value":"GDP
      (current US$)"},"country":{"id":"JP","value":"Japan"},"countryiso3code":"JPN","date":"1971","value":240151807460.241,"unit":"","obs_status":"","decimal":0}]]'
    headers:
      Access-Control-Allow-Headers:
      - X-Requested-With
      Access-Control-Allow-Methods:
      - GET
      Access-Control-Allow-Origin:
      - '*'
      Cache-Control:
      - public, must-revalidate, max-age=2592000
      Content-Length:
      - "10356"
      Content-Type:
      - application/json;charset=utf-8
      Date:
      - Sun, 13 Jun 2021 02:49:14 GMT
      Expires:
      - Tue, 13 Jul 2021 02:49:14 GMT
      Last-Modified:
      - Sun, 13 Jun 2021 02:49:14 GMT
      Request-Context:
      - appId=cid-v1:da002513-bd8b-4441-9f30-737944134422
      Set-Cookie:
      - api_https.cookieCORS=286e43d9dbb589273e07f096cd441f82; Path=/; SameSite=None;
        Secure
      - api_https.cookie=286e43d9dbb589273e07f096cd441f82; Path=/
      - TS019266c8=017189f94748acccd37f05f029cc123b7ea711de36d3e54ab9ada6a184b63cd21aecae7618e6c40adbd318a3dfe4bdf05af1b23e72;
        Path=/
      - TS019865bf=0114ae2926aa066b77a7d96765a394f89648451123acf2281531bc4917239e7a9fd196691de5f210f3c23b65471cea1503b1f9ff39c87c79751fbd8a196954762cae2b6131;
        Path=/
    status: 200 OK
    code: 200
    duration: ""
- request:
    body: ""
    form: {}
    headers:
      User-Agent:
      - wbdata-go
    url: https://api.worldbank.org/v2/countries/JPN;USA/indicators/NY.GDP.MKTP.CD;SP.POP.TOTL?date=2018%3A2019&format=json&page=1&per_page=2&source=2
    method: GET
  response:
    body: '[{"page":1,"pages":4,"per_page":2,"total":8,"sourceid":null,"sourcename":null,"lastupdated":"2021-05-25"},[{"indicator":{"id":"NY.GDP.MKTP.CD","value":"GDP
      (current US$)"},"country":{"id":"JP","value":"Japan"},"countryiso3code":"JPN","date":"2019","value":5081769542379.77,"unit":"","obs_status":"","decimal":0},{"indicator":{"id":"NY.GDP.MKTP.CD","value":"GDP
      (current US$)"},"country":{"id":"JP","value":"Japan"},"countryiso3code":"JPN","date":"2018","value":4954806619995.19,"unit":"","obs_status":"","decimal":0}]]'
    headers:
      Access-Control-Allow-Headers:
      - X-Requested-With
      Access-Control-Allow-Methods:
      - GET
      Access-Control-Allow-Origin:
      - '*'
      Cache-Control:
      - public, must-revalidate, max-age=2592000
      Content-Length:
      - "518"
      Content-Type:
      - application/json;charset=utf-8
      Date:
      - Sun, 13 Jun 2021 02:49:15 GMT
      Expires:
      - Tue, 13 Jul 2021 02:49:15 GMT
      Last-Modified:
      - Sun, 13 Jun 2021 02:49:15 GMT
      Request-Context:
      - appId=cid-v1:da002513-bd8b-4441-9f30-737944134422
      Set-Cookie:
      - api_https.cookieCORS=76a6c6567ab12cea5dac4942d8df71cc; Path=/; SameSite=None;
        Secure
      - api_https.cookie=76a6c6567ab12cea5dac4942d8df71cc; Path=/
      - TS01fa65e4=01359ee9767f35dc240657932f636a8f8bb78cb041fbd2704d7381c0dc0acc7276e493ed1698595d6f280439f4e54a9f7603ad5d48;
        Path=/
      - TS019865bf=01689d3836d22e6bff4145a31acf541297825f6b9c2a9455670e9c4dcb0e23f5c2cfcf7853424df8645fd4009cd15e5dc91f1828e97344b1ba7681e32fa483fb9b180c20e1;
        Path=/
    status: 200 OK
    code: 200
    duration: ""
- request:
    body: ""
    form: {}
    headers:
      User-Agent:
      - wbdata-go
    url: https://api.worldbank.org/v2/countries/ABCDEFG;HIJKLM/indicators/NY.GDP.MKTP.CD;SP.POP.TOTL?format=json&source=2
    method: GET
  response:
    body: '[{"message":[{"id":"120","key":"Invalid value","value":"The provided parameter
      value is not valid"}]}]'
    headers:
      Access-Control-Allow-Headers:
      - X-Requested-With
      Access-Control-Allow-Methods:
      - GET
      Access-Control-Allow-Origin:
      - '*'
      Cache-Control:
      - public, must-revalidate, max-age=2592000
      Content-Length:
      - "102"
      Content-Type:
      - application/json;charset=utf-8
      Date:
      - Sun, 13 Jun 2021 02:49:15 GMT
      Expires:
      - Tue, 13 Jul 2021 02:49:15 GMT
      Last-Modified:
      - Sun, 13 Jun 2021 02:49:15 GMT
      Request-Context:
      - appId=cid-v1:da002513-bd8b-4441-9f30-737944134422
      Set-Cookie:
      - api_https.cookieCORS=286e43d9dbb589273e07f096cd441f82; Path=/; SameSite=None;
        Secure
      - api_https.cookie=286e43d9dbb589273e07f096cd441f82; Path=/
      - TS019266c8=017189f9472d96cfbc2cc763d7a93cc362554640dbe4d93b45de30f84785cac866d932b3625094847fab4123d955fc2924e1302d7c;
        Path=/
      - TS019865bf=0114ae2926820db16be43cfe9ac3ec63a1b799df5acedc004430ee4b983c4ee9c10738b73427f4000ef72fdb3aadfb67b81d4fbd0b954ae215ff69903130b4501b800336b3;
        Path=/
    status: 200 OK
    code: 200
    duration: ""
- request:
    body: ""
    form: {}
    headers:
      User-Agent:
      - wbdata-go
    url: https://api.worldbank.org/v2/countries/JPN;USA/indicators/INVALID.INDICATOR.ID;SP.POP.TOTL?format=json&source=2
    method: GET
  response:
    body: '[{"message":[{"id":"120","key":"Invalid value","value":"The provided parameter
      value is not valid"},{"id":"120","key":"Invalid value","value":"The provided
      parameter value is not valid"},{"id":"120","key":"Invalid value","value":"The
      provided parameter value is not valid"}]}]'
    headers:
      Access-Control-Allow-Headers:
      - X-Requested-With
      Access-Control-Allow-Methods:
      - GET
      Access-Control-Allow-Origin:
      - '*'
      Cache-Control:
      - public, must-revalidate, max-age=2592000
      Content-Length:
      - "276"
      Content-Type:
      - application/json;charset=utf-8
      Date:
      - Sun, 13 Jun 2021 02:49:15 GMT
      Expires:
      - Tue, 13 Jul 2021 02:49:15 GMT
      Last-Modified:
      - Sun, 13 Jun 2021 02:49:15 GMT
      Request-Context:
      - appId=cid-v1:da002513-bd8b-4441-9f30-737944134422
      Set-Cookie:
      - api_https.cookieCORS=286e43d9dbb589273e07f096cd441f82; Path=/; SameSite=None;
        Secure
      - api_https.cookie=286e43d9dbb589273e07f096cd441f82; Path=/
      - TS019266c8=017189f947098eb93b31b269c2862e7200b9c942d7636c49d45a6efa47f4345c7248b1a728557f45994421beb1281141d6bfd63a26;
        Path=/
      - TS019865bf=0114ae2926982d0cee1987b79707733ea97e9d7832f73480315941019a70c3fa9957d8b74a19dd0b43c260115be6062fc7a44af77dec83592f1ef8a40a6c3d9c3a7ccbca1b;
        Path=/
    status: 200 OK
    code: 200
    duration: ""
- request:
    body: ""
    form: {}
    headers:
      User-Agent:
      - wbdata-go
    url: https://api.worldbank.org/v2/countries/JPN;USA/indicators/NY.GDP.MKTP.CD;SP.POP.TOTL?format=json&source=invalid_source_id
    method: GET
  response:
    body: "\uFEFF\x3C\x3F\x78\x6D\x6C\x20\x76\x65\x72\x73\x69\x6F\x6E\x3D\"\x31\x2E\x30\"\x20\x65\x6E\x63\x6F\x64\x69\x6E\x67\x3D\"\x75\x74\x66\x2D\x38\"\x3F\x3E\r\n\x3C\x21\x44\x4F\x43\x54\x59\x50\x45\x20\x68\x74\x6D\x6C\x20\x50\x55\x42\x4C\x49\x43\x20\"\x2D\x2F\x2F\x57\x33\x43\x2F\x2F\x44\x54\x44\x20\x58\x48\x54\x4D\x4C\x20\x31\x2E\x30\x20\x54\x72\x61\x6E\x73\x69\x74\x69\x6F\x6E\x61\x6C\x2F\x2F\x45\x4E\"\x20\"\x68\x74\x74\x70\x3A\x2F\x2F\x77\x77\x77\x2E\x77\x33\x2E\x6F\x72\x67\x2F\x54\x52\x2F\x78\x68\x74\x6D\x6C\x31\x2F\x44\x54\x44\x2F\x78\x68\x74\x6D\x6C\x31\x2D\x74\x72\x61\x6E\x73\x69\x74\x69\x6F\x6E\x61\x6C\x2E\x64\x74\x64\"\x3E\r\n\x3C\x68\x74\x6D\x6C\x20\x78\x6D\x6C\x6E\x73\x3D\"\x68\x74\x74\x70\x3A\x2F\x2F\x77\x77\x77\x2E\x77\x33\x2E\x6F\x72\x67\x2F\x31\x39\x39\x39\x2F\x78\x68\x74\x6D\x6C\"\x3E\r\n\x20\x20\x3C\x68\x65\x61\x64\x3E\r\n\x20\x20\x20\x20\x3C\x74\x69\x74\x6C\x65\x3E\x52\x65\x71\x75\x65\x73\x74\x20\x45\x72\x72\x6F\x72\x3C\x2F\x74\x69\x74\x6C\x65\x3E\r\n\x20\x20\x20\x20\x3C\x73\x74\x79\x6C\x65\x3E\x42\x4F\x44\x59\x20\x7B\x20\x63\x6F\x6C\x6F\x72\x3A\x20\x23\x30\x30\x30\x30\x30\x30\x3B\x20\x62\x61\x63\x6B\x67\x72\x6F\x75\x6E\x64\x2D\x63\x6F\x6C\x6F\x72\x3A\x20\x77\x68\x69\x74\x65\x3B\x20\x66\x6F\x6E\x74\x2D\x66\x61\x6D\x69\x6C\x79\x3A\x20\x56\x65\x72\x64\x61\x6E\x61\x3B\x20\x6D\x61\x72\x67\x69\x6E\x2D\x6C\x65\x66\x74\x3A\x20\x30\x70\x78\x3B\x20\x6D\x61\x72\x67\x69\x6E\x2D\x74\x6F\x70\x3A\x20\x30\x70\x78\x3B\x20\x7D\x20\x23\x63\x6F\x6E\x74\x65\x6E\x74\x20\x7B\x20\x6D\x61\x72\x67\x69\x6E\x2D\x6C\x65\x66\x74\x3A\x20\x33\x30\x70\x78\x3B\x20\x66\x6F\x6E\x74\x2D\x73\x69\x7A\x65\x3A\x20\x2E\x37\x30\x65\x6D\x3B\x20\x70\x61\x64\x64\x69\x6E\x67\x2D\x62\x6F\x74\x74\x6F\x6D\x3A\x20\x32\x65\x6D\x3B\x20\x7D\x20\x41\x3A\x6C\x69\x6E\x6B\x20\x7B\x20\x63\x6F\x6C\x6F\x72\x3A\x20\x23\x33\x33\x36\x36\x39\x39\x3B\x20\x66\x6F\x6E\x74\x2D\x77\x65\x69\x67\x68\x74\x3A\x20\x62\x6F\x6C\x64\x3B\x20\x74\x65\x78\x74\x2D\x64\x65\x63\x6F\x72\x61\x74\x69\x6F\x6E\x3A\x20\x75\x6E\x64\x65\x72\x6C\x69\x6E\x65\x3B\x20\x7D\x20\x41\x3A\x76\x69\x73\x69\x74\x65\x64\x20\x7B\x20\x63\x6F\x6C\x6F\x72\x3A\x20\x23\x36\x36\x39\x39\x63\x63\x3B\x20\x66\x6F\x6E\x74\x2D\x77\x65\x69\x67\x68\x74\x3A\x20\x62\x6F\x6C\x64\x3B\x20\x74\x65\x78\x74\x2D\x64\x65\x63\x6F\x72\x61\x74\x69\x6F\x6E\x3A\x20\x75\x6E\x64\x65\x72\x6C\x69\x6E\x65\x3B\x20\x7D\x20\x41\x3A\x61\x63\x74\x69\x76\x65\x20\x7B\x20\x63\x6F\x6C\x6F\x72\x3A\x20\x23\x33\x33\x36\x36\x39\x39\x3B\x20\x66\x6F\x6E\x74\x2D\x77\x65\x69\x67\x68\x74\x3A\x20\x62\x6F\x6C\x64\x3B\x20\x74\x65\x78\x74\x2D\x64\x65\x63\x6F\x72\x61\x74\x69\x6F\x6E\x3A\x20\x75\x6E\x64\x65\x72\x6C\x69\x6E\x65\x3B\x20\x7D\x20\x2E\x68\x65\x61\x64\x69\x6E\x67\x31\x20\x7B\x20\x62\x61\x63\x6B\x67\x72\x6F\x75\x6E\x64\x2D\x63\x6F\x6C\x6F\x72\x3A\x20\x23\x30\x30\x33\x33\x36\x36\x3B\x20\x62\x6F\x72\x64\x65\x72\x2D\x62\x6F\x74\x74\x6F\x6D\x3A\x20\x23\x33\x33\x36\x36\x39\x39\x20\x36\x70\x78\x20\x73\x6F\x6C\x69\x64\x3B\x20\x63\x6F\x6C\x6F\x72\x3A\x20\x23\x66\x66\x66\x66\x66\x66\x3B\x20\x66\x6F\x6E\x74\x2D\x66\x61\x6D\x69\x6C\x79\x3A\x20\x54\x61\x68\x6F\x6D\x61\x3B\x20\x66\x6F\x6E\x74\x2D\x73\x69\x7A\x65\x3A\x20\x32\x36\x70\x78\x3B\x20\x66\x6F\x6E\x74\x2D\x77\x65\x69\x67\x68\x74\x3A\x20\x6E\x6F\x72\x6D\x61\x6C\x3B\x6D\x61\x72\x67\x69\x6E\x3A\x20\x30\x65\x6D\x20\x30\x65\x6D\x20\x31\x30\x70\x78\x20\x2D\x32\x30\x70\x78\x3B\x20\x70\x61\x64\x64\x69\x6E\x67\x2D\x62\x6F\x74\x74\x6F\x6D\x3A\x20\x38\x70\x78\x3B\x20\x70\x61\x64\x64\x69\x6E\x67\x2D\x6C\x65\x66\x74\x3A\x20\x33\x30\x70\x78\x3B\x70\x61\x64\x64\x69\x6E\x67\x2D\x74\x6F\x70\x3A\x20\x31\x36\x70\x78\x3B\x7D\x20\x70\x72\x65\x20\x7B\x20\x66\x6F\x6E\x74\x2D\x73\x69\x7A\x65\x3A\x73\x6D\x61\x6C\x6C\x3B\x20\x62\x61\x63\x6B\x67\x72\x6F\x75\x6E\x64\x2D\x63\x6F\x6C\x6F\x72\x3A\x20\x23\x65\x35\x65\x35\x63\x63\x3B\x20\x70\x61\x64\x64\x69\x6E\x67\x3A\x20\x35\x70\x78\x3B\x20\x66\x6F\x6E\x74\x2D\x66\x61\x6D\x69\x6C\x79\x3A\x20\x43\x6F\x75\x72\x69\x65\x72\x20\x4E\x65\x77\x3B\x20\x6D\x61\x72\x67\x69\x6E\x2D\x74\x6F\x70\x3A\x20\x30\x70\x78\x3B\x20\x62\x6F\x72\x64\x65\x72\x3A\x20\x31\x70\x78\x20\x23\x66\x30\x66\x30\x65\x30\x20\x73\x6F\x6C\x69\x64\x3B\x20\x77\x68\x69\x74\x65\x2D\x73\x70\x61\x63\x65\x3A\x20\x70\x72\x65\x2D\x77\x72\x61\x70\x3B\x20\x77\x68\x69\x74\x65\x2D\x73\x70\x61\x63\x65\x3A\x20\x2D\x70\x72\x65\x2D\x77\x72\x61\x70\x3B\x20\x77\x6F\x72\x64\x2D\x77\x72\x61\x70\x3A\x20\x62\x72\x65\x61\x6B\x2D\x77\x6F\x72\x64\x3B\x20\x7D\x20\x74\x61\x62\x6C\x65\x20\x7B\x20\x62\x6F\x72\x64\x65\x72\x2D\x63\x6F\x6C\x6C\x61\x70\x73\x65\x3A\x20\x63\x6F\x6C\x6C\x61\x70\x73\x65\x3B\x20\x62\x6F\x72\x64\x65\x72\x2D\x73\x70\x61\x63\x69\x6E\x67\x3A\x20\x30\x70\x78\x3B\x20\x66\x6F\x6E\x74\x2D\x66\x61\x6D\x69\x6C\x79\x3A\x20\x56\x65\x72\x64\x61\x6E\x61\x3B\x7D\x20\x74\x61\x62\x6C\x65\x20\x74\x68\x20\x7B\x20\x62\x6F\x72\x64\x65\x72\x2D\x72\x69\x67\x68\x74\x3A\x20\x32\x70\x78\x20\x77\x68\x69\x74\x65\x20\x73\x6F\x6C\x69\x64\x3B\x20\x62\x6F\x72\x64\x65\x72\x2D\x62\x6F\x74\x74\x6F\x6D\x3A\x20\x32\x70\x78\x20\x77\x68\x69\x74\x65\x20\x73\x6F\x6C\x69\x64\x3B\x20\x66\x6F\x6E\x74\x2D\x77\x65\x69\x67\x68\x74\x3A\x20\x62\x6F\x6C\x64\x3B\x20\x62\x61\x63\x6B\x67\x72\x6F\x75\x6E\x64\x2D\x63\x6F\x6C\x6F\x72\x3A\x20\x23\x63\x65\x63\x66\x39\x63\x3B\x7D\x20\x74\x61\x62\x6C\x65\x20\x74\x64\x20\x7B\x20\x62\x6F\x72\x64\x65\x72\x2D\x72\x69\x67\x68\x74\x3A\x20\x32\x70\x78\x20\x77\x68\x69\x74\x65\x20\x73\x6F\x6C\x69\x64\x3B\x20\x62\x6F\x72\x64\x65\x72\x2D\x62\x6F\x74\x74\x6F\x6D\x3A\x20\x32\x70\x78\x20\x77\x68\x69\x74\x65\x20\x73\x6F\x6C\x69\x64\x3B\x20\x62\x61\x63\x6B\x67\x72\x6F\x75\x6E\x64\x2D\x63\x6F\x6C\x6F\x72\x3A\x20\x23\x65\x35\x65\x35\x63\x63\x3B\x7D\x3C\x2F\x73\x74\x79\x6C\x65\x3E\r\n\x20\x20\x3C\x2F\x68\x65\x61\x64\x3E\r\n\x20\x20\x3C\x62\x6F\x64\x79\x3E\r\n\x20\x20\x20\x20\x3C\x64\x69\x76\x20\x69\x64\x3D\"\x63\x6F\x6E\x74\x65\x6E\x74\"\x3E\r\n\x20\x20\x20\x20\x20\x20\x3C\x70\x20\x63\x6C\x61\x73\x73\x3D\"\x68\x65\x61\x64\x69\x6E\x67\x31\"\x3E\x52\x65\x71\x75\x65\x73\x74\x20\x45\x72\x72\x6F\x72\x3C\x2F\x70\x3E\r\n\x20\x20\x20\x20\x20\x20\x3C\x70\x3E\x54\x68\x65\x20\x73\x65\x72\x76\x65\x72\x20\x65\x6E\x63\x6F\x75\x6E\x74\x65\x72\x65\x64\x20\x61\x6E\x20\x65\x72\x72\x6F\x72\x20\x70\x72\x6F\x63\x65\x73\x73\x69\x6E\x67\x20\x74\x68\x65\x20\x72\x65\x71\x75\x65\x73\x74\x2E\x20\x53\x65\x65\x20\x73\x65\x72\x76\x65\x72\x20\x6C\x6F\x67\x73\x20\x66\x6F\x72\x20\x6D\x6F\x72\x65\x20\x64\x65\x74\x61\x69\x6C\x73\x2E\x3C\x2F\x70\x3E\r\n\x20\x20\x20\x20\x3C\x2F\x64\x69\x76\x3E\r\n\x20\x20\x3C\x2F\x62\x6F\x64\x79\x3E\r\n\x3C\x2F\x68\x74\x6D\x6C\x3E"
    headers:
      Content-Length:
      - "1647"
      Content-Type:
      - text/html
      Date:
      - Sun, 13 Jun 2021 02:49:16 GMT
      Request-Context:
      - appId=cid-v1:da002513-bd8b-4441-9f30-737944134422
      Set-Cookie:
      - api_https.cookieCORS=76a6c6567ab12cea5dac4942d8df71cc; Path=/; SameSite=None;
        Secure
      - api_https.cookie=76a6c6567ab12cea5dac4942d8df71cc; Path=/
      - TS01fa65e4=01359ee976e0e5445b8b7c60d2fbc1448732aeb54f905e4f45e1156abac3eaf7f388adeabef6408b2b05dacd11bbaa13090f036288;
        Path=/
      - TS019865bf=01689d38369e4eee4354148c1c8d1f658f162c3f271eb342992d36be74cedc4a6ba19381680c5b58e0de06edc314838b4f28a977b6d9129aa8c313b0ff57bb77f7830f9928;
        Path=/
    status: 400 Bad Request
    code: 400
    duration: ""
