---
version: 1
interactions:
- request:
    body: ""
    form: {}
    headers:
      User-Agent:
      - wbdata-go
    url: https://api.worldbank.org/v2/countries/all/indicators/NY.GDP.MKTP.CD;SP.POP.TOTL?format=json&source=2
    method: GET
  response:
    body: '[{"page":1,"pages":645,"per_page":50,"total":32208,"sourceid":null,"lastupdated":"2021-02-17"},[{"indicator":{"id":"NY.GDP.MKTP.CD","value":"GDP
      (current US$)"},"country":{"id":"1A","value":"Arab World"},"countryiso3code":"ARB","date":"2020","value":null,"scale":"","unit":"","obs_status":"","decimal":0},{"indicator":{"id":"NY.GDP.MKTP.CD","value":"GDP
      (current US$)"},"country":{"id":"1A","value":"Arab World"},"countryiso3code":"ARB","date":"2019","value":2817414584665.11,"unit":"","obs_status":"","decimal":0},{"indicator":{"id":"NY.GDP.MKTP.CD","value":"GDP
      (current US$)"},"country":{"id":"1A","value":"Arab World"},"countryiso3code":"ARB","date":"2018","value":2771384097904.53,"unit":"","obs_status":"","decimal":0},{"indicator":{"id":"NY.GDP.MKTP.CD","value":"GDP
      (current US$)"},"country":{"id":"1A","value":"Arab World"},"countryiso3code":"ARB","date":"2017","value":2516121177762.82,"unit":"","obs_status":"","decimal":0},{"indicator":{"id":"NY.GDP.MKTP.CD","value":"GDP
      (current US$)"},"country":{"id":"1A","value":"Arab World"},"countryiso3code":"ARB","date":"2016","value":2469440154484.43,"unit":"","obs_status":"","decimal":0},{"indicator":{"id":"NY.GDP.MKTP.CD","value":"GDP
      (current US$)"},"country":{"id":"1A","value":"Arab World"},"countryiso3code":"ARB","date":"2015","value":2534723688142.23,"unit":"","obs_status":"","decimal":0},{"indicator":{"id":"NY.GDP.MKTP.CD","value":"GDP
      (current US$)"},"country":{"id":"1A","value":"Arab World"},"countryiso3code":"ARB","date":"2014","value":2894391168409.53,"unit":"","obs_status":"","decimal":0},{"indicator":{"id":"NY.GDP.MKTP.CD","value":"GDP
      (current US$)"},"country":{"id":"1A","value":"Arab World"},"countryiso3code":"ARB","date":"2013","value":2856372458851.04,"unit":"","obs_status":"","decimal":0},{"indicator":{"id":"NY.GDP.MKTP.CD","value":"GDP
      (current US$)"},"country":{"id":"1A","value":"Arab World"},"countryiso3code":"ARB","date":"2012","value":2773499064014.84,"unit":"","obs_status":"","decimal":0},{"indicator":{"id":"NY.GDP.MKTP.CD","value":"GDP
      (current US$)"},"country":{"id":"1A","value":"Arab World"},"countryiso3code":"ARB","date":"2011","value":2494028778449.34,"unit":"","obs_status":"","decimal":0},{"indicator":{"id":"NY.GDP.MKTP.CD","value":"GDP
      (current US$)"},"country":{"id":"1A","value":"Arab World"},"countryiso3code":"ARB","date":"2010","value":2103331412247.86,"unit":"","obs_status":"","decimal":0},{"indicator":{"id":"NY.GDP.MKTP.CD","value":"GDP
      (current US$)"},"country":{"id":"1A","value":"Arab World"},"countryiso3code":"ARB","date":"2009","value":1795740921393.58,"unit":"","obs_status":"","decimal":0},{"indicator":{"id":"NY.GDP.MKTP.CD","value":"GDP
      (current US$)"},"country":{"id":"1A","value":"Arab World"},"countryiso3code":"ARB","date":"2008","value":2080969850135.39,"unit":"","obs_status":"","decimal":0},{"indicator":{"id":"NY.GDP.MKTP.CD","value":"GDP
      (current US$)"},"country":{"id":"1A","value":"Arab World"},"countryiso3code":"ARB","date":"2007","value":1639307043044.79,"unit":"","obs_status":"","decimal":0},{"indicator":{"id":"NY.GDP.MKTP.CD","value":"GDP
      (current US$)"},"country":{"id":"1A","value":"Arab World"},"countryiso3code":"ARB","date":"2006","value":1406002045914.84,"unit":"","obs_status":"","decimal":0},{"indicator":{"id":"NY.GDP.MKTP.CD","value":"GDP
      (current US$)"},"country":{"id":"1A","value":"Arab World"},"countryiso3code":"ARB","date":"2005","value":1186135399898.53,"unit":"","obs_status":"","decimal":0},{"indicator":{"id":"NY.GDP.MKTP.CD","value":"GDP
      (current US$)"},"country":{"id":"1A","value":"Arab World"},"countryiso3code":"ARB","date":"2004","value":965100949397.812,"unit":"","obs_status":"","decimal":0},{"indicator":{"id":"NY.GDP.MKTP.CD","value":"GDP
      (current US$)"},"country":{"id":"1A","value":"Arab World"},"countryiso3code":"ARB","date":"2003","value":821089931822.719,"unit":"","obs_status":"","decimal":0},{"indicator":{"id":"NY.GDP.MKTP.CD","value":"GDP
      (current US$)"},"country":{"id":"1A","value":"Arab World"},"countryiso3code":"ARB","date":"2002","value":726832740066.549,"unit":"","obs_status":"","decimal":0},{"indicator":{"id":"NY.GDP.MKTP.CD","value":"GDP
      (current US$)"},"country":{"id":"1A","value":"Arab World"},"countryiso3code":"ARB","date":"2001","value":722917010350.548,"unit":"","obs_status":"","decimal":0},{"indicator":{"id":"NY.GDP.MKTP.CD","value":"GDP
      (current US$)"},"country":{"id":"1A","value":"Arab World"},"countryiso3code":"ARB","date":"2000","value":735685319268.802,"unit":"","obs_status":"","decimal":0},{"indicator":{"id":"NY.GDP.MKTP.CD","value":"GDP
      (current US$)"},"country":{"id":"1A","value":"Arab World"},"countryiso3code":"ARB","date":"1999","value":644527010683.065,"unit":"","obs_status":"","decimal":0},{"indicator":{"id":"NY.GDP.MKTP.CD","value":"GDP
      (current US$)"},"country":{"id":"1A","value":"Arab World"},"countryiso3code":"ARB","date":"1998","value":592264356627.349,"unit":"","obs_status":"","decimal":0},{"indicator":{"id":"NY.GDP.MKTP.CD","value":"GDP
      (current US$)"},"country":{"id":"1A","value":"Arab World"},"countryiso3code":"ARB","date":"1997","value":614123231689.679,"unit":"","obs_status":"","decimal":0},{"indicator":{"id":"NY.GDP.MKTP.CD","value":"GDP
      (current US$)"},"country":{"id":"1A","value":"Arab World"},"countryiso3code":"ARB","date":"1996","value":579109082402.504,"unit":"","obs_status":"","decimal":0},{"indicator":{"id":"NY.GDP.MKTP.CD","value":"GDP
      (current US$)"},"country":{"id":"1A","value":"Arab World"},"countryiso3code":"ARB","date":"1995","value":524626754650.83,"unit":"","obs_status":"","decimal":0},{"indicator":{"id":"NY.GDP.MKTP.CD","value":"GDP
      (current US$)"},"country":{"id":"1A","value":"Arab World"},"countryiso3code":"ARB","date":"1994","value":488310840410.44,"unit":"","obs_status":"","decimal":0},{"indicator":{"id":"NY.GDP.MKTP.CD","value":"GDP
      (current US$)"},"country":{"id":"1A","value":"Arab World"},"countryiso3code":"ARB","date":"1993","value":477750218753.597,"unit":"","obs_status":"","decimal":0},{"indicator":{"id":"NY.GDP.MKTP.CD","value":"GDP
      (current US$)"},"country":{"id":"1A","value":"Arab World"},"countryiso3code":"ARB","date":"1992","value":472395612979.048,"unit":"","obs_status":"","decimal":0},{"indicator":{"id":"NY.GDP.MKTP.CD","value":"GDP
      (current US$)"},"country":{"id":"1A","value":"Arab World"},"countryiso3code":"ARB","date":"1991","value":441363731387.288,"unit":"","obs_status":"","decimal":0},{"indicator":{"id":"NY.GDP.MKTP.CD","value":"GDP
      (current US$)"},"country":{"id":"1A","value":"Arab World"},"countryiso3code":"ARB","date":"1990","value":447403057842.307,"unit":"","obs_status":"","decimal":0},{"indicator":{"id":"NY.GDP.MKTP.CD","value":"GDP
      (current US$)"},"country":{"id":"1A","value":"Arab World"},"countryiso3code":"ARB","date":"1989","value":323313155352.566,"unit":"","obs_status":"","decimal":0},{"indicator":{"id":"NY.GDP.MKTP.CD","value":"GDP
      (current US$)"},"country":{"id":"1A","value":"Arab World"},"countryiso3code":"ARB","date":"1988","value":308329777739.899,"unit":"","obs_status":"","decimal":0},{"indicator":{"id":"NY.GDP.MKTP.CD","value":"GDP
      (current US$)"},"country":{"id":"1A","value":"Arab World"},"countryiso3code":"ARB","date":"1987","value":313464339247.534,"unit":"","obs_status":"","decimal":0},{"indicator":{"id":"NY.GDP.MKTP.CD","value":"GDP
      (current US$)"},"country":{"id":"1A","value":"Arab World"},"countryiso3code":"ARB","date":"1986","value":294002304210.702,"unit":"","obs_status":"","decimal":0},{"indicator":{"id":"NY.GDP.MKTP.CD","value":"GDP
      (current US$)"},"country":{"id":"1A","value":"Arab World"},"countryiso3code":"ARB","date":"1985","value":307935286171.297,"unit":"","obs_status":"","decimal":0},{"indicator":{"id":"NY.GDP.MKTP.CD","value":"GDP
      (current US$)"},"country":{"id":"1A","value":"Arab World"},"countryiso3code":"ARB","date":"1984","value":311102902529.672,"unit":"","obs_status":"","decimal":0},{"indicator":{"id":"NY.GDP.MKTP.CD","value":"GDP
      (current US$)"},"country":{"id":"1A","value":"Arab World"},"countryiso3code":"ARB","date":"1983","value":306718525880.767,"unit":"","obs_status":"","decimal":0},{"indicator":{"id":"NY.GDP.MKTP.CD","value":"GDP
      (current US$)"},"country":{"id":"1A","value":"Arab World"},"countryiso3code":"ARB","date":"1982","value":326467614158.131,"unit":"","obs_status":"","decimal":0},{"indicator":{"id":"NY.GDP.MKTP.CD","value":"GDP
      (current US$)"},"country":{"id":"1A","value":"Arab World"},"countryiso3code":"ARB","date":"1981","value":348013579325.699,"unit":"","obs_status":"","decimal":0},{"indicator":{"id":"NY.GDP.MKTP.CD","value":"GDP
      (current US$)"},"country":{"id":"1A","value":"Arab World"},"countryiso3code":"ARB","date":"1980","value":337548607895.817,"unit":"","obs_status":"","decimal":0},{"indicator":{"id":"NY.GDP.MKTP.CD","value":"GDP
      (current US$)"},"country":{"id":"1A","value":"Arab World"},"countryiso3code":"ARB","date":"1979","value":248970610830.706,"unit":"","obs_status":"","decimal":0},{"indicator":{"id":"NY.GDP.MKTP.CD","value":"GDP
      (current US$)"},"country":{"id":"1A","value":"Arab World"},"countryiso3code":"ARB","date":"1978","value":183969539762.573,"unit":"","obs_status":"","decimal":0},{"indicator":{"id":"NY.GDP.MKTP.CD","value":"GDP
      (current US$)"},"country":{"id":"1A","value":"Arab World"},"countryiso3code":"ARB","date":"1977","value":167530174445.324,"unit":"","obs_status":"","decimal":0},{"indicator":{"id":"NY.GDP.MKTP.CD","value":"GDP
      (current US$)"},"country":{"id":"1A","value":"Arab World"},"countryiso3code":"ARB","date":"1976","value":145484738304.229,"unit":"","obs_status":"","decimal":0},{"indicator":{"id":"NY.GDP.MKTP.CD","value":"GDP
      (current US$)"},"country":{"id":"1A","value":"Arab World"},"countryiso3code":"ARB","date":"1975","value":117103149355.725,"unit":"","obs_status":"","decimal":0},{"indicator":{"id":"NY.GDP.MKTP.CD","value":"GDP
      (current US$)"},"country":{"id":"1A","value":"Arab World"},"countryiso3code":"ARB","date":"1974","value":105711125366.347,"unit":"","obs_status":"","decimal":0},{"indicator":{"id":"NY.GDP.MKTP.CD","value":"GDP
      (current US$)"},"country":{"id":"1A","value":"Arab World"},"countryiso3code":"ARB","date":"1973","value":55922081751.8976,"unit":"","obs_status":"","decimal":0},{"indicator":{"id":"NY.GDP.MKTP.CD","value":"GDP
      (current US$)"},"country":{"id":"1A","value":"Arab World"},"countryiso3code":"ARB","date":"1972","value":44182128971.3952,"unit":"","obs_status":"","decimal":0},{"indicator":{"id":"NY.GDP.MKTP.CD","value":"GDP
      (current US$)"},"country":{"id":"1A","value":"Arab World"},"countryiso3code":"ARB","date":"1971","value":37045140366.8421,"unit":"","obs_status":"","decimal":0}]]'
    headers:
      Access-Control-Allow-Headers:
      - X-Requested-With
      Access-Control-Allow-Methods:
      - GET
      Access-Control-Allow-Origin:
      - '*'
      Cache-Control:
      - public, must-revalidate, max-age=2591946
      Content-Length:
      - "10594"
      Content-Type:
      - application/json;charset=utf-8
      Date:
      - Tue, 23 Feb 2021 05:14:35 GMT
      Expires:
      - Thu, 25 Mar 2021 05:13:41 GMT
      Last-Modified:
      - Tue, 23 Feb 2021 05:13:41 GMT
      Request-Context:
      - appId=cid-v1:da002513-bd8b-4441-9f30-737944134422
      Set-Cookie:
      - api_https.cookieCORS=53177bb75221daa2374b8eb09e8f707d; Path=/; SameSite=None;
        Secure
      - api_https.cookie=53177bb75221daa2374b8eb09e8f707d; Path=/
      - dataapi.cookie=853586186.20480.0000; path=/; Httponly
      - BIGipServerdataapi.sfarm=1604431882.20480.0000; path=/; Httponly
      - TS019266c8=017189f9478e4e33153dcb1f1a6261eb63cb9b024ce7c4ec2092ba92a275e178da525e5c5b0c54cadcd7bd9af3820beb2aa5850e8b7b82e0e0b8ee3e1b4f69340b3e09a21a0561e1f39a38e2421b1b6a826d532df1;
        Path=/
      - TS019865bf=0123646321a0e2c15576e2c39ef96d3847aa8318ee743b546982f2c7bc90fad0081075ea818c2f69e6dfc10254c9fef724146c403d954cb26e9db3e1b5484f51a9d4c05f1a235db7acae62938b5fd28c4937ecd5b4592215350ca32f56efc8b3218442405e;
        Path=/
    status: 200 OK
    code: 200
    duration: ""
- request:
    body: ""
    form: {}
    headers:
      User-Agent:
      - wbdata-go
    url: https://api.worldbank.org/v2/countries/all/indicators/NY.GDP.MKTP.CD;SP.POP.TOTL?date=2018%3A2019&format=json&page=1&per_page=2&source=2
    method: GET
  response:
    body: '[{"page":1,"pages":528,"per_page":2,"total":1056,"sourceid":null,"lastupdated":"2021-02-17"},[{"indicator":{"id":"NY.GDP.MKTP.CD","value":"GDP
      (current US$)"},"country":{"id":"1A","value":"Arab World"},"countryiso3code":"ARB","date":"2019","value":2817414584665.11,"unit":"","obs_status":"","decimal":0},{"indicator":{"id":"NY.GDP.MKTP.CD","value":"GDP
      (current US$)"},"country":{"id":"1A","value":"Arab World"},"countryiso3code":"ARB","date":"2018","value":2771384097904.53,"unit":"","obs_status":"","decimal":0}]]'
    headers:
      Access-Control-Allow-Headers:
      - X-Requested-With
      Access-Control-Allow-Methods:
      - GET
      Access-Control-Allow-Origin:
      - '*'
      Cache-Control:
      - public, must-revalidate, max-age=2591947
      Content-Length:
      - "515"
      Content-Type:
      - application/json;charset=utf-8
      Date:
      - Tue, 23 Feb 2021 05:14:35 GMT
      Expires:
      - Thu, 25 Mar 2021 05:13:42 GMT
      Last-Modified:
      - Tue, 23 Feb 2021 05:13:42 GMT
      Request-Context:
      - appId=cid-v1:da002513-bd8b-4441-9f30-737944134422
      Set-Cookie:
      - api_https.cookieCORS=96906c52f5aa89ac2fd6ca82f58d4294; Path=/; SameSite=None;
        Secure
      - api_https.cookie=96906c52f5aa89ac2fd6ca82f58d4294; Path=/
      - dataapi.cookie=853586186.20480.0000; path=/; Httponly
      - BIGipServerdataapi.sfarm=1604431882.20480.0000; path=/; Httponly
      - TS019266c8=017189f9470c5f57fd164ddacb142c9216369ae7774153db8b7b37c1685b0c89ca5793a1875ea31779b3462c71eb843dbb4670379738f5f3e5ce9c35a85c3c203d20b283f093b5215ae05752cd84307f788f1dc388;
        Path=/
      - TS019865bf=016ca9217331e35725f561d355960f7e321b3c559a630c8be5f2ce801e7c7888501a8dc10f498ac72340f76a27825ebb919ea70104fa67784a8b5e211477f57f21c8091c79142781ba67f4396f0d5ed833e9876a47bcda790ea69f8b482dfcc979011ce0a4;
        Path=/
    status: 200 OK
    code: 200
    duration: ""
- request:
    body: ""
    form: {}
    headers:
      User-Agent:
      - wbdata-go
    url: https://api.worldbank.org/v2/countries/all/indicators/INVALID.INDICATOR.ID;SP.POP.TOTL?format=json&source=2
    method: GET
  response:
    body: '[{"message":[{"id":"120","key":"Invalid value","value":"The provided parameter
      value is not valid"},{"id":"120","key":"Invalid value","value":"The provided
      parameter value is not valid"},{"id":"120","key":"Invalid value","value":"The
      provided parameter value is not valid"}]}]'
    headers:
      Access-Control-Allow-Headers:
      - X-Requested-With
      Access-Control-Allow-Methods:
      - GET
      Access-Control-Allow-Origin:
      - '*'
      Cache-Control:
      - public, must-revalidate, max-age=2591946
      Content-Length:
      - "276"
      Content-Type:
      - application/json;charset=utf-8
      Date:
      - Tue, 23 Feb 2021 05:14:36 GMT
      Expires:
      - Thu, 25 Mar 2021 05:13:42 GMT
      Last-Modified:
      - Tue, 23 Feb 2021 05:13:42 GMT
      Request-Context:
      - appId=cid-v1:da002513-bd8b-4441-9f30-737944134422
      Set-Cookie:
      - api_https.cookieCORS=53177bb75221daa2374b8eb09e8f707d; Path=/; SameSite=None;
        Secure
      - api_https.cookie=53177bb75221daa2374b8eb09e8f707d; Path=/
      - dataapi.cookie=853586186.20480.0000; path=/; Httponly
      - BIGipServerdataapi.sfarm=1604431882.20480.0000; path=/; Httponly
      - TS019266c8=017189f94785b2f0932ddbec0ee8addcb27bc4a668234df7e2b93a86fc8129cbc40a07061dd516703a8cfea87ae847107053596997a6954c9b3e5fc44ae44c646900378d9174cf0ec762f0f4b1d02f939b944dbf86;
        Path=/
      - TS019865bf=0123646321979017e767bf3ce59bba3c830ce547892cc84a60adac4f926baa4613d5a2ca611f02bd6e861dc26f278c28ae0f2bd96b9126e923c2fbd2c6b6f775fde681cbacdfa7c0bf166557799c3875ee08b303f7845ef98fbb74abc27570d70c67ba220c;
        Path=/
    status: 200 OK
    code: 200
    duration: ""
- request:
    body: ""
    form: {}
    headers:
      User-Agent:
      - wbdata-go
    url: https://api.worldbank.org/v2/countries/all/indicators/INVALID.INDICATOR.ID;SP.POP.TOTL?format=json&source=invalid_source_id
    method: GET
  response:
    body: "\uFEFF\x3C\x3F\x78\x6D\x6C\x20\x76\x65\x72\x73\x69\x6F\x6E\x3D\"\x31\x2E\x30\"\x20\x65\x6E\x63\x6F\x64\x69\x6E\x67\x3D\"\x75\x74\x66\x2D\x38\"\x3F\x3E\r\n\x3C\x21\x44\x4F\x43\x54\x59\x50\x45\x20\x68\x74\x6D\x6C\x20\x50\x55\x42\x4C\x49\x43\x20\"\x2D\x2F\x2F\x57\x33\x43\x2F\x2F\x44\x54\x44\x20\x58\x48\x54\x4D\x4C\x20\x31\x2E\x30\x20\x54\x72\x61\x6E\x73\x69\x74\x69\x6F\x6E\x61\x6C\x2F\x2F\x45\x4E\"\x20\"\x68\x74\x74\x70\x3A\x2F\x2F\x77\x77\x77\x2E\x77\x33\x2E\x6F\x72\x67\x2F\x54\x52\x2F\x78\x68\x74\x6D\x6C\x31\x2F\x44\x54\x44\x2F\x78\x68\x74\x6D\x6C\x31\x2D\x74\x72\x61\x6E\x73\x69\x74\x69\x6F\x6E\x61\x6C\x2E\x64\x74\x64\"\x3E\r\n\x3C\x68\x74\x6D\x6C\x20\x78\x6D\x6C\x6E\x73\x3D\"\x68\x74\x74\x70\x3A\x2F\x2F\x77\x77\x77\x2E\x77\x33\x2E\x6F\x72\x67\x2F\x31\x39\x39\x39\x2F\x78\x68\x74\x6D\x6C\"\x3E\r\n\x20\x20\x3C\x68\x65\x61\x64\x3E\r\n\x20\x20\x20\x20\x3C\x74\x69\x74\x6C\x65\x3E\x52\x65\x71\x75\x65\x73\x74\x20\x45\x72\x72\x6F\x72\x3C\x2F\x74\x69\x74\x6C\x65\x3E\r\n\x20\x20\x20\x20\x3C\x73\x74\x79\x6C\x65\x3E\x42\x4F\x44\x59\x20\x7B\x20\x63\x6F\x6C\x6F\x72\x3A\x20\x23\x30\x30\x30\x30\x30\x30\x3B\x20\x62\x61\x63\x6B\x67\x72\x6F\x75\x6E\x64\x2D\x63\x6F\x6C\x6F\x72\x3A\x20\x77\x68\x69\x74\x65\x3B\x20\x66\x6F\x6E\x74\x2D\x66\x61\x6D\x69\x6C\x79\x3A\x20\x56\x65\x72\x64\x61\x6E\x61\x3B\x20\x6D\x61\x72\x67\x69\x6E\x2D\x6C\x65\x66\x74\x3A\x20\x30\x70\x78\x3B\x20\x6D\x61\x72\x67\x69\x6E\x2D\x74\x6F\x70\x3A\x20\x30\x70\x78\x3B\x20\x7D\x20\x23\x63\x6F\x6E\x74\x65\x6E\x74\x20\x7B\x20\x6D\x61\x72\x67\x69\x6E\x2D\x6C\x65\x66\x74\x3A\x20\x33\x30\x70\x78\x3B\x20\x66\x6F\x6E\x74\x2D\x73\x69\x7A\x65\x3A\x20\x2E\x37\x30\x65\x6D\x3B\x20\x70\x61\x64\x64\x69\x6E\x67\x2D\x62\x6F\x74\x74\x6F\x6D\x3A\x20\x32\x65\x6D\x3B\x20\x7D\x20\x41\x3A\x6C\x69\x6E\x6B\x20\x7B\x20\x63\x6F\x6C\x6F\x72\x3A\x20\x23\x33\x33\x36\x36\x39\x39\x3B\x20\x66\x6F\x6E\x74\x2D\x77\x65\x69\x67\x68\x74\x3A\x20\x62\x6F\x6C\x64\x3B\x20\x74\x65\x78\x74\x2D\x64\x65\x63\x6F\x72\x61\x74\x69\x6F\x6E\x3A\x20\x75\x6E\x64\x65\x72\x6C\x69\x6E\x65\x3B\x20\x7D\x20\x41\x3A\x76\x69\x73\x69\x74\x65\x64\x20\x7B\x20\x63\x6F\x6C\x6F\x72\x3A\x20\x23\x36\x36\x39\x39\x63\x63\x3B\x20\x66\x6F\x6E\x74\x2D\x77\x65\x69\x67\x68\x74\x3A\x20\x62\x6F\x6C\x64\x3B\x20\x74\x65\x78\x74\x2D\x64\x65\x63\x6F\x72\x61\x74\x69\x6F\x6E\x3A\x20\x75\x6E\x64\x65\x72\x6C\x69\x6E\x65\x3B\x20\x7D\x20\x41\x3A\x61\x63\x74\x69\x76\x65\x20\x7B\x20\x63\x6F\x6C\x6F\x72\x3A\x20\x23\x33\x33\x36\x36\x39\x39\x3B\x20\x66\x6F\x6E\x74\x2D\x77\x65\x69\x67\x68\x74\x3A\x20\x62\x6F\x6C\x64\x3B\x20\x74\x65\x78\x74\x2D\x64\x65\x63\x6F\x72\x61\x74\x69\x6F\x6E\x3A\x20\x75\x6E\x64\x65\x72\x6C\x69\x6E\x65\x3B\x20\x7D\x20\x2E\x68\x65\x61\x64\x69\x6E\x67\x31\x20\x7B\x20\x62\x61\x63\x6B\x67\x72\x6F\x75\x6E\x64\x2D\x63\x6F\x6C\x6F\x72\x3A\x20\x23\x30\x30\x33\x33\x36\x36\x3B\x20\x62\x6F\x72\x64\x65\x72\x2D\x62\x6F\x74\x74\x6F\x6D\x3A\x20\x23\x33\x33\x36\x36\x39\x39\x20\x36\x70\x78\x20\x73\x6F\x6C\x69\x64\x3B\x20\x63\x6F\x6C\x6F\x72\x3A\x20\x23\x66\x66\x66\x66\x66\x66\x3B\x20\x66\x6F\x6E\x74\x2D\x66\x61\x6D\x69\x6C\x79\x3A\x20\x54\x61\x68\x6F\x6D\x61\x3B\x20\x66\x6F\x6E\x74\x2D\x73\x69\x7A\x65\x3A\x20\x32\x36\x70\x78\x3B\x20\x66\x6F\x6E\x74\x2D\x77\x65\x69\x67\x68\x74\x3A\x20\x6E\x6F\x72\x6D\x61\x6C\x3B\x6D\x61\x72\x67\x69\x6E\x3A\x20\x30\x65\x6D\x20\x30\x65\x6D\x20\x31\x30\x70\x78\x20\x2D\x32\x30\x70\x78\x3B\x20\x70\x61\x64\x64\x69\x6E\x67\x2D\x62\x6F\x74\x74\x6F\x6D\x3A\x20\x38\x70\x78\x3B\x20\x70\x61\x64\x64\x69\x6E\x67\x2D\x6C\x65\x66\x74\x3A\x20\x33\x30\x70\x78\x3B\x70\x61\x64\x64\x69\x6E\x67\x2D\x74\x6F\x70\x3A\x20\x31\x36\x70\x78\x3B\x7D\x20\x70\x72\x65\x20\x7B\x20\x66\x6F\x6E\x74\x2D\x73\x69\x7A\x65\x3A\x73\x6D\x61\x6C\x6C\x3B\x20\x62\x61\x63\x6B\x67\x72\x6F\x75\x6E\x64\x2D\x63\x6F\x6C\x6F\x72\x3A\x20\x23\x65\x35\x65\x35\x63\x63\x3B\x20\x70\x61\x64\x64\x69\x6E\x67\x3A\x20\x35\x70\x78\x3B\x20\x66\x6F\x6E\x74\x2D\x66\x61\x6D\x69\x6C\x79\x3A\x20\x43\x6F\x75\x72\x69\x65\x72\x20\x4E\x65\x77\x3B\x20\x6D\x61\x72\x67\x69\x6E\x2D\x74\x6F\x70\x3A\x20\x30\x70\x78\x3B\x20\x62\x6F\x72\x64\x65\x72\x3A\x20\x31\x70\x78\x20\x23\x66\x30\x66\x30\x65\x30\x20\x73\x6F\x6C\x69\x64\x3B\x20\x77\x68\x69\x74\x65\x2D\x73\x70\x61\x63\x65\x3A\x20\x70\x72\x65\x2D\x77\x72\x61\x70\x3B\x20\x77\x68\x69\x74\x65\x2D\x73\x70\x61\x63\x65\x3A\x20\x2D\x70\x72\x65\x2D\x77\x72\x61\x70\x3B\x20\x77\x6F\x72\x64\x2D\x77\x72\x61\x70\x3A\x20\x62\x72\x65\x61\x6B\x2D\x77\x6F\x72\x64\x3B\x20\x7D\x20\x74\x61\x62\x6C\x65\x20\x7B\x20\x62\x6F\x72\x64\x65\x72\x2D\x63\x6F\x6C\x6C\x61\x70\x73\x65\x3A\x20\x63\x6F\x6C\x6C\x61\x70\x73\x65\x3B\x20\x62\x6F\x72\x64\x65\x72\x2D\x73\x70\x61\x63\x69\x6E\x67\x3A\x20\x30\x70\x78\x3B\x20\x66\x6F\x6E\x74\x2D\x66\x61\x6D\x69\x6C\x79\x3A\x20\x56\x65\x72\x64\x61\x6E\x61\x3B\x7D\x20\x74\x61\x62\x6C\x65\x20\x74\x68\x20\x7B\x20\x62\x6F\x72\x64\x65\x72\x2D\x72\x69\x67\x68\x74\x3A\x20\x32\x70\x78\x20\x77\x68\x69\x74\x65\x20\x73\x6F\x6C\x69\x64\x3B\x20\x62\x6F\x72\x64\x65\x72\x2D\x62\x6F\x74\x74\x6F\x6D\x3A\x20\x32\x70\x78\x20\x77\x68\x69\x74\x65\x20\x73\x6F\x6C\x69\x64\x3B\x20\x66\x6F\x6E\x74\x2D\x77\x65\x69\x67\x68\x74\x3A\x20\x62\x6F\x6C\x64\x3B\x20\x62\x61\x63\x6B\x67\x72\x6F\x75\x6E\x64\x2D\x63\x6F\x6C\x6F\x72\x3A\x20\x23\x63\x65\x63\x66\x39\x63\x3B\x7D\x20\x74\x61\x62\x6C\x65\x20\x74\x64\x20\x7B\x20\x62\x6F\x72\x64\x65\x72\x2D\x72\x69\x67\x68\x74\x3A\x20\x32\x70\x78\x20\x77\x68\x69\x74\x65\x20\x73\x6F\x6C\x69\x64\x3B\x20\x62\x6F\x72\x64\x65\x72\x2D\x62\x6F\x74\x74\x6F\x6D\x3A\x20\x32\x70\x78\x20\x77\x68\x69\x74\x65\x20\x73\x6F\x6C\x69\x64\x3B\x20\x62\x61\x63\x6B\x67\x72\x6F\x75\x6E\x64\x2D\x63\x6F\x6C\x6F\x72\x3A\x20\x23\x65\x35\x65\x35\x63\x63\x3B\x7D\x3C\x2F\x73\x74\x79\x6C\x65\x3E\r\n\x20\x20\x3C\x2F\x68\x65\x61\x64\x3E\r\n\x20\x20\x3C\x62\x6F\x64\x79\x3E\r\n\x20\x20\x20\x20\x3C\x64\x69\x76\x20\x69\x64\x3D\"\x63\x6F\x6E\x74\x65\x6E\x74\"\x3E\r\n\x20\x20\x20\x20\x20\x20\x3C\x70\x20\x63\x6C\x61\x73\x73\x3D\"\x68\x65\x61\x64\x69\x6E\x67\x31\"\x3E\x52\x65\x71\x75\x65\x73\x74\x20\x45\x72\x72\x6F\x72\x3C\x2F\x70\x3E\r\n\x20\x20\x20\x20\x20\x20\x3C\x70\x3E\x54\x68\x65\x20\x73\x65\x72\x76\x65\x72\x20\x65\x6E\x63\x6F\x75\x6E\x74\x65\x72\x65\x64\x20\x61\x6E\x20\x65\x72\x72\x6F\x72\x20\x70\x72\x6F\x63\x65\x73\x73\x69\x6E\x67\x20\x74\x68\x65\x20\x72\x65\x71\x75\x65\x73\x74\x2E\x20\x53\x65\x65\x20\x73\x65\x72\x76\x65\x72\x20\x6C\x6F\x67\x73\x20\x66\x6F\x72\x20\x6D\x6F\x72\x65\x20\x64\x65\x74\x61\x69\x6C\x73\x2E\x3C\x2F\x70\x3E\r\n\x20\x20\x20\x20\x3C\x2F\x64\x69\x76\x3E\r\n\x20\x20\x3C\x2F\x62\x6F\x64\x79\x3E\r\n\x3C\x2F\x68\x74\x6D\x6C\x3E"
    headers:
      Content-Length:
      - "1647"
      Content-Type:
      - text/html
      Date:
      - Tue, 23 Feb 2021 05:14:36 GMT
      Request-Context:
      - appId=cid-v1:da002513-bd8b-4441-9f30-737944134422
      Set-Cookie:
      - api_https.cookieCORS=96906c52f5aa89ac2fd6ca82f58d4294; Path=/; SameSite=None;
        Secure
      - api_https.cookie=96906c52f5aa89ac2fd6ca82f58d4294; Path=/
      - dataapi.cookie=853586186.20480.0000; path=/; Httponly
      - BIGipServerdataapi.sfarm=1604433930.20480.0000; path=/; Httponly
      - TS01fa65e4=01359ee97649743a589f53d99ad63f9c4ea1c9620c24c5169610f8016ef9ad1fab6b8646c558871489cd63f9a4029a04a2dbd52b3ca0d2782666226e88b7d49047e2a97c329b879ec1060921b2f1a9b0d6fd3e3a29;
        Path=/
      - TS019865bf=016ca92173fe196afbc74f3256afb0836944d03182fc9050e8575a5fc36c866f485be43e86b4ce13047e91ff912aba5af2cf3b4d374312c986de2c67ce1245483f6cccae97d2bf4b3a2a48065f0c19f9d25041b81d3f81ae0a320079648038f10bfbe22e3f;
        Path=/
    status: 400 Bad Request
    code: 400
    duration: ""
