---
version: 1
interactions:
- request:
    body: ""
    form: {}
    headers:
      User-Agent:
      - wbdata-go
    url: https://api.worldbank.org/v2/topics/1/indicators?format=json&page=1&per_page=2
    method: GET
  response:
    body: '[{"page":1,"pages":25,"per_page":"2","total":49},[{"id":"AG.AGR.TRAC.NO","name":"Agricultural
      machinery, tractors","unit":"","source":{"id":"2","value":"World Development
      Indicators"},"sourceNote":"Agricultural machinery refers to the number of wheel
      and crawler tractors (excluding garden tractors) in use in agriculture at the
      end of the calendar year specified or during the first quarter of the following
      year.","sourceOrganization":"Food and Agriculture Organization, electronic files
      and web site.","topics":[{"id":"1","value":"Agriculture & Rural Development  "}]},{"id":"AG.CON.FERT.PT.ZS","name":"Fertilizer
      consumption (% of fertilizer production)","unit":"","source":{"id":"2","value":"World
      Development Indicators"},"sourceNote":"Fertilizer consumption measures the quantity
      of plant nutrients used per unit of arable land. Fertilizer products cover nitrogenous,
      potash, and phosphate fertilizers (including ground rock phosphate). Traditional
      nutrients--animal and plant manures--are not included. For the purpose of data
      dissemination, FAO has adopted the concept of a calendar year (January to December).
      Some countries compile fertilizer data on a calendar year basis, while others
      are on a split-year basis.","sourceOrganization":"Food and Agriculture Organization,
      electronic files and web site.","topics":[{"id":"1","value":"Agriculture & Rural
      Development  "}]}]]'
    headers:
      Access-Control-Allow-Headers:
      - X-Requested-With
      Access-Control-Allow-Methods:
      - GET
      Access-Control-Allow-Origin:
      - '*'
      Cache-Control:
      - public, must-revalidate, max-age=2592000
      Content-Length:
      - "1383"
      Content-Type:
      - application/json;charset=utf-8
      Date:
      - Sun, 13 Jun 2021 02:49:02 GMT
      Expires:
      - Tue, 13 Jul 2021 02:49:02 GMT
      Last-Modified:
      - Sun, 13 Jun 2021 02:49:02 GMT
      Request-Context:
      - appId=cid-v1:da002513-bd8b-4441-9f30-737944134422
      Set-Cookie:
      - api_https.cookieCORS=286e43d9dbb589273e07f096cd441f82; Path=/; SameSite=None;
        Secure
      - api_https.cookie=286e43d9dbb589273e07f096cd441f82; Path=/
      - TS019266c8=017189f94710682960d164ae2b84082dceea24be72992efd8295667b0c39f0375c034d486438cdd145efb29f1baea1f76481262244;
        Path=/
      - TS019865bf=0114ae29269ae1383b2f910cc2669a4c5fd43def4e819ce7b048dbf7d4c8d9b2bb2b65fa4a087ccccb79e3181acc7e1684f259333fb7e8483f49d98c6340bbadbb9b981157;
        Path=/
    status: 200 OK
    code: 200
    duration: ""
- request:
    body: ""
    form: {}
    headers:
      User-Agent:
      - wbdata-go
    url: https://api.worldbank.org/v2/topics/invalid_topic_id/indicators?format=json&page=1&per_page=2
    method: GET
  response:
    body: '[{"message":[{"id":"120","key":"Invalid value","value":"The provided parameter
      value is not valid"}]}]'
    headers:
      Access-Control-Allow-Headers:
      - X-Requested-With
      Access-Control-Allow-Methods:
      - GET
      Access-Control-Allow-Origin:
      - '*'
      Cache-Control:
      - public, must-revalidate, max-age=2592000
      Content-Length:
      - "102"
      Content-Type:
      - application/json;charset=utf-8
      Date:
      - Sun, 13 Jun 2021 02:49:02 GMT
      Expires:
      - Tue, 13 Jul 2021 02:49:02 GMT
      Last-Modified:
      - Sun, 13 Jun 2021 02:49:02 GMT
      Request-Context:
      - appId=cid-v1:da002513-bd8b-4441-9f30-737944134422
      Set-Cookie:
      - api_https.cookieCORS=76a6c6567ab12cea5dac4942d8df71cc; Path=/; SameSite=None;
        Secure
      - api_https.cookie=76a6c6567ab12cea5dac4942d8df71cc; Path=/
      - TS01fa65e4=01359ee97689461035c75454eacbc687458fe97470faeb704a878ef7c19ca7ebc445e937c0028bbacba243068e964205d1419d3727;
        Path=/
      - TS019865bf=01689d3836c2a46c55298c9dba0706f803f13e0ed5e251dae430812e1aa60aee581922ea69620da33841c23ec9576edbf959e9627d75e47c1d9992ec79e7e09e971a914ed2;
        Path=/
    status: 200 OK
    code: 200
    duration: ""
